*ИКРА* (1997)
		Алмазами

Вступление:	<G Hm F# G G Hm F# F#> } 2 раза

>		   G       Hm         F#        G         Hm
		     Ветер обнимает сзади поднимает юбки
>		   F#          G
		     Обнажает танцы
>		   G        Hm   F#        G         Hm
		     Ненавидишь вечер если бы на теле
>		   F#            G
		     Покрывали звезды

>		   Hm     Em          F#         G
		     Алмазами как глазами засверкают вместе
>		 Hm  F#           G
		     Пыль зима пилоты
>		   Hm       Em         F#            G
		     Мы не можем тормозами брать не резать не
>		   Hm      F#      G
		     Пролетая повороты

		     На орбитах тайных где еще не биты
		     Не хватает сварки
		     Мы уходим вместе и проверим пульсы
		     Кольца спрячем в сейфы

		     Алмазами как глазами засверкают вместе
		     Пыль зима пилоты
		     Мы не можем тормозами брать не резать не
		     Пролетая повороты