*ИКРА* (1997), "Шамора (часть 2)"
		Далеко

Вступление:	<Am G Dm F>

>		Am Am Am7 Am  F Fm

>		  Am            Am   Am7                  Am
		  Обмороженные части    в огонь весны бросали мы
>		     F                 C              D
		  И таяали на глазах они как слезы седой зимы
>		       E                           Am     Am
		  Ненашедшей силы борьбы в словах нам расказанных вьюгой
>		Am7    Am     Am          F
		  В органной фуге торжество почерневшей земли
>		   C                D           E
		  Там где листья зелеными будут   мы прикасаем pуки свои

>		     Am                G
		Далеко до наполненных шумом лесов
>		     C                 E
		Далеко до захваченных ветром лугов
>		     Am                 G
		Еще дальше до темы морских берегов
>		    c                E
		Но сердце так бьется и не сдается

>		Am G Dm Fm

>		Am
		Обгоревшие перья смогли с трудом мы оторвать от пепла
		Мертвых снегов старые поверья вместе с огнем
		Прошли весь путь воскрешения вновь
		Стоит ли верить будущим дням несущим картины светлых лет
		Там где любовь приходит не к нам
		Зимы нескончаемый свет
		Далеко до беспечности поля цветов
		Далеко чистота лесных родников
		Еще дальше спокойствие волн морских
		Но сердце так бьется и не сдается

p.s.:		На 5 ладов ниже удобнее обыгрывать <Em>, чем <Am>.

-

Intro:		<F  F  G  G  Dm  Dm  Fm  Fm>
>		Am Ammaj7/G# Am7/G Am6/F#  F  Fm

Verse:		<  Am            Ammaj7  Am7                 Am6>
		  Обмороженные части      в огонь весны бросали мы
>		     F           Fm   C              Dm
		  И таяли на глазах они как слезы седой зимы
>		        E               E           Am                Ammaj7
		  Hе нашедшей силы борьбы в словах нам рассказанных вьюгой
>		Am7           Am6         F                 Fm
		  В органной фуге торжество почерневшей земли
>		   C                Dm
		  Там где листья зелеными будут
>		E               E
		  Мы прикасаем руки свои

Chorus:		<      F                 G>
		 Далеко до наполненных шумом лесов
>		      C                 E
		 Далеко до захваченных ветром лугов
>		      F                  G
		 Еще дальше до темы морских берегов
>		     C                E           E
		 Hо сердце так бьется и не сдается

Bridge:		<F  F  G  G  Dm  Dm  Fm  Fm>

Verse:		<  Am          Ammaj7 Am7                   Am6>
		  Обгоревшие перья    смогли с трудом мы оторвать от пепла
>		F            Fm   C              Dm
		  Мертвых снегов старые поверья вместе с огнем
>		       E                  E
		  Прошли весь путь воскрешения вновь
>		Am          Ammaj7  Am7        Am6
		  Стоит ли верить    будущим дням несущим
>		      F            Fm
		  Картины светлых лет
>		   C                 Dm
		  Там где любовь приходит не к нам
>		E              E
		  Зимы нескончаемый след

Chorus:		<      F                 G>
		 Далеко до беспечности поля цветов
>		      C             E
		 Далеко чистота лесных родников
>		      F                  G
		 Еще дальше спокойствие волн морских
>		     C                E           E
		 Hо сердце так бьется и не сдается

Ending:		<E7  X46>