
		Не очень

Intro:		<Dm Am C Am>

>		 Dm       Am
		Вылакает малахита,
>		   C
		С косточки нежной,
		Что наслаждает.
>		 Dm                    Am
		Куда развернуть твои 15 минут?
>		     C
		 А кто, кто его знает?

>		      G
		И тревога в часах,
		  И тревога в руках,
>		   Dm
		 И нервным улыбкам
>		   Dsus2    Dm
		Тошнит еще больше.
>		       B7
		 Так все же не очень
>		       Esus4   E
		Так все же не очень

		Сто новостей и один телевизор,
		Под мехом снегов и обветренных улиц,
		Из окон, как сплетни, расползшихся кашей,
		Выходим по следу сибирских красавиц.

		И солнце ближе к востоку,
		Их целых два стало сбоку,
		И в каждой луне по ране,
		Поглубже и дольше.
		 Так все же не очень
		Так все же не очень

>		       Dm
		Якоря не бросать,   \
>		     Am              } 2x
		Их уже не осталось. /
>		    Dm    Am
		Мы скоро увидимся...      \
>		        C                  } 2x
		Мы никогда не увидимся... /