
		Северный полюс

Theme 1:	<Am             H>
		  На северном полюсе
>		Dm
		  Разлиты до соболей,
>		Am           Em
		  Раздеты до пояса,
>		Dm            Em
		  Затаились отважные.

Chorus:		< F                     Am>
		  Раза раза три готов,
>		 E             F
		  Разорвать твою любовь!

Solo:		3)-------------0----------|
		4)----------2-----3-2--2--|
		5)-3--2--0----------------|

Theme 2:	Немножко не выжили,
		Затянулись сигарами,
		Я пары усталости
		Меняю в стаю желания.

Theme 3:	Круги нарезав полярные,
		Одиночки - герои - мы,
		Взаимно влюбленные
		Подводные лодочки.

Solo 2:		2)--------------------------------------3-----------|
		3)-------------0-----------/5--4--2--5----5--4-4----|
		4)----------2-----3--2-2----------------------------|
		5)-3--2--0------------------------------------------|

		1)------------------------------------------8-10-8-12-10-8-10-|
		2)------------------------------5--8-10-10--------------------|
		3)----5---5--7-5-/9-7-5-7--5-7--------------------------------|
		4)-/7--7------------------------------------------------------|
		5)------------------------------------------------------------|