*ИКРА* (1997)
		Сиамские сердца

Вступление:	<Dm Am C Em B A E E>  } 2 раза

>		        Dm   Am     Dm Am G
(1)		Разом бьет наверное
>		  C          Dm
		Сиамские сердца
>		              Am  Dm
		Город что-то ждет
>		     Am           Dm
		Ждет мести нервно
>		  G          C           Dm
		Задернув ноги закатив глаза
>		              Am
		Мне вставать уныло
>		 Dm           Am   Dm
		Мне вставать уныло
>		G          C          Dm
		Утро пепельница со вчерашнего стола
>		             Am  Dm
		Мне остался ключ
>		Am             Dm
		От не моей квартиры
>		   G            C          E
		Да ты то тоже впрочем не моя

>		        Am                 C
Припев:		Так это вот твоя вая вая вая проблема
>		   F           Dm     E
		Твоя она моя моя не моя
>		    Am Am  C C
		Остановка
>		     F E B E
		Тела

>		Dm Am Dm Am G C Dm
>		Am Dm Am Dm G C Dm
>		Am Dm Am Dm G C Dm

>		        Am    Dm       Am    Dm
(2)		И так печально и на прощанье
>		G         C           Dm
		Губы и ресницы и не склеились вчера
>		       Am    Dm          Am        Dm
		И на асфальте пройдешься нежно босиком ли
>		    G            C           E
		И вдруг обнимешь дернув провода

Припев:		Так это вот твоя вая вая вая проблема
		Твоя она моя моя не моя
		Остановка
		Дела

Концовка:	<Dm Am C Em B A E E>  } 2 раза