*ИКРА* (1997)
		Сигналы

Вступление:	<E A Hm E A Hm>

>		Hm      E               A
		   Дни гады уходят в такую то даль
>		Hm
		   Мне ничего из вчера не жаль
>		   E                 A
		   Я знаю то что никто не знает
>		      Hm              F#
		   Зачем я живу? а с кем не бывает

>		 Hm F# E F# Hm F# F#

>		      Hm
		   А день ползет и летит ночь
>		         A
		   Не касаясь моей земли
>		       G
		   Эгэ эй осторожнее
>		          F#
		   Здесь кем-то забытая тень от луны
>		 Hm                       A
		   В памяти видишь и лица    как кадры меняет
>		      Em              F#
		   Я не навсегда а с кем не бывает?

>		H           D
		   Вали на черные кошки
>		       G
		   На черные фишки вали
>		H      D
		   На дождь в понедельник
>		       G
		   На когда засвистят журавли
>		      G                    D
		   Отказавших подруг и не давших pубля
>		         Em                     F#
		   Мне опять все придется принимать на себя

		   Нервно шаришь глазами носами милая
		   Я мусор не вынес там такой мороз
		   Зато я скучал не веришь? скучал
		   Я пускал в ванне sos
		   И свои губы в международном конверте
		   В оон отправляя чтоб тебе не досталось
		   Hy а с кем не бывает?

		   Вали на черные кошки
		   На черные фишки вали
		   На дождь в понедельник
		   На когда засвистят журавли
		   Отказавших подруг и не давших pубля
		   Мне опять все придется принимать на себя