
		Кто виноват?

>		H7     Em
		Кто виноват, что ты устал,
>		     G
		Что не нашел, чего так ждал,
>		     C          H
		Все потерял, что так искал,
>		      Em
		Поднялся в небо и упал?

		И чья вина, что день за днем
>		    G
		Уходит жизнь своим путем,
>		   C       H
		И одиноким стал твой дом,
>		      Em
		И пусто за твоим окном?

>		 G       Am
Припев:		И меркнет свет, и молкнут звуки,
>		  C       D
		И новой муки ищут руки.
>		G       Am
		Если боль твоя стихает,
>		 C      D      H7   Em Am Em
		Значит- будет новая беда.

		Кто виноват, скажи- ка брат,
		Один женат, другой богат,
		Один смешон, другой влюблен,
		Один дурак, другой твой враг.
		И чья вина, что там и тут
		Друг- друга ждут и тем живут,
		Но скучен день и ночь пуста,
		Забиты теплые места.

!		Припев

		Кто виноват и в чем секрет,
		Что горя нет и счастья нет,
		Без поражений нет побед,
		И равен счет - удачи нет.
		И чья вина, что ты один,
		И жизнь одна и так длинна,
		И так скучна, а ты все ждешь,
		Что ты когда- нибудь умрешь.

!		Припев