
		Я думал о многом

Вступление:	|<C G F C C Dm7 F C C Cadd11 C>|

>		   C              G         F                C
(1)		Я думал о многом разном, о будущем нашей земли,
>		                   Em        F               G
		Я знаю всё будет прекрасно, одежда и мысли твои.
>		    F                 G
		Я знаю всё то, что хотел бы ты знать,
>		     C       F        G       C
		Я могу обо всём, что нас окружает.
>		  C      G       F         C
		Много такого, чего ты не знаешь,
>		C       Dm7      F        C
		Если захочешь тебе рассказать.

Проигрыш:	|<C G F C C Dm7 F C C Cadd11 C>|

(2)		Я видел озёра лесные, невиданной красоты,
		Ты любишь цветы полевые, я песню сложу про цветы.
		Спроси у меня, сколько на небе звёзд,
		Я отвечу тебе, хоть ответа не ждёшь.
		Столько же сколько, за время всех войн,
		Вдовы и матери пролили слёз.

(3)		Мелодию эту простую,
		Запомнить, мой друг, сможешь ты без труда,
		А если слова не волнуют,
		Придумай свои, и подставь их сюда.
		Ведь если тебе есть о чём рассказать,
		Своим сверстникам ты расскажешь всегда,
		О том, что ты любишь, о том, чего хочешь,
		О том, что во сне тебе виделось ночью.