
		Взгляд с экрана
!		(В.Бутусов - И.Кормильцев)

>		       Am
		она читала мир как роман
>		  Dm          Am
		а он оказался повестью
>		  Dm
		соседи по подъезду
>		                 Am
		парни с прыщавой совестью

		прогулка в парке без дога

		может встать тебе слишком дорого
>		Dm                         Am
		мать учит наизусть телефон морга
>		Dm                        Am
		когда ее нет дома слишком долго

>		 Am
		отец приходя не находит дверей

		и плюет в приготовленный ужин
>		 Dm
		она старше чем мать
>		                   Am
		он должен стать ее мужем

		первый опыт борьбы против потных рук

		приходит всегда слишком рано
>		   Dm
		любовь - это только лицо на стене
>		                         Am
		любовь - это взгляд с экрана

>		  E                         Am
		Ален Делон говорит по-французски
>		  E                         Am
		Ален Делон говорит по-французски
>		  Dm            Am
		Ален Делон не пьет одеколон
>		  Dm         Am
		Ален Делон пьет двойной бурбон
>		  E7                      Am
		Ален Делон говорит по-французски

		парни могут стараться на квартирах подруг
		она тоже бывает там
		но это ей не дает ничего
		кроме будничных утренних драм
		а дома совсем другое кино
		она смотрит в его глаза
		и фантазии входят в лоно любви
		сильней чем все те кто узнают ее

		Ален Делон говорит по-французски
		Ален Делон говорит по-французски
		Ален Делон не пьет одеколон
		Ален Делон пьет двойной бурбон
		Ален Делон говорит по-французски

-

Проигрыш:	2) -5--6--5--------------------- \
		3) ---------5-----5--4-5-4------  \ 2 раза
		4) ------------7-----------7----  /
		5) ---------------------------7- /

>		      Am
(1)		Она читала мир как роман
>		  Dm          Am
		А он оказался повестью
>		  Dm
		Соседи по подъезду
>		                 Am
		Парни с прыщавой совестью

!		Проигрыш

		Прогулка в парке без дога
		Может встать тебе слишком дорого
		<Dm                         Am>
		Мать учит наизусть телефон морга
		<   Dm                     Am>
		Когда ее нет дома слишком долго

!		Проигрыш

>		 Am
		Отец приходя не находит дверей
		И плюет в приготовленный ужин
>		 Dm
		Она старше чем мать
>		                   Am
		Он должен стать ее мужем

!		Проигрыш

		Первый опыт борьбы против потных рук
		Приходит всегда слишком рано
>		  Dm
		Любовь - это только лицо на стене
>		                        Am
		Любовь - это взгляд с экрана

!		Проигрыш

>		 E                        Am
Припев:		Ален Делон говорит по-французски
>		 E                        Am
		Ален Делон говорит по-французски
>		Dm            Am
		Ален Делон не пьет одеколон
>		 Dm        Am
		Ален Делон пьет двойной бурбон
>		 E7                       Am
		Ален Делон говорит по-французски

!		Проигрыш

(2)		Парни могут стараться на квартирах подруг
		Она тоже бывает там
		Но это ей не дает ничего
		Кроме будничных утренних драм
		А дома совсем другое кино
		Она смотрит в его глаза
		И фантазии входят в лоно любви
		Сильней чем все те кто узнают ее

!		Проигрыш
!		Припев
!		Проигрыш

Соло:		1) ------7--------8---------10-------13--12-10-8- \
		2) ---10-------10--------10-------12-------------  \ 4 раза
		3) -9--------9-------------------9---------------  /
		4) -------------------12------------------------- /

!		Проигрыш } 2 раза

-

>		      Am
		Она читала мир, как роман,
>		  Dm          Am
		А он оказался повестью.
>		  Dm
		Соседи по подъезду,
>		                 Am
		Парни с прыщавой совестью.

		Прогулка в парке без дога
		Может стать тебе слишком дорого;
>		Dm                         Am
		Мать учит наизусть телефон морга,
>		  Dm                      Am
		Когда ее нет дома слишком долго.
		Отец, приходя, не находит дверей
		И плюет в приготовленный ужин.
>		 Dm
		Она старше, чем мать.
>		                   Am
		Он должен стать ее мужем.
		Первый опыт борьбы против потных рук
		Приходит всегда слишком рано.
>		  Dm
		Любовь - это только лицо на стене.
>		                        Am
		Любовь - это взгляд с экрана.

>		 E                        Am
		Ален Делон говорит по-французски.
>		 E                        Am
		Ален Делон говорит по-французски.
>		 Dm                       Am
		Ален Делон, Ален Делон не пьет одеколон.
>		 Dm                    Am
		Ален Делон, Ален Делон пьет двойной бурбон.
>		 E7                       Am
		Ален Делон говорит по-французски.

>		      Am
		Парни могут стараться в квартирах подруг,
		Она тоже бывает там.
>		   Dm
		Но это ей не дает ни черта,
>		                          Am
		Кроме будничных, утренних драм.
		А дома - совсем другое кино,
		Она смотрит в его глаза
>		     Dm
		И фантазии входят в лоно любви
>		                           Am
		Сильнее, чем все те, кто узнают ее.

		Ален Делон говорит по-французски.
		Ален Делон говорит по-французски.
		Ален Делон, Ален Делон не пьет одеколон.
		Ален Делон, Ален Делон пьет двойной бурбон.
		Ален Делон говорит по-французски.