
		Дыхание
!		(В.Бутусов - И.Кормильцев)

>		D            A            Hm
		я просыпаюсь в холодном поту
>		Hm           F#             G
		я просыпаюсь в кошмарном бреду
>		G                 D        Em
		как будто дом наш залило водой

		и что в живых остались
>		Hm
		только мы с тобой
>		D              A           Hm
		и что над нами километры воды
>		Hm             F#              G
		и что над нами бьют хвостами киты
>		G           D                 Em
		и кислорода не хватит на двоих
>		              Hm
		я лежу в темноте

>		 Hm            A
		слушая наше дыхание
>		 Hm              G
		я слушаю наше дыхание
>		   Hm                      A
		я раньше и не думал что у нас
>		     Hm                       G
		на двоих с тобой одно лишь дыхание
>		     Hm
		дыхание

		я пытаюсь разучиться дышать
		чтоб тебе хоть на минуту отдать
		того газа
		что не умели ценить
		но ты спишь и не знаешь
		что над нами километры воды
		и что над нами бьют хвостами киты
		и кислорода не хватит на двоих
		я лежу в темноте

		слушая наше дыхание
		я слушаю наше дыхание
		я раньше и не думал что у нас
		на двоих с тобой одно лишь дыхание
		дыхание

-

>		D         A                 Hm
		Я просыпаюсь в холодном поту,
>		          F#m                G
		Я просыпаюсь в кошмарном бреду
>		                 D           Em
		Как будто дом наш залило водой,
>		                        Hm
		И что в живых остались только мы с тобой.
		И что над нами киолметры воды,
		И что над нами бьют хвостами киты,
		И кислорода не хватит на двоих,
		Я лежу в темноте.

Припев:		<  A>
		Слушая наше дыхание,
>		    Hm           G
		Я слушаю наше дыхание,
>		   Hm                       A
		Я раньше и не думал, что у нас
>		     Hm                       G
		На двоих с тобой одно лишь дыхание,
>		   Hm      A      Hm   G
		Дыхание...

		Я пытаюсь разучиться дышать,
		Чтоб тебе хоть на минуту отдать
		Того газа, что не умели ценить,
		Но ты спишь и не знаешь,
		Что над нами километры воды,
		И что над нами бьют хвостами киты,
		И кислорода не хватит на двоих,
		Я лежу в темноте.

!		Припев

-

Проинрыш:	<|Am|G|Am|F|>  } 2 раза

		<C           G              Am>
(1)		Я просыпаюсь в холодном поту
		<            Em              F>
		Я просыпаюсь в кошмарном бреду
		<                 C         Dm>
		Как будто дом наш залило водой
		<                       Am>
		И что в живых остались только мы с тобой
		И что над нами километры воды
		И над нами бьют хвостами киты
		И кислорода не хватит на двоих
		Я лежу в темноте

		< Am           G>
Припев:		Слушая наше дыхание
		<   Am           F>
		Я слушаю наше дыхание
		<  Am                      G>
		Я раньше и не думал что у нас
		<      Am>
		На двоих с тобой одно лишь
		<  F>
		Дыхание
		<  Am    G Am F Am G Am F>
		Дыхание

(2)		Я пытаюсь разучиться дышать
		Чтоб тебе хоть на минуту отдать
		Того газа, что не умели ценить
		Но ты спишь и не знаешь
		Что над нами километры воды
		И что над нами бьют хвостами киты
		И кислорода не хватит на двоих
		Я лежу в темноте

!		Припев