
		Поезд на Ленинград

>		Am
(1)		  Уезжаешь ты,
>		 F                       G
		  Не сказав прощальных слов.
>		              Em7
		  Уезжаешь ты,
>		                    Am
		  Вот и кончилась любовь.
>		              F
		  Уезжаешь ты,
>		                       G
		  Может быть, и навсегда,
>		              Em7
		  Уезжаешь ты -
>		                    F
		  Вот и все мои слова.
>		          G            Am
		  Пять минут и все пройдет,
>		F       G             Am
		  И застынет в сердце лед.
>		F           G          Am
		  Все в слезах твои глаза -
>		F             E
		  Ты опять одна.

>		                  Am
Припев:		Поезд на Ленинград
>		                      F
		    нас разлучит с тобою,
>		                        G
		         глаза свои закрою,
>		                                 E7
		              я не смирюсь с судьбою.
>		               Am
		Поезд на Ленинград,
>		                       F
		    опять наступит встреча,
>		                          G
		         опять зажгутся свечи,
>		                             E7
		              и дивным будет вечер.
>		                F  Am  F  Am
		Поезд на Ленинград.
>		                F  Am  F  E
		Поезд на Ленинград.

(2)		Вдруг случится так:
		Мы не встретимся уж вновь,
		Вдруг случится так:
		Не вернется к нам любовь.
		Ты прости меня,
		Если я неласков был,
		Ты прости меня,
		Если что-то я забыл.

		Солнце выйдет из-за туч
		И вонзится в сердце луч,
		Все в слезах твои глаза -
		Ты опять одна.

!		Припев