
		Долина

>		Hm [224432]
>		G  [355433]
>		D  [x00232]
>		F# [244322]

>		Hm           G
(1)		Чую, чую я кочую,
>		D                  F#
		Топчет не спеша пустыню караван,
>		Hm              G
		Дым пускаю и кайфую,
>		D             F#
		Но кайфую отчего не знаю сам
>		Hm                      G
		Десять солнц сгорит в дороге,
>		D                      F#
		Десять лун взойдет в таинственной ночи,
>		Hm                G
		Любят люди, любят Боги,
>		D               F#
		Песни своего восточного Барджи.

>		Hm              G
Припев:		Долина чудная долина,
>		D                  F#
		Долина вечных снов, растений и цветов,
		Долина чудная долина,
		Свет солнца золотого, тебя разбудит снова
		Долина чудная долина,
		Цветущий дивный сад, пьянящий аромат,
		Долина чудная долина,
		Тебя с небес послали, от горя и печали.

(2)		Маю маюсь, каю каюсь,
		Принимая от долины чудный дар.
		Постоянно соблазняюсь,
		Пусть не молод но еще не слишком стар.
		Все что было, все что будет,
		Дым волшебный мне расскажет наперед,
		Любят Боги, любят люди,
		Когда песни им свои Барджа поет.

Припев:		Долина чудная долина,
		Долина вечных снов, растений и цветов,
		Долина чудная долина,
		Свет солнца золотого, тебя разбудит снова
		Долина чудная долина,
		Цветущий дивный сад, пьянящий аромат,
		Долина чудная долина,
		Тебя с небес послали, от горя и печали.