Перекресток, Живая струна
		Здравствуй, мама

>		     Am              E          Am
		  Здравствуй, мама, разве не узнала
>		Gm7         A7        Dm
		  Своего любимого сынка
>		                       Am
		  Юношей меня ты провожала
>		H                E7         Am    A7
		  А теперь встречаешь старика
>		Dm                     Am
		  Юношей меня ты провожала
>		H                E7         Am
		  А теперь встречаешь старика

		  Мне писали - ты зарыт землею
		  За Печерой, быстрою рекой,
		  И с тех пор болит мое сердечко
		  Обливаясь грустью и тоской

		  Не был, мама, я зарыт землею
		  Я со смертью, мама, дружно жил
		  За Печерой, быстрою рекою,
		  Много мук и горя пережил
    
		  Часто смерть ходила за плечами
		  Часто часто голод донимал
		  Летом мучила жара с дождями
		  А зимой морозец пробирал

		  Так принимай родная успокойся
		  Ты не ждала сына, о, беда
		  И старушка громко зарыдала
		  Принимаясь сына целовать

		  Так наливай, мамаша, больше водки
		  Боль в груди я водкою залью
		  Позабуду пьяные невзгоды
		  И для сердца что-нибудь спою

-

		< Dm       G             C>
(1)		Вот и все. Это было вчера.
		<                A7              Dm>
		Наша тайна с тобой оказалась напрасной.
		<             G                   C>
		И последнюю ночь я не спал до утра,
		<                A7                  Dm>
		Я прощался с тобой, говоря тебе: "Здравствуй"
		<        E               Am>
		вот и все. Это было вчера.

(2)		Вот и все. Это было вчера.
		А хотел бы, я смог без причины остаться.
		Свет в прихожей горит, в комнате полумрак.
		А ты ждешь, я приду и начну объяснятся.
		вот и все. Это было вчера.

(3)		Вот и все. Это было вчера.
		Словно сладостный сон, ни на что непохожий.
		Только ворох золы - всЈ, что есть от костра.
		Только дождик и музыка в день непогожий.
		вот и все. Это было вчера.

(4)		Вот и все. Ничего не вернешь.
		Недопитый бокал недолюбленной ночи.
		Мы расстались с тобой, играл музыку дождь.
		Мы расстались, а он ничего знать е хочет.
		вот и все. Ничего не вернешь.

(5)		Вот и все. Пожелтела листва.
		Осень, грустная осень, прости, я жалею,
		Что стихами лежат для других все слова,
		Как листва в Гор-саду на промокших аллеях.
		вот и все. Пожелтела листва.