Зеленый прокурор, Лирика
		У каких ворот

>		     Dm
		У каких ворот откроют замки
>		                              Gm
		И каких петель несмазанный скрип
		Мне вернут свободу с легкой руки.
>		                 A7      Dm
		Я запомню навсегда этот миг.

>		         Dm
		Черной скатертью на стол ляжет ночь,
>		                          Gm
		Мягким веером махнет листва,
		И березка - пятилетняя дочь -
>		                          A7
		Не заметил как она подросла!

>		       Cm                    D
		Посмотрю как мать откроет окно.
>		         Cm             D          Gm
		Сколько раз к ней приводили лишь сны.
>		      Gm          A7    A#
		И на небо, там пошире оно,
>		Gm                   A7       Dm
		  Посмотрю уже с другой стороны.

		Свежий ветер прилетит из полей,
		Я с ним там, за этой стенкой дружил.
		Из тюремных долгих серых ночей
		Он гулять меня с собой уводил.

		Уводил меня, на волю все звал,
		Через тени, что на вышках стоят,
		Срок скостил и по статье оправдал,
		Уводил да возвращался назад.

		Он прощался, скорой встречи желал,
		Но, как часто говорят, на беду -
		Кого ждут вернулся к тем, кто не ждал,
		Да только я ему назло все же жду.

		У каких ворот откроют замки,
		И каких петель несмазанный скрип...