
		Элис

>		C
		С нами Вовка, с нами Вадим.
>		F
		Оттянуться всей компанией хотим.
>		  G                                    C
		И гитары взяли мы с собой, чтобы песни пелись.

>		C
		С нами Алла, с нами Филипп.
>		F
		Его никто не звал, он как-то сам прилип.
>		  G                                    C
		И тут один из нас сказал: а пойдёмте к Элис.

>		C
Припев:		А что это за девочка и где она живет?
>		F
		А вдруг она не курит, а вдруг она не пьет?
>		  G                                           C
		А мы такой компанией возьмем да и припремся к Элис.
>		C
		Красиво одевается, красиво говорит,
>		F
		И знает в совершенстве английский и иврит,
>		  G                                             C
		А мы, с такими рожами, возьмем да и припремся к Элис...

>		C
		С нами Юра, с нами Борис.
>		F
		Они когда напьются, всегда поют на бис,
>		  G                                    C
		А мы им аплодируем, но песни их давно приелись.

>		C
		Но им попробуй что-то возразить,
>		F
		Мордой по асфальту тебя начнут возить...
>		G                                     C
		Да ну их всех, давайте лучше махнём к Элис!

>		C
Припев:		А что это за девочка и где она живет?
>		F
		А вдруг она не курит, а вдруг она не пьет?
>		    G                                            C
		Ну а мы такой компанией возьмем, да и припремся к Элис.
>		C
		Красиво одевается. Красиво говорит,
>		F
		И знает в совершенстве латинский алфавит,
>		  G                                            C
		А мы с такими рожами, возьмем да и припремся к Элис...

>		C
		С нами Шурик, с нами Сергей,
>		F
		Он отличный парень несмотря на то, что гей.
>		  G                                    C
		Да и Боря с Колей тоже как-то странно оделись.

>		C
		А то, что будет дальше - это просто Труба... -ч-ч-ч!
>		F
		Это не любовь, это упорная борьба.
>		  G                                         C
		Но это все потом, а сейчас давайте всё же к Элис.

>		C
Припев:		А что это за девочка и где она живет?
>		F
		А вдруг она не курит, а вдруг она не пьет?
>		  G                                            C
		А мы такой компанией возьмем, да и припремся к Элис.
>		C
		Красиво одевается, красиво говорит,
>		F
		И лечит паранойю, ОРЗ и простатит.
>		    G                                             C
		Ну а мы, с такими рожами, возьмем да и припремся к Элис...
		И все, кто с ней были, говорят, что она просто прелесть...

-

>		G
		С нами Вовка, с нами Вадим
>		C
		Оттянуться всей компанией хотим
>		     D                     G
		И гитары взяли мы с собой,
>		            D
		Чтоб песни пелись. С нами Алла, с нами Филипп
		Его никто не звал, он как-то сам прилип
		И тут один из нас сказал
		"А пойдёмте к Элис"

>		           G
Припев1:	А что это за девочка, и где она живёт?
>		     C
		А вдруг она не курит, а вдруг она не пьёт?
>		   D                                           G     D
		А мы в такой компании возьмём да и припрёмся к Элис
>		N.C.
		Элис? Кто такая Элис?

Припев2:	Красиво одевается, красиво говорит
		И знает в совершенстве английский и иврит,
		А мы с такими рожами возьмём да и припрёмся к Элис.

		С нами Юра, с нами Борис
		Они, когда напьются, всегда поют на бис
		А мы им аплодируем, хоть песни их давно приелись.
		Но им попробуй что то возразить
		Мордой по асфальту тебя начнут возить
		Да ну их всех, давайте лучше махнём к Элис.

!		Припев1

Припев3:	Красиво одевается, красиво говорит
		И знает в совершенстве английский алфавит,
		А мы с такими рожами возьмём да и припрёмся к Элис.

		С нами Шурик, с нами Сергей
		Он отличный парень несмотря на то, что гей
		Да и Боря с Колей тоже как то странно одеты
		А то, что будет дальше - это просто труба...чччч
		Это не любовь, это порно борьба
		Ну это всё потом, а сейчас давайте всё же к Элис

!		Припев1

Припев4:	Красиво одевается, красиво говорит
		И лечит паранойю, ОРЗ и простатит
		Ну а мы с такими рожами возьмём да и припрёмся к Элис
>		  D                          G
		И все, кто с нею были, говорят,
>		                 D
		Что это просто прелесть

-

>		A
(1)		С нами Вовка, с нами Вадим.
>		D
		Оттянуться всей компанией хотим.
>		E                               A     E
		И Гитары взяли мы с собою чтобы песни пелись.

>		A
(2)		С нами Алла, с нами Филипп.
>		D
		Его никто не звал, он как - то сам прилип.
>		E                           A          E
		И тут один из нас сказал: а пойдемте к Элис.

Припев:		А что это за девочка и где она живет?
		А вдруг она не курит, а вдруг она не пьет?
		А мы такой компанией возьмем, да и припремся к Элис.
		Красиво одевается. Красиво говорит,
		И знает в совершенстве английский и иврит.
		А мы, с такими рожами, возьмем да и припремся к Элис...
		С нами Юра, с нами Борис.
		Они когда напьются всегда поют на бис,
		А мы им аплодируем, но песни их давно приелись.

(3)		Но им попробуй что то возразить,
		Мордой по асфальту тебя начнут возить...
		А да ну их всех, пойдемте лучше к Элис.

Припев:		А что это за девочка и где она живет?
		А вдруг она не курит, а вдруг она не пьет?
		А мы такой компанией возьмем, да и припремся к Элис.
		Красиво одевается. Красиво говорит,
		И знает в совершенстве латинский алфавит,
		А мы, с такими рожами, возьмем да и припремся к Элис...
		С нами Шура, с нами Сергей,
		Он отличный парень не смотря на то, что гей.
		Да и Боря с Колей тоже как-то странно оделись.

(4)		А то, что будет дальше - это просто Труба... -ч-ч-ч!
		Это не любовь это упорная борьба.
		Но это все потом, а сейчас мы все пойдем к Элис.

Припев:		А что это за девочка и где она живет?
		А вдруг она не курит, а вдруг она не пьет?
		А мы такой компанией возьмем, да и припремся к Элис.
		Красиво одевается. Красиво говорит,
		И лечит паранойю, ОРЗ и простатит.
		А мы, с такими рожами, возьмем да и припремся к Элис...