1999 - Земфира
		Не пошлое

Verse1:		<Am       Ammaj7    Am7  Am6>
		 Щербатая      луна
>		    Dm               E
		 И мы не в одной постели
>		   D                 Am7 Ammaj7
		 Светло - потому несмело
>		Am        Ammaj7        Am7 Ammaj7
		 Я разбегусь    и c окна
>		    Dm              E
		 Я верю - не будет больно
>		    D              G
		 Я помню, как это делать

Chorus:		<        Fsus2     G>
		Мои тебе поздравления
>		Am7
		От крошки от гения
>		         Fsus2    G
		Мое в тебе сердце юное
>		Am7
		Щербатое лунное
>		         Fsus2 G  Am7   Fsus2 G Dsus4-D
		Оно в тебе

Verse2:		Орбиты вдоль полос
		Напрасно гудели вены
		Я выбрала самый белый
		В твоих глазах вопрос
		Тебя бы вот в эти стены
		Придумай, что надо сделать

Chorus:		Мои тебя настроения
		От крошки от гения
		Мое в тебе сердце юное
		Щербатое лунное
>		         Fsus2   G
		Оно в тебе мое прошлое
>		Am7         Dsus2
		М-м-м не пошлое
>		    D    E7   D#   F
		В тру--бке   гу--дки
>		     Bb  E7
		Говорят
>		  D    E7    D#   F
		Ска--зки,   ла--ски
>		           Bb  E7
		Да все подряд

Verse3:		<Am G F E> } 3 раза
		"Ла-ла-лайл-лала-лалай"
>		Am G D

Chorus:		Мои тебя настроения
		От крошки от гения
		Мое в тебе сердце юное
		Щербатое лунное
		Оно в тебе мое прошлое
>		          Am7    Fsus2 G D
		М-м-м не пошлое

>		    Am Ammaj7 Am7 Am6     Fsus2 Am7 Dsus4      Dsus2  E7
		1---5----------------   1---3----3----3--   1---0----0--
		2---5----5----5---5--   2---1----1----3--   2---3----3--
		3---5----5----5---5--   3---0----0----2--   3---2----1--
		4---7----6----5---4--   4---3----2----0--   4---0----2--
		5--------------------   5---3----0-------   5--------2--
		6--------------------   6---x----x-------   6--------0--