1996 - Избранное, 1994 - Кащей Бессмертный
		Ария Кащея Бессмертного

>		Em                     C
		Вы слыхали, как дают пизды?
>		H7                          Em
		Нет, не те пизды что с волосами.
>		D     G                    D      H7
		А пизды, конкретные пизды,
>		Em          Am          H7     E
		Бьют когда руками и нога-a-ами.

		Мне сейчас Иван вкатил таких,
		Даже мне не показалось мало.
		Видно так уж принято у них,
		Бить ногами прямо по ебалу

		Я сейчас наверно дуба дам,
		От такой стремительной облавы.
		Шапки прочь, - Кащей схватил пизды          \
		Для души схватил, а не для славы!            \ 2 раза

		Поскулил Кащей как дог, пернул пару раз и сдох,
		Он не выжил, хуй-наны, умер, обдристав штаны.
		Ваня ж бегал по палатам, долго бегал тряся задом,
		Вот он в комнате одной встретился с своей женой,
		Как увидел Василиску, сразу взялся за п...ску,
		И с женой своей Иван п...лся на диван,
		После этого супруги, напевая "буги-вуги",
		Вмиг отправились обратно,
		Обнимаяся приятно!

-

>		 Em                         Am
		Вы слыхали, как дают пизды?
>		H                        Em
		Нет, не те пизды что с волосами.
>		      G                    D     H
		А пизды, конкретные пизды, у-у-у-у...
>		Em            Am        H     Em
		Когда бъют руками и нога-a-ами.