1990 - Зловещие Мертвецы
		Голубой

>		  E              A G  E                 A G
		Среди девочек я рос! Жизнь пошла наперекос!
>		 E                A G E                 A G
		Мерил женские трусы, только не носил косы!
>		   H                E*D H               E*D
		С ними в куклы я играл  и цветочки вышивал,
>		   H              E*D   E
		И ваще примерный был пацан!
!		(<E*> - баррэ на 12 ладу)

		Стало мне 16 лет - брал я у ребят миньет!
		Я на девок не глядел, я от мужиков балдел!
		И когда я с кем-то спал, мент меня с поличным взял-
		По сто двадцать первой залетел!

		Я как царь на зоне жил и по всем отрядам слыл,
		Как культурный человек, как хороший гомосек.
		Хоть я у параши спал, хоть я нюхал едкий кал,
		Но я лучшей бабой был в тюрьме!

		Вышел я, и вот опять продолжаю всем давать!
		Эй, парнишка, на меня обрати внимание:
		Хоть оброс я бородой, но козёл я молодой!
		Эй, мужик постой! В попец давай!

		Хоть оброс я бородой, гомосек я молодой!
		Эй, мужик постой! В попец давай!
		Хоть оброс я бородой, пидараст я молодой!
		Эй, мужик постой! В попец давай!!!!