1993 - Нажми на газ, 1996 - Избранное I
		Дурак

		"... Эта песня про тех, кто злоупотребляет кайфом, водкой,
		наркотиками, слишком хорошо, вообще-то тоже не хорошо,
		она так и называется - дурак..."

>		   Am
		Я парень очень скромный,
		Я парень очень тихий.
>		  G                         E         Am
		Вообще, когда я трезвый, я чистый эталон.
>		    Am
		Но часто я зверею,
		Но часто я шизею,
>		     G                  E         Am
		Как только бормотухи я высажу баллон.
>		Dm                G         C
		Если бы, если бы не было вина!
>		Dm                   E         Am
		Если бы водку не придумал Сатана!
>		Dm                        G           C
		Если бы не водка, я б на нарах не торчал!
>		 Dm                       E           Am
		Ведь когда я выпивший, я полный криминал!

		Я девушек ласкаю,
		Целую, обнимаю,
		Я девушкам цветы дарю, я трезвый - класс чувак!
		Я телок унижаю!
		Я их уничтожаю!
		Им груди разрываю, ведь пьяный, я дурак!

		Если бы, если бы не было вина!
		Если бы водку не придумал Сатана!
		Если бы не водка, я б на нарах не торчал!
		Ведь когда я выпивший, я полный криминал!

		Друзей я уважаю,
		Закон не нарушаю
		И старых почитаю, я трезвый - молодец!
		Но прячьте свиноколы!
		Забудте все приколы,
		А лучше уходите, иначе всем кабздец!

		Если бы, если бы не было вина!
		Если бы водку не придумал Сатана!
		Если бы не водка, я б на нарах не торчал!
		Ведь когда я выпивший, я полный криминал!