
		Звонок

>		  Am
(1)		Твой звонок раздался ночью
>		                          Dm
		Я услышал в трубке голос твой
>		                  Am
		Ведь я его так ждал
		Ты о ссоре позабыла, ты о встрече попросила
>		Dm                Am
		Да, да и я это знал

       Припев:	<Dm>
		Пусть одежду ветер рвет
                 Am                      G         Em         Am
		Ураган пускай ревет, я по твоим соскучился губам
                  Dm                         Am
		Наплевать на ураган, наплевать на злой туман
                   G            Em         Am
		Но я приду, ведь ты моя судьба

(2)		Злая ночь пугает тьмою, темный лес передо мною
		Да, я и об этом знал
		Тихо воют волки гдето, надо нам пройти все это
		Ад, Ад на земле настал

Припев:		Наплевать на ураган, наплевать на злой туман
		Но я приду, ведь ты моя судьба
		Пусть одежду ветер рвет
		Ураган пускай ревет, я по твоим соскучился губам

(3)		Темный лес ужасен ночью, но к тебе дойду я точно
		Знай, мне наплевать на все
		Я пройду через туманы, твой язык затянет раны
		Больше мне не надо ничего

Припев:		Наплевать на ураган, наплевать на злой туман
		Но я приду, ведь ты моя судьба
		Пусть одежду ветер рвет
		Ураган пускай ревет, я по твоим соскучился губам.