1991 - Ночь перед рождеством
		Илья Муромец

!		Табулатура

!		Riff 1
		[E|----------------------------------------------|
		H---------12----12----12—13----13---13---13-----|
		G|-10/12----12----12---------14---14---14---12--| } repeat 2 times
		D|----------------------------------------------|
		A|----------------------------------------------|
		E|----------------------------------------------|]

!		Этот Riff 1 играется перед куплетами (кроме 4, перед ним идет Riff 2).

!		Riff 2 (solo)
		[E|--11-11-11----9-9---3-3-3|
		H|--12-12-12--10-10-3--3-3|
		G|--10-10-10---8-8---3--3-3| } repeat 4 times
		D|-------------------------|
		A|-------------------------|
		E|-------------------------|]

!		После играется со скольжением (тоже 4 раза).
!		Этот Riff 2 играется между 3 припевом и 4 куплетом.

		Илья выехал погулять, чтоб врагам накостылять,
		Видит камешек стоит, надпись на камню блестит,
		Пойдёшь прямо - там жена,
		Вправо ход - коню хана,
		Влево ход - будешь убит,
		Илья хер почесал о щит.

		Илья Муромец - богатырь,
		Илья Муромец - всех победил,
		Илья Муромец - защитит Русский народ,
		Илья Муромец - всех забьёт.

		Илья пошёл налево - там стоит изба,
		А в избе Баба-Яга,
		Он её нагнул рачком,
		Отодрал и всё пучком.

		Илья Муромец - богатырь,
		Илья Муромец - всех победил,
		Илья Муромец - защитит Русский народ,
		Илья Муромец - всех забьёт.

		Илья пошёл направо - там сидит Соловей,
		И свистит на всех людей,
		- Хей, Соловей! Ты со мною знаком?!
		- Ну щас ты будешь "петухом"!

		Илья Муромец - богатырь,
		Илья Муромец - всех победил,
		Илья Муромец - защитит Русский народ,
		Илья Муромец - всех забьёт.

		Илья пошёл прямо - там сидит жена,
		А на хера ж ты мне нужна,
		Лучше выпью десять чар,
		И пойду мудохать татар.

		Илья Муромец - богатырь,
		Илья Муромец - всех победил,
		Илья Муромец - защитит Русский народ,
		Илья Муромец - всех забьёт.

-

>		G            C
		Илья выехал погулять,
>		  D            G
		Чтоб врагам накостылять.
>		G                C
		Видит, камешек стоит,
>		D             C
		Надпись на камню блястит:

		Пойдёшь прямо - там жена,
		Вправо ход - коню хана,
		Влево ход - будешь убит.
		Илья хер почесал о щит!

>		G               D
		Илья Муромец - богатырь!
>		G              D
		Илья Муромец всех победил!
>		G             D
		Илья защитит Русский народ!
>		G              D
		Илья Муромец всех забьёт!

		Илья пошёл налево: там стоит изба,
		А в избе Баба-Яга.
		Он её нагнул рачком,
		Отодрал и всё пучком!

		Илья Муромец - богатырь!
		Илья Муромец всех победил!
		Илья защитит Русский народ!
		Илья Муромец всех забьёт!

		Илья пошёл направо: там сидит соловей
		И свистит на всех людей.
		Хей, соловей, ты со мною знаком?
		Ну ща ты будешь петухом!

		Илья Муромец - богатырь!
		Илья Муромец всех победил!
		Илья защитит Русский народ!
		Илья Муромец всех забьёт!

		Илья пошёл прямо: там сидит жена.
		А на хера ж ты мне нужна!
		Лучше выпью десять чар
		И пойду мудохать татар!

		Илья Муромец - богатырь!
		Илья Муромец всех победил!
		Илья защитит Русский народ!
		Илья Муромец всех забьёт!