1990 - Зловещие Мертвецы
		Когда помрешь

		"...Все мы хоть раз задумывались о жизни и смерти,
		эта песня посвящается всем тем кого среди нас, нет и,
		в отличии от песни "Взял вину на себя", никогда не будет..."

>		       Am                                 Dm
		Изначальная точка нашей жизни - это роддом,
>		                                       Am
		А конечная точка нашей жизни - это морг!
>		                                                           Dm
		А в середине треть жизни мы спим, помолившись перед сном,
>		                                                Am
		В середине треть жизни мы пашем на заводе родном

>		            G                    Dm              Am
		Но кто сказал, что мертвецы не видят сны - это сказки,

>		    G                Dm                Am
		Кто сказал, что они не бывают грустны - это ложь,
>		         G                   Dm              Am
		Кто сказал, что они не мечтают о половой ласке,
>		  G              Dm              Am
		Ты сам убедишься в этом, когда помрешь!

-

>		 Am                                    Dm
		Изначальная точка нашей жизни - это pоддом,
>		                                    Am
		А конечная точка нашей жизни - это моpг!
>		                                                    Dm
		А в сеpедине тpеть жизни мы спим, помолившись пеpед сном,
>		                                           Am
		В сеpедине тpеть жизни мы пашем на заводе pодном

>		     G                           Dm                 Am \
		Hо кто сказал, что меpтвецы не видят сны - это сказки,  \
>		     G                    Dm                    Am       \
		Kто сказал, что они не бывают гpустны - это ложь,         } 2 раза
>		     G                    Dm                  Am         /
		Kто сказал, что они не мечтают о половой ласке,         /
>		 Em  G                  Dm          Am                 /
		Ты и сам убедишься в этом когда помpешь!              /

		Я и сам не мог понять, пока не лёг под осиновый крест,
		Я не мог понять, пока не лёг в дом из шести досок,
		Я не мог понять, пока не получилась перемена мест,
		А только понял лишь тогда, когда был порван моей жизни кусок.

		Но кто сказал, что мертвецы не видят сны - это сказки,
		Кто сказал, что они не бывают грустны - это ложь,
		Кто сказал, что они не мечтают о половой ласке,
		Ты сам убедишься в этом когда помрёшь.

-

>		     Am                                 Dm
		Изначальная точка нашей жизни - это роддом,
>		                                    Am
		А конечная точка нашей жизни - это морг.
>		         Am                                           Dm
		А в середине треть жизни мы спим, помолившись перед сном,
>		                                                Am
		А в середине треть жизни мы пашем на заводе родном.

!		Solo

		-0-0-0-5-3-0-5--0-0-5-3-0-5--3---
		-------------------------------3-
		---------------------------------
		---------------------------------
		---------------------------------
		---------------------------------

		------------------------3--3-----------------------------
		- 3-1-3-5-3-1-3----1-3-5--5--5---3-1---------------------
		-------------------------------------2-------------------
		---------------------------------------------------------
		---------------------------------------------------------
		---------------------------------------------------------

		---------------0-0-5-3-0-5----5-3--------------------------------
		-----------------------------------3-3---------------------------
		2-5--5--5--5---------------------------5--2-5-9--7-7-7---7--7--7-
		-----------------------------------------------------------------
		-----------------------------------------------------------------
		-----------------------------------------------------------------

		-----------------------------------------------------------------
		-----------------------------------------------------------------
		--2-5-7-5-7-5-7-5---9-12-9-12-9-7-5-2---7-7--5--5----------------
		-----------------------------------------------------------------
		-----------------------------------------------------------------
		-----------------------------------------------------------------

>		           G                    F                Am
		Но кто сказал, что мертвецы не видят сны - это сказки!
>		        G                 F                  Am
		Кто сказал, что они не бывают грустны - это ложь!
>		        G                  F              Am
		Кто сказал, что они не мечтают о половой ласке!
>		      G              F              Am
		Ты и сам убедишься в этом когда помрёшь!

		Но кто сказал, что мертвецы не видят сны - это сказки!
		Кто сказал, что они не бывают грустны - это ложь!
		Кто сказал, что они не мечтают о половой ласке!
		Ты и сам убедишься в этом когда помрёшь!

		Я и сам не мог понять, пока не лёг под осиновый крест.
		Я не мог понять, пока не лёг в дом из шести досок.
		Я не мог понять, пока не получилась перемена мест,
		А только понял лишь тогда, когда был порван моей жизни кусок.

		Но кто сказал, что мертвецы не видят сны - это сказки!
		Кто сказал, что они не бывают грустны - это ложь!
		Кто сказал, что они не мечтают о половой ласке!
		Ты и сам убедишься в этом когда помрёшь!

-

		<    Am                                 Dm>
(1)		Изначальная точка нашей жизни - это роддом,
		<                                   Am>
		А конечная точка нашей жизни - это морг,
		А в середине, треть жизни, мы спим, помолившись перед сном,
		А в середине, треть жизни, мы пашем на заводе родном.

		<          G                    Dm               Am>
Припев:		Но кто сказал, что мертвецы не видят сны - это сказки, \
		Кто сказал, что они не бывают грустны - это ложь,       \ 2 раза
		Кто сказал, что они не мечтают о половой ласке,         /
		Ты сам убедишься в этом, когда помрёшь.                /

(2)		Я и сам не мог понять, пока не лёг под осиновый крест,
		Я не мог понять, пока не лёг в дом из шести досок,
		Я не мог понять, пока не получилась перемена мест,
		А только понял лишь тогда, когда был порван моей жизни кусок.

!		Припев

-

>		     Am                                 Dm
		Изначальная точка нашей жизни - это роддом,
>		                                    Am
		А конечная точка нашей жизни - это морг.
>		         Am                                           Dm
		А в середине треть жизни мы спим, помолившись перед сном,
>		                                                Am
		А в середине треть жизни мы пашем на заводе родном.

>		           G                    F                Am
		Но кто сказал, что мертвецы не видят сны - это сказки!
>		        G                 F                  Am
		Кто сказал, что они не бывают грустны - это ложь!
>		        G                  F              Am
		Кто сказал, что они не мечтают о половой ласке!
>		      G              F              Am
		Ты и сам убедишься в этом когда помрёшь!

		Но кто сказал, что мертвецы не видят сны - это сказки!
		Кто сказал, что они не бывают грустны - это ложь!
		Кто сказал, что они не мечтают о половой ласке!
		Ты и сам убедишься в этом когда помрёшь!

		Я и сам не мог понять, пока не лёг под осиновый крест.
		Я не мог понять, пока не лёг в дом из шести досок.
		Я не мог понять, пока не получилась перемена мест,
		А только понял лишь тогда, когда был порван моей жизни кусок.

		Но кто сказал, что мертвецы не видят сны - это сказки!
		Кто сказал, что они не бывают грустны - это ложь!
		Кто сказал, что они не мечтают о половой ласке!
		Ты и сам убедишься в этом когда помрёшь!