1997 - Наркологический Университет миллионов
		Песенка

		"...поёте хорошо, давайте споем еще громче!"

>		Em             Am      H             Em
		Солнышко лучистое улыбнулось весело,
>		            Am         H          Em
		Потому что с корешем мы запели песенку:
>		            Am         D      G
		Ла-ла-ла-ла-лай ла-ла-ла-ла-ла!
>		 Em          Am          H    Em
		Ла-ла-ла-ла-лай ла-ла-ла-ла-ла!

		Водки пять бутылочек завались и месиво,
		И поэтому мы блин затянули песенку:
		На-на-на-на-най, на-на-на-на!!
		На-на-на-на-най, ла-ла-ла-ла!!

		Стаканы бутылочки зазвенели весело,
		Потому что с корешем мы орали песенку:
		Ла-ла-ла-ла-лай, ла-ла-ла-ла!!!
		Ла-ла-ла-ла-лай, ла-ла-ла-ла!!!

		И соседи в стеночку застучали весело,
		Потому что с корешем мы ревели песенку:
		Ла-ла-ла-ла-лай, ла-ла-ла-ла!!!!
		Ла-ла-ла-ла-лай, ла-ла-ла-ла!!!!

		Вот уже пожарники прислонили лестницу,
		Потому что с корешем мы мочили песенку:
		Ла-ла-ла-ла-лай, ла-ла-ла-ла!!!! } 6 раз

		В трезвяке мы с корешем отдохнули весело,
		И поэтому мы с корешем зашептали песенку:
		Ла-ла-ла-ла-лай, ла-ла-ла-ла. } 4 раза

		Ла-ла-ла-ла-лай ла-ла-ла-ла!!!!!!!
		Ла-ла-ла-ла-лай ла-ла-ла-ла!!!!!!!
		Ля-ля-ля-ля, ляяяяяяяяяяяяяй!

-

>		Am         Dm     E          Am
(1)		Солнышко лyчистое yлыбнyлось весело,
>		Am           Dm      E         Am
		Потомy что с коpешем мы запели песенкy:
>		Am          Dm        G     C
		Hа-на-на-на-най-на-на-на на на...          \
>		Am          Dm        E     Am              } 2 раза
		Hа-на-на-на-най на-на-на на на...          /

(2)		Водки пять бутылочек - завались и месиво,
		И поэтому мы, блин, затянули песенку:
		На-на-на-на-най на-на-на на на!            } 4 раза

(3)		Стаканы, бутылочки зазвенели весело,
		Потому что с коpешем мы оpали песенку:
		Ла-ла-ла-ла-лай ла-ла-ла ла ла!            } 4 раза

(4)		И соседи в стеночку застучали весело,
		Потому что с коpешем мы pевели песенку:
		Ла-ла-ла-ла-лай ла-ла-ла ла ла!            } 4 раза

(5)		Вот уже пожаpники пpислонили лесенку,
		Потому что с коpешем мы мочили песенку:
		Ла-ла-ла-ла-лай ла-ла-ла ла ла!            } 4 раза

(6)		В тpезвяке мы с коpешем отдохнули весело,
		И поэтому мы с ним зашептали песенку:
		Ла-ла-ла-ла-лай ла-ла-ла ла ла!            } 4 раза

-

>		            Dm    E           Am
		Солнышко лучистое улыбнулось весело,
>		              Dm      E         Am
		Потому что с корешом мы запели песенку:
>		             Dm        G     C
		На-на-на-на-най-на-на-на-на-на!
>		             Dm        E     Am
		На-на-на-на-най-на-на-на-на-на!
		На-на-на-на-най-на-на-на-на-на!
		На-на-на-на-най-на-на-на-на-на!

		Водки пять бутылочек, завались и месиво!
		И поэтому мы, блин, затянули песенку:
		На-на-на-на-най-на-на-на-на-на!
		На-на-на-на-най-на-на-на-на-на!
		На-на-на-на-най-на-на-на-на-на!
		На-на-на-на-най-на-на-на-на-на!

		Стаканы, бутылочки зазвенели весело,
		Потому что с корешом мы орали песенку:
		Ла-ла-ла-ла-лай-ла-ла-ла-ла-ла!
		Ла-ла-ла-ла-лай-ла-ла-ла-ла-ла!
		Ла-ла-ла-ла-лай-ла-ла-ла-ла-ла!
		Ла-ла-ла-ла-лай-ла-ла-ла-ла-ла!

		И соседи в стеночку застучали весело,
		Потому что с корешом мы ревели песенку:
		Ла-ла-ла-ла-лай-ла-ла-ла-ла-ла!
		Ла-ла-ла-ла-лай-ла-ла-ла-ла-ла!
		Ла-ла-ла-ла-лай-ла-ла-ла-ла-ла!
		Ла-ла-ла-ла-лай-ла-ла-ла-ла-ла!

!		(соло играть в <Hm>)

>		           F#m      G#        C#m
		Вот уже пожарники прислонили лесенку,
>		              F#m     G#        C#m
		Потому что с корешом мы мочили песенку:
>		             F#m       H     E
		Ла-ла-ла-ла-лай-ла-ла-ла-ла-ла!
>		             F#m       G#    C#m
		Ла-ла-ла-ла-лай-ла-ла-ла-ла-ла!
		Ла-ла-ла-ла-лай-ла-ла-ла-ла-ла!
		Ла-ла-ла-ла-лай-ла-ла-ла-ла-ла!

		В трезвяке мы с корешом отдохнули весело,
		И поэтому мы с ним зашептали песенку:
		Ла-ла-ла-ла-лай-ла-ла-ла-ла-ла!
		Ла-ла-ла-ла-лай-ла-ла-ла-ла-ла!
		Ла-ла-ла-ла-лай-ла-ла-ла-ла-ла!
		Ла-ла-ла-ла-лай-ла-ла-ла-ла-ла!

		Ла-ла-ла-ла-лай-ла-ла-ла-ла-ла!
		Ла-ла-ла-ла-лай-ла-ла-ла-ла-ла!
		Ла-ла-ла-ла-лай-ла-ла-ла-ла-ла!
		Ла-ла-ла-ла-лай-ла-ла-ла-ла-ла!
		ЛА! ЛА! ЛА! ЛААААААА!!!!!!!!!!!