1997 - Наркологический Университет миллионов
		Пора домой

		"...всем военным, кто демобилизовался,
		всем кто был в армии, желаю всем вам удачи!"

>		 Am                              Dm
		Вечером на нас находит грусть, порой,
>		  Am
		порой!
>		 Am                               Dm
		Сердце ноет, сердце просится домой,
>		   Am
		домой!

>		 Dm                G
		Взвоет ветер над бараками,
>		   C                F
		БМП нам лязгнет траками:
!		  <Dm      E            Am> (<А7> - может нужно, может - нет)
		Домой, домой, пора домой!
>		 Dm                G
		Взвоет ветер над бараками,
>		   C                F
		БМП нам лязгнет траками:
>		  Dm      E            Am
		Домой, домой, пора домой!

		Лучше молодым любить, не воевать, не убивать,
		Не цевье, а руки девичьи, в руках держать.
		Пуля просвистит пронзительно,
		АКМ стрещит презрительно,
		Плевать, плевать, на всё плевать.
		Пуля просвистит пронзительно,
		АКМ стрещит презрительно,
		Плевать, плевать, на всё плевать.

		Мальчики опять надеются, что бой, последний бой,
		Ждут они когда приказ придёт - домой, домой,
		Голуби своркуют радостно,
		И запахнет воздух сладостно.
		Домой, домой, пора домой!
		Голуби своркуют радостно,
		И запахнет воздух сладостно -
		Домой, домой, пора домой!

		Утром солнце вспыхнет весело над той, горой,
		Наконец мы снова встретимся с семьёй, с братвой!

		Солнышко пригреет лучиком,
		Ивушка помашет прутиком,
		Домой, домой, пора домой!
		Солнышко пригреет лучиком,
		Ивушка помашет прутиком,
		Домой, домой, пора домой!

-

!		Иѓраеть все также лўчше на баррє

>		Dm                             Gm(III)  Dm
		Вечером находит ѓрўсть на нас порой, порой
>		Dm                             Gm(III)  Dm
		Сердце ноет, сердце просится домой, домой
>		Gm(III)          C
		Взвоет ветер над бараками    \
>		F               Dm            \
		БМП нам лязѓнет траками        } 2 раза
>		Gm(III) A           Dm  (D)   /
		Домой, домой, пора домой     /

		Љўчше молодым любить, не воевать, не ўбивать
		Hе цевье, а рўки девичьи в рўках держать
		Пўля просивистит пронзительно    |
		АКМ строчит презрительно         |
		Плевать, плевать, на все плевать |

		Мальчики опять надеются что бой - последний бой
		Ждўт они коѓда приказ придет домой, домой
		Ѓолўби своркўют радостно         |
		И запахнет воздўх сладостно      |
		Домой, домой, пора домой         |

>		Am                               Dm    Am
		Ўтром солнце вспыхнет весело на той ѓорой
>		Am                                Dm        Am
		Hаконец мы снова встретимся с семьей, с братвой
>		Dm               G
		Солнышко приѓеет лўчиком         |
>		C           Am
		Ивўшка помашет прўтиком          |
>		Dm      E           Am (A)
		Домой, домой, пора домой         |

-

>		 Am                             Dm    E
		Вечером на нас находит грусть порой порой
>		          Am                     Dm    E
		Сердце ноет сердце просится домой домой
>		    Dm                  G
		Взвоет ветер над бараками
>		   C                 F
		БМП нам лязгнет раками
>		    Dm    E          Am A7
		Домой домой пора домой
>		    Dm              G
		Взвоет ветер над бараками
>		  C             F
		БМП нам лязгнет раками
>		  Dm     E         Am A7
		Домой домой пора домой.

>		Am                           Dm         E
		Лучше молодым любить а не воевать не убивать
>		Am                           Dm     E
		Не цевье а руки девичьи в руках держать
>		 Dm                  G
		Пуля просвистит пронзительно
>		  C               F
		АКМ встрещит презрительно
>		    Dm    E          Am A7
		Плевать плевать на все плевать
>		Dm                  G
		Пуля просвистит пронзительно
>		  C               F
		АКМ встрещит презрительно
>		    Dm    E          Am A7
		Плевать плевать на все плевать

>		Am                           Dm         E
		Мальчики опять надеются что бой - последний бой
>		Am                           Dm       E
		Ждут они когда приказ придет домой домой
>		Dm                  G
		Голуби взворкуют радостно
>		      C            F
		И запахнет воздух сладостно
>		   Dm    E          Am A7
		Домой домой пора домой
>		Dm                  G
		Голуби взворкуют радостно
>		      C            F
		И запахнет воздух сладостно
>		   Dm    E          Am A7
		Домой домой пора домой

>		Am                              Dm      E
		Утром солнце вспыхнет весело над той горой
>		Am                               Dm         E
		Наконец мы снова встретимся с семьей с братвой
>		Dm                 G
		Солнышко пригреет лучиком
>		     C          F
		Ивушка помашет прутиком
>		   Dm    E          Am A7
		Домой домой пора домой
>		Dm                 G
		Солнышко пригреет лучиком
>		     C          F
		Ивушка помашет прутиком
>		   Dm    E          Am A7
		Домой домой пора домой

-

>		Am                              Dm     Am
(1)		Вечером на нас находит грусть порой, порой.
>		Am                             Dm     Am
		Сердце ноет, сердце просится домой, домой.
>		  Dm               G         С              F
		Взвоет ветер над бараками, БМП нам лязгнет траками,
>		  Dm     E           Am   A7
		Домой, домой, пора домой.
>		  Dm               G         С              F
		Взвоет ветер над бараками, БМП нам лязгнет траками,
>		  Dm     E           Am
		Домой, домой, пора домой.

(2)		Лучше молодым любить, а не воевать, не убивать.
		Не цевье, а руки девичьи в руках держать.
		Пуля просвистит пронзительно, АКМ стрещит презрительно \ 2 раза
		Плевать, плевать, на все плевать.                      /

(3)		Мальчики опять надеются, что бой - последний бой.
		Ждут они, когда приказ придет домой, домой.
		Голуби своркуют радостно и запахнет воздух сладостно. \ 2 раза
		Домой, домой, пора домой.                             /

(4)		Утром солнце вспыхнет весело над той горой.
		Наконец мы снова встретимся с семьей, с братвой.
		Солнышко пригреет лучиком, ивушка помашет прутиком, \ 2 раза
		Домой, домой, пора домой.                           /

-

>		Am                              Dm     Am
(1)		Вечером на нас находит грусть порой, порой
>		Am                             Dm     Am
		Сердце ноет, сердце просится домой, домой
>		Dm                 G
Припев:		Взвоет ветер над баракам,
>		  C             F
		БМП нам лязгнет траками,
>		  Dm     E           Am   A7
		Домой, домой, пора домой

		Взвоет ветер над баракам,
		БМП нам лязгнет траками,
		Домой, домой, пора домой

(2)		Лучше молодым любить, а не воевать, не убивать,
		Не цевьё, а руки девичьи в руках держать

Припев:		Пуля просветит пронзительно,
		АКМ стрещит презрительно
		Плевать, плевать, на всё плевать
		Пуля просветит пронзительно,
		АКМ стрещит презрительно
		Плевать, плевать, на всё плевать

(3)		Мальчики опять надеются, что бой - последний бой,
		Ждут они, когда приказ придёт - домой, домой!

Припев:		Голуби своркуют радостно,
		И запахнет воздух сладостно
		Домой, домой, пора домой!
		Голуби своркуют радостно,
		И запахнет воздух сладостно
		Домой, домой, пора домой!

(4)		Утром Солнце вспыхнет весело, над той горой,
		Наконец мы снова встретимся, с семьёй, с братвой

Припев:		Солнышко пригреет лучиком,
		Ивушка помашет прутиком
		Домой, домой, пора домой!
		Солнышко пригреет лучиком,
		Ивушка помашет прутиком
		Домой, домой, пора домой!

-

>		 Am                              Dm     Am
		Вечером на нас находит грусть порой, порой...
>		 Am                             Dm     Dm
		Сердце ноет, сердце просится домой, домой...
>		   Dm               G
		Взвоет ветер над бараками,
>		  C               F
		БМП нам лязгнет траками -
>		   Dm     E           Am  A7
		Домой! Домой! Пора домой!
		Взвоет ветер над бараками,
		БМП нам лязгнет траками -
		Домой! Домой! Пора домой!

		Лучше молодым любить, а не убивать, не воевать...
		Не цевье, а руки девичьи в руках держать.
		Пуля просвистит пронзительно,
		АКМ стречит презрительно -
		Плевать! Плевать, на все плевать!
		Пуля просвистит пронзительно,
		АКМ стречит презрительно -
		Плевать! Плевать, на все плевать!

>		 Hm                           Em             Hm
		Мальчики опять надеются, что бой, последний бой!
>		  Hm                          Em       Hm
		Ждут они когда приказ придет домой, домой!
>		 Em              A
		Голуби своркуют радостно,
>		     D              G
		И запахнет воздух сладостно -
>		   Em     F#          Hm  H7
		Домой! Домой, пора домой!
		Голуби своркуют радостно,
		И запахнет воздух сладостно -
		Домой! Домой, пора домой!

>		C#m                               F#m   C#m
		Утром солнце вспыхнет весело над той горой!
>		 C#m                              F#m        C#m
		Наконец мы скоро встретимся с семьей, с братвой!
>		 F#m               H
		Солнышко пригреет лучиком,
>		     E           A
		Ивушка помашет прутиком -
>		 F#m      G#          C#m C#7
		Домой! Домой, пора домой!
		Солнышко пригреет лучиком,
		Ивушка помашет прутиком -
		Домой! Домой, пора домой!