1990 - Ядрёна вошь
		Скотник

>		        Em
		Я некрасивым пацаном был на селе.
>		                              H
		Природа красоту не подарила мне.
>		                           Am
		И когда делали родители меня,
>		           H                        Em
		Был батя в умативу пьяный, как свинья.
		И я родился косоротый и хромой,
		Кривой горбатый и с квадратной головой.
		И когда на работу шел я иль домой,
		То все колхозники смеялись надо мной.

		Работал скотником в родном колхозе я.
		И без ума коровы были от меня.
		А потому что я коровушек любил,
		Я их обхаживал и вовремя кормил.
		И я с коровами на ферме ночевал
		И с каждою коровой лично переспал.
		А что мне делать, если некрасивый я,
		И разбегаются девчонки от меня.

>		           Em
		Ох, вы, буренки! Ох, вы мои.
>		                                H
		За сиськи я вас аккуратненько доил.
>		                             Am
		И мне корова лучше женщины ино-ой.
>		         H                       Em
		Когда с коровой я, то на душе покой.

		Я, как султан, имел свой личный га-арем.
		Я спал с коровами и был доволен всем.
		И чтоб достать, я табуретку подставлял.
		И всем коровам удовольство доставлял.
		Недолго длилась жизнь интимная.
		Поймал с поличным председатель меня.
		А в кодексе за это есть статья.
		В неотдаленные места поеду я.

		Теперь мой до-ом - тюрьма-а,
		И мне коровы не напишут письма.
		Теперь обслуживают их быки-и,
		А я свою нужду справляю в кулаки.