1994 - Танцы после порева, 1996 - Избранное I
		Укус вампира

		<     Am                  F>
(1)		Не пугайся, дорогая, у меня на шее кровь.
		<        C                     Am>
		Что со мною я не знаю, ты мне воду приготовь.
		<      Am                     F>
		Ночью на лесном погосте из могилы на меня
		<       C                    G>
		Что-то кинулось, и шею прокусила та херня.

		<      Dm                                               Am>
Припев:		Я не знаю, что случилось, но трясет меня, и жарко в груди.
		<      Dm                         G                        C      E>
		Я не знаю, что случилось, но мне кажется, что смерть впереди-и-и-и-и.
		<       Am>
		Ведь меня укусил вампир.
		<       Dm>
		Ведь меня укусил вампир.
		<       Am>
		Ведь меня укусил вампир.
		<       E>
		Ведь меня укусил вампир.

(2)		Я принес чеснок и свечи, положи их на стол,
		Я принес святую воду и осиновый кол.
		Твои слезы не помогут, не дрожи, кол возьми.
		Если я приду другим, ты им сердце мне проткни!

!		Припев

		"Человек, которого укусил вампир, сам после смерти становится вампиром," -
		Аббат Кальне "Трактат о явлениях духов", тысяча шестьсот девяносто восьмой год.

(3)		Сейчас меня тошнит немного, нужен мне гемоглобин.
		Ты поставь на стол вино красное, как рубин.
		Остается лишь напиться, я пока еще живой.
		Ломит у меня в зубах и в ушах какой-то вой!

!		Припев

-

		1|-8~--7~--5~----7--------------------------------------
		2|------------------------------------------------------
		3|------------------------------------------------------
		4|------------------------------------------------------
		5|------------------------------------------------------
		6|------------------------------------------------------

!		Riff a1

>		  Am  G  F  G
		1|-8--7--5--7-------------------------------------------
		2|------------------------------------------------------
		3|------------------------------------------------------
		4|------------------------------------------------------
		5|------------------------------------------------------
		6|------------------------------------------------------

!		Riff b

>		   Am      F         C              G
		1|-8--10--8--7-----------12-12-13-12--10--8--10-----------
		2|--------------10--8--8---------------------------------
		3|------------------------------------------------------
		4|------------------------------------------------------
		5|------------------------------------------------------
		6|------------------------------------------------------

!		Riff c

>		   Am          C   Am
		1|-8------------8---------------------------------------
		2|-----10--10------10-----------------------------------
		3|------------------------------------------------------
		4|------------------------------------------------------
		5|------------------------------------------------------
		6|------------------------------------------------------

!		Riff c1

>		   Am
		1|------------------------------------------------------
		2|-10---------------------------------------------------
		3|------------------------------------------------------
		4|------------------------------------------------------
		5|------------------------------------------------------
		6|------------------------------------------------------

Вступление:	riff a } 4 раза
		riff b } 4 раза
		riff c

!		После первого куплета riff b } 4раза
!		и riff  c } 1 раз