1989 - Колхозный панк
		Утопленник

>		         Am
		все так тихо,темно под водою,
>		        G
		Только тина кругом да песок.
>		     Am
		Я на ил наступаю ногою
>		    G
		И пою зтот медленный рок.
>		         Dm
		Рвется грудь от тоски и от муки,
>		     Am
		Я зубами грызу камыши,
>		     F
		О ракушки порезал я руки,
>		                E
		 Но кругом ни души.

>	Припев:	      F       Dm        Am
		О-о-о-о, о-о, я-утопленник!
>		      F       Dm        Am
		О-о-о-о, о-о, я-утопленник!

		Только рыбы немые со мною
		Тихо плавают в бездне морской.
		Только раки внизу норы роют,
		Помашу я им синей рукой.
		Где б найти мне подругу морскую,
		Чтобы с нею купаться в ночи.
		А то я затоскую:
		Слышно здесь, хоть воем кричи!

		О-о-о-о, о-о, я-утопленник!
		О-о-о-о, о-о, я-утопленник!

		Пусть я пухлый и пахну немного,
		И пусть синего цвета лицо,
		Я как прежде любить могу многих,
		Хоть являюсь сейчас мертвецом.
		Я нарву на болоте кувшинки,
		И русалке я их подарю.
		И пускай она мечет икринки,
		Я ее покорю.
        припев:

		А когда луна речку осветит,
		Я с русалкой прилягу на дно.
		Я прижмуся к зеленому телу,
		От нее мне лишь надо одно.
		Я всю ночь проведу с ней на иле.
		А на утро, как солнце взойдет,
		Надарю я ей лилий,
		Пусть она к черту, с богом, плывет.
        Припев: 

-

Проигрыш:	<|F|G-F|Am|Am|> } 2 раза

		        <Am>
(1)		Всё так тихо темно под водою,
		       <Em>
		Только тина кругом, да песок.
		     <Am>
		Я на ил наступаю ногою,
		    <Em>
		И пою этот медленный рок.
		        <G>
		Рвётся грудь от тоски и от муки,
		    <Dm             Am>
		Я зубами грызу камыши.
		     <F>
		Об ракушки порезал я руки,
		               <E>
		Но кругом не души.

		    <F     G        Am>
Припев:		О-о-о о-о я утопленник.  } 2 раза

(2)		Только рыбы немые со мною,
		Тихо плавают в бездне морской,
		Только раки внизу норы роют,
		Помашу я им синей рукой.
		Где б найти мне подругу морскую,
		Чтобы с нею купаться в ночи.
		А то я затоскую:
		Скучно здесь, хоть воем кричи!

!		Припев

(3)		Пусть я пухлый и пахну немного,
		И пусть синего цвета лицо,
		Я как прежде любить могу многих,
		Хоть являюсь сейчас мертвецом.
		Я нарву на болоте кувшинки,
		И русалке я их подарю.
		И пускай она мечет икринки,
		Я ее покорю.

!		Припев

(4)		А когда луна речку осветит,
		Я с русалкой прилягу на дно.
		Я прижмуся к зеленому телу,
		От нее мне лишь надо одно.
		Я всю ночь проведу с ней на иле.
		А на утро, как солнце взойдет,
		Надарю я ей лилий,
		Пусть она к черту, с Богом, плывет.

!		Припев