Новые люди (2003)
		Йог спокоен
!		(А. Васильев)

>		  C
		След останется и как бы ты не заметал,
		Люди носятся по свету, гибнут за металл.

>		        F
		Жизнь идет -  йог спокоен,
>		          Am
		А жизнь идет - йог спокоен,
>		        Dm                          C Gm C Gm
		Жизнь идет -  йог спокоен, как всегда...

		Тридцать лет прошли под кайфом, целых тридцать лет,
		И еще три года с лишним, где мой пистолет?

		Жизнь идет - йог спокоен,
		А жизнь идет - йог спокоен,
		Жизнь идет - йог спокоен, как всегда и даже больше...