Фонарь под глазом (1997)
		Прирожденный убийца

>		Cm
		Эти рельсы никуда не приведут,
		Этот поезд не остановить,
>		G#                     C
		Эти руки не согреют, не спасут,
>		G#                   Fm      G#      Fm G#      Cm
		Я люблю тебя и я хочу, я хочу, я хочу   тебя убить.

		У меня есть выстрел для твоих друзей,
		Как лекарство ото всех обид,
		У меня есть то, что мимо всех дверей,
		Я люблю тебя и я хочу, я хочу, я хочу тебя убить.

		Можешь выпить то, что плещется на дне,
		Сигарету можешь докурить,
		Я хотел забыть, но это не по мне,
		Я люблю тебя и я хочу, я хочу, я хочу
		Я хочу, я хочу пойти к врачу, я хочу...

-

>		Cm
		ЭТИ РЕЛЬСЫ НИКУДА НЕ ПРИВЕДУТ,
		ЭТОТ ПОЕЗД НЕ ОСТАНОВИТЬ,
>		G#                    Cm
		ЭТИ РУКИ НЕ СОГРЕЮТ, НЕ СПАСУТ,
>		G#                Fm
		Я ЛЮБЛЮ ТЕБЯ И Я ХОЧУ,
>		             G#       Cm
		Я ХОЧУ, Я ХОЧУ ТЕБЯ УБИТЬ

		У МЕНЯ ЕСТЬ ВЫСТРЕЛ ДЛЯ ТВОИХ ДРУЗЕЙ,
		КАК ЛЕКАРСТВО ОТО ВСЕХ ОБИД,
		У МЕНЯ ЕСТЬ ТО, ЧТО МИМО ВСЕХ ДВЕРЕЙ,
		Я ЛЮБЛЮ ТЕБЯ И Я ХОЧУ,
		Я ХОЧУ, Я ХОЧУ ТЕБЯ УБИТЬ

		МОЖЕШЬ ВЫПИТЬ ТО, ЧТО ПЛЕЩЕТСЯ НА ДНЕ,
		СИГАРЕТУ МОЖЕШЬ ДОКУРИТЬ,
		Я ХОТЕЛ ЗАБЫТЬ, НО ЭТО НЕ КО МНЕ,
		Я ЛЮБЛЮ ТЕБЯ И Я ХОЧУ,
		Я ХОЧУ, Я ХОЧУ, Я ХОЧУ, Я ХОЧУ ПОЙТИ К ВРАЧУ, Я ХОЧУ...