*Пыльная быль* (1994)
		Холодные зимы
!		(А. Васильев)

>		Am                    C      F      C
		помнишь, как мы проводили холодные зимы?
>		  Am               C       F      Am
		грелись, и звали баяном меха батареи,
>		 F                                   Am
		как мы гадали на мертвом цветке хиросимы?
>		 F                                  Am
		как размышляли на тему "прошедшее время"?

		лампа сняла абажур, и стеснялась нас голая,
		стыл по стаканам чефир, и звала сигарета,
		сердце расплавилось, вытекло теплое олово,
		это пятно до сих пор я скрываю от света...