*Коллекционер оружия* (1996)
		Черный цвет Солнца
!		(А. Васильев)

Intro:		<E C E C E C E C>
!		<Em A D> (без 2-го пальца) <D> (перебором - сам смотри)

>		Em
		Все круги разойдутся,
>		   G               F#
		И город окутает тьма.
>		Em
		Двадцать лет я смотрю в календарь,
>		    G             F#          Am7
		И все эти годы в календаре зима.
>		              G
		И метель не дает нам уснуть,
>		 D
		Не дает нам допеть до конца,
>		Am7           G
		Словно паралитическим газом
>		   D
		Наполнены наши сердца.

		У нее было правило:
		Не доверять тем, кто собой заслоняет свет.
		Я снял с нее платье,
		А под платьем - бронежилет.
		Когда кончится музыка,
		Возьми пистолет и жди крика совы.
		Я приду умереть от любви,
		Чтобы утром проснуться живым.

>		A         Em
Припев:		Если ты слышишь,
>		A         Em        A
		Если ты слышишь меня.
>		       Em
		Время вышло.
>		  D               Hm
		А я не успел показать тебе
>		                 Em A
		Черный цвет Солнца.____________________________________ (Припев 2)
>		 D            Hm               Em   A
		Лето ушло и уже никогда не вернется.
>		D                 Hm              Em     A
		Осень, хлебни ядовитой воды из колодца.
>		   D                           Am
		Зима будет долгой, но все обойдется.
>		 G                   D                   Em
		Черный цвет Солнца, черный цвет Солнца, черный. } 2 раза
>		  D
		Кто-то заметит, кто улыбнется,
>		  Hm
		Кто нам подарит рассвет.
!		             <Em A D> (без 2-го пальца) <D> } 2 раза
		Черный цвет Солнца.

		На вокзале так трудно поверить
		В то, что где-то идут поезда.
		Кто-то поднял глаза на меня,
		И из глаз покатилась звезда.
		Разделенные линии жизни,
		Мы смотрим и видим сквозь сон,
		Нехорошие вести
		Несет нам домой почтальон.

		И шаги его гулко звучат
		В коридорах сплошной темноты.
		В отпечатках следов его
		Растут полевые цветы.
		Он идет открыть тебе тайну,
		(Заметь, как в глазах меркнет мир.)
		Что все эти годы мы пили метиловый спирт.

!		Припев (Последняя строка: "Черный цвет.")

!		Как в Intro

		Ты можешь назвать эту песню
		Набором бессмысленных фраз.
		Ты можешь заставить меня молчать,
		Сказав, что это приказ.
		Ты можешь разбить зеркала,
		Которые помнят, но лгут.
		А я знаю только одно,
		Я знаю, все реки текут
		Сквозь черный цвет Солнца.

!		Припев 2. (Последняя строка: "Черный цвет.")

		Черный цвет Солнца, черный цвет Солнца, черный. } 2 раза
		Кто-то заметит, кто улыбнется,
		Кто нам подарит рассвет.

>		E C E C

-

>		E C E C E C E C
>		Em A D Dsus2 D } 2 раза

>		Em                       G               G/F#
		ВСЕ КРУГИ РАЗОЙДУТСЯ, И ГОРОД ОКУТАЕТ ТЬМА...
>		Em                                    G              G/F#
		ДВАДЦАТЬ ЛЕТ Я СМОТРЮ В КАЛЕНДАРЬ, И ВСЕ ЭТИ ГОДЫ В КАЛЕНДАРЕ
>		Am
		ЗИМА,
>		              G
		И МЕТЕЛЬ НЕ ДАЕТ НАМ УСНУТЬ,
>		 D
		НЕ ДАЕТ НАМ ДОПЕТЬ ДО КОНЦА,
>		Am            G
		СЛОВНО ПАРАЛИТИЧЕСКИМ ГАЗОМ
>		   D
		НАПОЛНЕНЫ НАШИ СЕРДЦА

		У НЕЕ БЫЛО ПРАВИЛО: НЕ ДОВЕРЯТЬ ТЕМ, КТО СОБОЙ ЗАСЛОНЯЕТ СВЕТ;
		Я СНЯЛ С НЕЕ ПЛАТЬЕ, А ПОД ПЛАТЬЕМ - БРОНЕЖИЛЕТ;
		КОГДА КОНЧИТСЯ МУЗЫКА,
		ВОЗЬМИ ПИСТОЛЕТ И ЖДИ КРИКА СОВЫ;
		Я ПРИДУ УМЕРЕТЬ ОТ ЛЮБВИ,
		ЧТОБЫ УТРОМ ПРОСНУТЬСЯ ЖИВЫМ

>		A         Em     A         Em       A
Припев:		ЕСЛИ ТЫ СЛЫШИШЬ, ЕСЛИ ТЫ СЛЫШИШЬ МЕНЯ -
>		       Em
		ВРЕМЯ ВЫШЛО,
>		  D               Hm                    Em    A
		А Я НЕ УСПЕЛ ПОКАЗАТЬ ТЕБЕ ЧЕРНЫЙ ЦВЕТ СОЛНЦА,

>		 D            Hm               Em   A
		ЛЕТО УШЛО И УЖЕ НИКОГДА НЕ ВЕРНЕТСЯ,
>		D                 Hm              Em   A
		ОСЕНЬ, ХЛЕБНИ ЯДОВИТОЙ ВОДЫ ИЗ КОЛОДЦА,
>		   D                           Am
		ЗИМА БУДЕТ ДОЛГОЙ, НО ВСЕ ОБОЙДЕТСЯ;
>		 G                   D                   Em
		ЧЕРНЫЙ ЦВЕТ СОЛНЦА, ЧЕРНЫЙ ЦВЕТ СОЛНЦА, ЧЕРНЫЙ,
		ЧЕРНЫЙ ЦВЕТ СОЛНЦА, ЧЕРНЫЙ ЦВЕТ СОЛНЦА, ЧЕРНЫЙ;
>		  D                               Hm7
		КТО НАС ЗАМЕТИТ? КТО УЛЫБНЕТСЯ? КТО НАМ ПОДАРИТ РАССВЕТ?
>		             Em     A D Dsus2 D } 2 раза
		ЧЕРНЫЙ ЦВЕТ СОЛНЦА...

		НА ВОКЗАЛЕ ТАК ТРУДНО ПОВЕРИТЬ В ТО, ЧТО ГДЕ-ТО ИДУТ ПОЕЗДА;
		КТО-ТО ПОДНЯЛ ГЛАЗА НА МЕНЯ - ИЗ ГЛАЗ ПОКАТИЛАСЬ ЗВЕЗДА;
		РАЗДЕЛЕННЫЕ ЛИНИИ ЖИЗНИ
		МЫ СМОТРИМ И ВИДИМ СКВОЗЬ СОН,
		НЕХОРОШИЕ ВЕСТИ НЕСЕТ НАМ ДОМОЙ ПОЧТАЛЬОН

		И ШАГИ ЕГО ГУЛКО ЗВУЧАТ В КОРИДОРАХ СПЛОШНОЙ ТЕМНОТЫ.
		В ОТПЕЧАТКАХ СЛЕДОВ ЕГО РАСТУТ ПОЛЕВЫЕ ЦВЕТЫ.
		ОН ИДЕТ ОТКРЫТЬ ТЕБЕ ТАЙНУ
		(ЗАМЕТЬ, КАК В ГЛАЗАХ МЕРКНЕТ МИР!),
		ЧТО ВСЕ ЭТИ ГОДЫ МЫ ПИЛИ МЕТИЛОВЫЙ СПИРТ,

		ЕСЛИ ТЫ СЛЫШИШЬ, ЕСЛИ ТЫ СЛЫШИШЬ МЕНЯ -
		ВРЕМЯ ВЫШЛО,
		А Я НЕ УСПЕЛ ПОКАЗАТЬ ТЕБЕ ЧЕРНЫЙ ЦВЕТ СОЛНЦА,

		ЛЕТО УШЛО И УЖЕ НИКОГДА НЕ ВЕРНЕТСЯ,
		ОСЕНЬ, ХЛЕБНИ ЯДОВИТОЙ ВОДЫ ИЗ КОЛОДЦА,
		ЗИМА БУДЕТ ДОЛГОЙ, НО ВСЕ ОБОЙДЕТСЯ;
		ЧЕРНЫЙ ЦВЕТ СОЛНЦА, ЧЕРНЫЙ ЦВЕТ СОЛНЦА, ЧЕРНЫЙ,
		ЧЕРНЫЙ ЦВЕТ СОЛНЦА, ЧЕРНЫЙ ЦВЕТ СОЛНЦА, ЧЕРНЫЙ;
		КТО НАС ЗАМЕТИТ? КТО УЛЫБНЕТСЯ? КТО НАМ ПОДАРИТ РАССВЕТ?
		ЧЕРНЫЙ ЦВЕТ.

>		E C E C E C E C
>		Em A D Dsus2 D } 2 раза

		ТЫ МОЖЕШЬ НАЗВАТЬ ЭТУ ПЕСНЮ НАБОРОМ БЕССМЫСЛЕННЫХ ФРАЗ;
		ИЫ МОЖЕШЬ ЗАСТАВИТЬ МЕНЯ МОЛЧАТЬ, СКАЗАВ, ЧТО ЭТО ПРИКАЗ;
		ТЫ МОЖЕШЬ РАЗБИТЬ ЗЕРКАЛА, КОТОРЫЕ ПОМНЯТ, НО ЛГУТ.
		А Я ЗНАЮ ТОЛЬКО ОДНО, Я ЗНАЮ, ВСЕ РЕКИ ТЕКУТ
		СКВОЗЬ ЧЕРНЫЙ ЦВЕТ СОЛНЦА,

		ЛЕТО УШЛО И УЖЕ НИКОГДА НЕ ВЕРНЕТСЯ,
		ОСЕНЬ, ХЛЕБНИ ЯДОВИТОЙ ВОДЫ ИЗ КОЛОДЦА,
		ЗИМА БУДЕТ ДОЛГОЙ, НО ВСЕ ОБОЙДЕТСЯ;
		ЧЕРНЫЙ ЦВЕТ СОЛНЦА, ЧЕРНЫЙ ЦВЕТ СОЛНЦА, ЧЕРНЫЙ,
		ЧЕРНЫЙ ЦВЕТ СОЛНЦА, ЧЕРНЫЙ ЦВЕТ СОЛНЦА, ЧЕРНЫЙ;
		КТО НАС ЗАМЕТИТ? КТО УЛЫБНЕТСЯ? КТО НАМ ПОДАРИТ РАССВЕТ?
		ЧЕРНЫЙ ЦВЕТ,
		ЧЕРНЫЙ ЦВЕТ СОЛНЦА, ЧЕРНЫЙ ЦВЕТ СОЛНЦА, ЧЕРНЫЙ,
		ЧЕРНЫЙ ЦВЕТ СОЛНЦА, ЧЕРНЫЙ ЦВЕТ СОЛНЦА, ЧЕРНЫЙ,
		КТО НАС ЗАМЕТИТ? КТО УЛЫБНЕТСЯ? КТО НАМ ПОДАРИТ РАССВЕТ?..

>		E C E C

-

>		Am
		Все круги разойдутся
>		   C
		И город окутает тьма.
>		Am
		20 лет я смотрю в календарь
>		    C
		И все эти годы в календаре.
>		   Dm
		Зима и метель не дает нам уснуть,
>		     G
		Hе дает нам допеть до конца,
>		Dm
		Словно паралитическим газом
>		   G
		Hаполнены наши сердца.

		У нее было правило не доверять тем,
		Кто собой заслоняет свет.
		Я снял с нее платье,
		А под платьем бронежилет.
		Когда кончится музыка
		Возьми пистолет и жди крика совы,
		Я приду умереть от любви,
		Чтобы утром проснуться живым.

>		C         Am     C         Am       C
		Если ты слышишь, если ты слышишь меня
>		       Am      C               G
		Время вышло, а я не успел показать тебе
>		             Am
		Черный цвет солнца.
>		 C            G                 Am
		Лето ушло и уже никогда не вернется.
>		C                 G              Am
		Осень, хлебни ядовитой воды из клодца,
>		   C        G         Am
		Зима будет долгой, но все обойдется,
>		 C
		Черный цвет солнца,
>		 G
		Черный цвет солнца,
>		 Am
		Черный
		Черный цвет солнца,
		Черный цвет солнца,
		Черный.
>		  Dm
		Кто нас заметит?
>		  G
		Кто улыбнется?
>		  Dm                 G
		Кто нам подарит рассвет,
>		             Am
		Черный цвет солнца?

		Hа вокзале так трудно поверить в то,
		Что где-то идут поезда.
		Кто-то поднял глаза на меня -
		Из глаз покатилась звезда.
		Разделенные линии жизни
		Мы смотрим и видим сквозь сон,
		Hехорошие вести
		Hесет нам домой почтальон.

		И шаги его гулко звучат
		В корридорах сплошной темноты,
		В отпечатках следов его
		Растут полевые цвоты,
		Он идет открыть тебе тайну,
		Заметь, как в глазах меркнет мир,
		Что все эти годы мы пили этиловый спирт.

		Если ты слышишь, если ты слышишь меня
		Время вышло, а я не успел показать тебе
		Черный цвет солнца.
		Лето ушло и уже никогда не вернется.
		Осень, хлебни ядовитой воды из клодца,
		Зима будет долгой, но все обойдется,
		Черный цвет солнца,
		Черный цвет солнца,
		Черный
		Черный цвет солнца,
		Черный цвет солнца,
		Черный.
		Кто нас заметит?
		Кто улыбнется?
		Кто нам подарит рассвет,
		Черный цвет солнца?

		Ты можешь назвать эту песню
		Hабором бессмысленных фраз,
		Ты можешь заставить меня молчать,
		Сказав, что это приказ,
		Ты можешь разбить зеркала,
		Которые помнят, но лгут,
		А я знаю только одно,
		Я знаю все реки текут сквозь
		Черный цвет солнца.

		Если ты слышишь, если ты слышишь меня
		Время вышло, а я не успел показать тебе
		Черный цвет солнца.
		Лето ушло и уже никогда не вернется.
		Осень, хлебни ядовитой воды из клодца,
		Зима будет долгой, но все обойдется,
		Черный цвет солнца,
		Черный цвет солнца,
		Черный
		Черный цвет солнца,
		Черный цвет солнца,
		Черный.

-

>		Em
		Все круги разойдутся,
>		   G               D
		И город окутает тьма...
>		Em
		Двадцать лет я смотрю в календарь,
>		    G             D           Am
		И все эти годы в календаре зима,
>		              G
		И метель не дает нам уснуть,
>		     D
		Не дает нам допеть до конца,
>		Am            G
		Словно паралитическим газом
>		   D
		Наполнены наши сердца.

		У нее было правило: не доверять
		Тем, кто собой заслоняет свет.
		Я снял с нее платье,
		А под платьем - бронежилет.
		Когда кончится музыка,
		Возьми пистолет и жди крика совы;
		Я приду умереть от любви,
		Чтобы утром проснуться живым

>		A         Em    A          Em       A          Em
		Если ты слышишь, если ты слышишь меня - время вышло,
>		  D               Hm                    Em    A
		А я не успел показать тебе черный цвет солнца.

>		 D            Hm               Em   A
		Лето ушло и уже никогда не вернется,
>		D                 Hm              Em   A
		Осень, хлебни ядовитой воды из колодца,
>		   D                           Am
		Зима будет долгой, но все обойдется.
>		 G                   D                   Em
		Черный цвет солнца, черный цвет солнца, черный,
>		 G                   D                   Em
		Черный цвет солнца, черный цвет солнца, черный.
>		  D                               Hm7
		Кто нас заметит? Кто улыбнется? Кто нам подарит рассвет?
>		             Em    A D Em A D
		Черный цвет солнца...

		На вокзале так трудно поверить
		В то, что где-то идут поезда.
		Кто-то поднял глаза на меня -
		Из глаз покатилась звезда.
		Разделенные линии жизни
		Мы смотрим и видим сквозь сон,
		Нехорошие вести
		Несет нам домой почтальон.

		И шаги его гулко звучат
		В коридорах сплошной темноты.
		В отпечатках следов его
		Растут полевые цветы.
		Он идет открыть тебе тайну
		"Заметь, как в глазах меркнет мир!"
		Что все эти годы
		Мы пили метиловый спирт.

		Если ты слышишь, если ты слышишь меня - время вышло,
		А я не успел показать тебе черный цвет солнца.

		Лето ушло и уже никогда не вернется,
		Осень, хлебни ядовитой воды из колодца,
		Зима будет долгой, но все обойдется.
		Черный цвет солнца, черный цвет солнца, черный,
		Черный цвет солнца, черный цвет солнца, черный;
		Кто нас заметит? Кто улыбнется? Кто нам подарит рассвет?
		Черный цвет...

		Ты можешь назвать эту песню
		Набором бессмысленных фраз.
		Ты можешь заставить меня молчать,
		Сказав, что это приказ.
		Ты можешь разбить зеркала,
		Которые помнят, но лгут.
		А я знаю только одно,
		Я знаю, все реки текут

>		                    Em    A
		Сквозь черный цвет солнца.

		Лето ушло и уже никогда не вернется,
		Осень, хлебни ядовитой воды из колодца,
		Зима будет долгой, но все обойдется;
		Черный цвет солнца, черный цвет солнца, черный,
		Черный цвет солнца, черный цвет солнца, черный;
		Кто нас заметит? Кто улыбнется? Кто нам подарит рассвет?
		Черный цвет...

		Черный цвет солнца, черный цвет солнца, черный,
		Черный цвет солнца, черный цвет солнца, черный,
		Кто нас заметит? Кто улыбнется? Кто нам подарит рассвет?..