В бочке мёда (1998)
		Блюзы гор
!		(Д.Арбенина)

>		  Em H Em
		Блюзы гор
>		     Em                  H                 Em
		Мне пел в сентябре раскаленный и ласковый горн.
>		  F                       Em
		Вместо лиц в доме были огни.
>		    H                                  Em
		Мы боги с тобой, но только в земной пыли.

		Но под ногами уже хрустел лед.
		И осень смотрела откуда-то издалека.
		Мы знали: всему свой черёд.
		Но что-то шептало мне: гибель близка.

>		  H       Em      H
		Где-то, где-то, где-то
>		   Em
		Летит самолет из стали,
>		    H      Em       Dm
		Но нет силуэта той буквы,
>		          Am
		Которую ждали
>		   F         Em
		Стройные куплеты.
>		  Am
		Где ты?

		Шерсть — это не коленкор,
		Хранящий печальную свежесть твою,
		Прищуренных глаз молчаливый укор.
		Не бойся, я этот куплет не допою.

		Но горн, что ты делаешь там,
		И на какие смотришь часы?
		Я не делю любовь пополам.
		Я никогда не пoставлю тебя на весы.

		Где-то, где-то, где-то
		Летит самолет из стали,
		Но нет силуэта той буквы,
		Которую ждали
		Стройные куплеты.
		Где ты?