Детский лепет (1999)
		Вечер в Крыму
!		(Д.Арбенина)

>		C             E          Am
		Вечер в Крыму, мыши в углах.
>		C                     E                Am
		А я исчерпала свой недельный запас тепла.
>		C                  E            Am
		В южную ночь страшно смотреть вверх.
>		C                      E
		Мой Север во мне как вдохновенье.

>		   F                  E
		Отсутствие глаз на твоём лице,
>		    Am
		Танцует на стене тень крошечной спички,
>		       F                  E
		Мне тебя, любимый, не догнать уже,
>		    Am
		Я рву связи и ломаю привычки.
>		       F                  E
		Я, наверное, смогла бы уйти с тобой,
>		 Am
		Выбросив горло в пролёт окна,
>		          F                 E
		Но ворот белой рубахи параллелен полоске
>		       Am                     C
		На распухшей шее, она так черна.

		Вечер в Крыму, мыши в углах.
		А я исчерпала свой недельный запас тепла.
		В южную ночь страшно смотреть вверх.
		Мой Север во мне как вдохновенье.

		Отсутствие глаз на твоём лице,
		Танцует на стене тень крошечной спички,
		Мне тебя, любимый, не догнать уже,
		Я рву связи и ломаю привычки.
		Я, наверное, смогла бы уйти с тобой,
		Выбросив горло в пролёт окна,
		Но ворот белой рубахи параллелен полоске
		На распухшей шее, она так черна.