В бочке мёда (1998)
		Вот и все мои песенки
!		(Д.Арбенина)

>		 Am            F        E
		Вот и все мои песенки спеты.
>		 Am              F    E
		Вот и за лесами нету солнца.
>		 Am                 F        E
		Где ты?! Где ты?! Где ты?! Где ты?!
		                 (Где? Ну где же ты?)

		Я тебе скажу - я по тебе скучаю.
		Я не сплю ночами, я не сплю ночами.
		Где ты?! Где ты?! Где ты?! Где ты?!
		                 (Где? Ну где же ты?)

		Милый, милый друг вспомни обо мне ты.
		Может быть услышишь мою песню эту.
		Где ты?! Где ты?! Где ты?! Где ты?!
		                 (Где? Ну где же ты?)

		Сонные дома, я сижу зажмурясь,
		вспоминаю я о тебе волнуясь.
		Где ты?! Где ты?! Где ты?! Где ты?!
		                 (Где? Ну где же ты?)

		Вот и все мои песенки спеты.
		Вот и за лесами нету солнца...
		Вот и все мои песенки спеты.
		Вот и за лесами нету солнца...
		Вот и все мои песенки спеты.
		Вот и за лесами нету солнца...
		Вот