
		Враз украденные лица...
!		(С.Сурганова)

>		        Am
		Враз украденые лица
>		           E        Am
		Вдруг под вечер оживут.
>		        A7
		Ей всю ночь одной не спится —
		Новый день, как новый кнут.
>		       Dm
		На подмостки вносит соло,
>		        E            Am
		Предвкушая вновь аншлаг,
>		       E           Am
		Он войдет легко и тихо,
>		      E           Am
		Замедляя твердый шаг.

		Отпечаток одиночки
		На протертой простыне
		Все над "i" расставит точки.
		Пахнут слезы в темноте.
		Он разбудит все, что спало.
		Он разгладит складки стен.
		Отряхнув с себя усталость,
		Он отправится к ней в плен.

		Враз украденые лица
		Вдруг под вечер оживут.
		Им всю ночь вдвоем не спится...