Цунами (2002)
		Д.р.
!		(Д. Арбенина)

>		          Am
		Бренчу монетами, смеюсь,
		Хожу на крыши и в кино,
>		       Dm
		И никуда не тороплюсь.
>		             Am
		Сажусь в такси и в самолеты,
		Курс на мертвую петлю.
>		  Dm
		Боюсь.

>		      D
		И узнаю тебя во всем,
		И узнаю во всех тебя.
>		        Hm
		Твои любимые цветы.
		Бегу, бегу, бегу, бегу,
>		          D
		Бегу до рвоты.

>		Cm
		И не забудь
>		                      Gm
		Поздравить с днем рожденья меня.
>		Cm
		И не забудь
>		               Gm
		Пожелать мне счастья.
>		Cm
		И не забудь
>		                      Gm
		Поздравить с днем рожденья меня.
>		Cm
		И не забудь.
>		                Gm
		Я буду слишком рада.

>		            Am
		Я - вечный Питер, ты - Москва,
		Нью-Йорк, Париж и Магадан.
>		       Dm
		И мы уже не мы. Вперед -
		Нас ждут другие города.

>		        D
		Я заплатила по счетам,
		Глотала землю, чтоб молчать,
>		       Hm
		Я выжигала слово "помню",
		Я тушила сердце снегом.
>		              D
		В грудь с разбегу.

		И не забудь
		Поздравить с днем рожденья меня.
		И не забудь
		Пожелать мне счастья.
		И не забудь
		Поздравить с днем рожденья меня.
		И не забудь.
		Я буду слишком рада.