SMS (2004)
		Не ищу
!		(Д.Арбенина)

>		Am                        Dm
		Заблудились мы в зиме московской
>		               Am                     E
		До самой до зеленой звезды в моих глазах.
>		Am                         Dm
		Нам завидуют бродяги партизаны
>		                Am                     E
		Без цели и без женщин, застрявшие в лесах.

>		Am   Dm Am E
		Не ищу  я ненаглядную мою...
>		Am   Dm Am E
		Не ищу  я...

		Заблудились мы в земле московской
		До самой до холодной до северной звезды.
		Нам завидуют шпионы и пираты,
		От Невского к Арбату, от мертвых до живых.

		Не ищу я ненаглядную мою...
		Не ищу я...

>		G
		Только падают иные,
>		Gm
		Разбиваются в ладонях.
>		F
		Я не скрою - мне приятно,
>		A
		Нежности необходимость.
>		Gm
		В проводах застыли нервы,
>		F
		В мониторах - наши чувства.
>		E
		Эшафотами - по тюрьмам,
>		E7
		Горизонтами - по стенам.

		...Я ненаглядную мою...
		Не ищу я ненаглядную мою...
		Не ищу я...