
		О, Любимая
!		(Е.Нуриева)

>		Em
		В осенних лесах на рассвете пожар.
		Солнце упало вчера, а сегодня трава догорает.
>		Am
		А над головой флаг,
>		                                Em
		Новое солнце флагом в небе сверкает.

>		Em       Am
		О, любимая, не жалей ни о чем,
>		 Dm                                            Am
		Ветры у ног твоих, небо над головой, сила с тобой.

>		E                       Am
		Какая холодная будет зима,
>		E                       Am
		И лошади чувствуют эту зиму.
>		  F          E
		Хватит ли, хватит ли мне тепла,
>		      Am             Dm
		Даже не до конца, хотя бы до середины?

>		    F
		Но поздно, некуда отступать,
>		             Am
		Я уже под деревьями.
>		Dm
		И только ты здесь на все сто двадцать пять,
>		F                   E          F          Am
		Я стою за твоей спиной, я смотрю тебе в спину.

>		E                            Am
		Мы выйдем к морю, мы увидим лед,
>		E                        Am
		Черное море вдруг стало белым.
>		 F
		Так может продлится тысячи лет,
>		                             Am
		Если не бросить на лед свое тело.

>		 E               Am
		Медленно тает, стынет кровь в груди.
>		  E                     Am
		Мне не хватает, мне любви не хватает.
>		F
		О, любимая, ты одна, ты впереди,
>		  E                         F       Am
		А я превращаюсь в лед, я тебя оставляю.

>		E F               Dm
		О, не жалей ни о ком,
>		 E                  F                          Am
		Ветры у ног твоих, небо над головой, сила с тобой.