В бочке мёда (1998)
		Офицерская жена
!		(Д.Арбенина)

>		Am                 E                       Am
		Ты говорила, и словам дрожали свечи на столе.
>		                   E                            Am
		А он звенел и обмирал, всегда встревоженный немного.
>		F                 E
		Ты говорила о любви,
>		F                   E
		Ты умоляла: "Не спеши!".
>		Am                 E                       Am
		Он соглашался, суету топя на дне своих вопросов.
>		F                    E
		И с плеч упал её платок
>		F                    E
		И пролежал так до утра.

		Ты говорила, он молчал, а сердце ныло: "Мне пора".
		А кости - детская игра, и за плечами путь обратный.
		И вот тогда ты поняла,
		Его оставить невозможно.
		Неумолимое вчера уже прощалось с другом завтра,
		И провожать ты не пошла,
		И ты осталась у окна.

		Ты говорила и звала, ты отвечала, улыбаясь.
		Год снова месяцы и дни забросил в новенькие соты,
		Вокруг летали мотыли,
		Родные ей, но далеко.
		Она уже сняла кольцо, она на небо не смотрела.
		И небо стало далеко...