Первая пуля (1993-94)
		Падаешь в небо
!		(Д.Арбенина)

>		Am                    F                           Am
		Тревожный прошлого полет опять во мне, а с ним и ты
>		                             F                     Dm
		Зовешь узнать, что значит взлет, и не боишься высоты.
>		                     G                            Dm
		Знаток бензиновых супов то быстро мчит, то не спеша.
>		                     F                      E
		Привычно рвется из оков, ища тепла, твоя душа

>		Gm          A
		И падает в небо...

>		Dm        Gm            Dm             A           Dm
		Я помню все. Держу в руках, что не смогу теперь забыть.
>		          Gm         Dm               A        Dm
		А мы с тобой наверняка могли б друг друга полюбить.
>		      Gm           Dm          A         Dm
		Я узнаю в твоих шагах свои вчерашние следы.
>		         Gm       Dm         A
		Но закрываю я глаза. Я не хочу беды.

		Со мной падаешь в небо...

		И отраженье моих лун в твоих глазах. Они полны
		Глубокой, трепетной тоской, быть может, с привкусом вины.
		Увлечены твои глаза бывали кем-то, но теперь
		Спокойствия броня крепка, но не всегда ты веришь ей,

		Когда падаешь в небо...

		Но украшает суета наш хрупкий праздничный полет.
		И тем, кто рядом не понять, что всем приходам свой черед.
		И по дорогам будем мы шагать, но в разных городах
		И будет жить звездой во мне то, что можешь ты отдать

		Тому, с кем падаешь в небо...