Цунами (2002)
		Пароходы
!		(Д.Арбенина)

>		 Hm                     F#
		Ты знаешь, сколько мне лет,
>		              Hm
		И я за это плачу.
>		                 F#
		А если нужно сказать,
>		                   G
		То я скажу, не смолчу.
>		                  E
		Ты не изменишь меня.

		Не прикрывайся ничем,
		Когда ты спишь не со мной.
		И делай пассы другим,
		Но у меня за спиной.
		Ты не обидишь меня.

>		 Hm     F#
		Годы - реки,
>		Hm        A
		Люди - пароходы.
>		      D      F#
		За тобой. O-ooй.
		Сердце - в небо.
		Стану смелой.
		За тобой. О-оой

		Жалей других, для меня
		Побереги свою злость.
		Не можешь так - уходи.
		Искалось, но не звалось.
		Я не забуду тебя.

		Годы - реки,
		Люди - пароходы.
		За тобой. O-ooй.
		Сердце - в небо.
		Стану смелой.
		За тобой. О-оой

>		 H                  C
		Услышу плеск в камышах,
>		               Am
		Увижу чьи-то следы.
>		               C
		Не дотяну до воды.
>		               H
		Не дотяну до воды.

		Годы - реки,
		Люди - пароходы.
		За тобой. O-ooй.
		Сердце - в небо.
		Стану смелой.
		За тобой. О-оой

		Годы - реки,
		Люди...
		Годы - реки,
		Люди...
		Пароходы

-

>		Hm                      F#
		Ты знаешь, сколько мне лет,
>		               Hm
		И я за это плачу.
>		                 F#
		А если нужно сказать,
>		                    G
		То я скажу, не смолчу,
>		                  Em
		Ты не изменишь меня.

		Не прикрывайся ничем,
		Когда ты спишь не со мной,
		И делай паcсы другим,
		Но у меня за спиной.
		Ты не обидишь меня.

>		 Hm     F#    Hm         A
		Годы - реки, люди - пароходы.
>		      D F#
		За тобой.
>		 Hm         F#     Hm    A
		Сердце - в небо, стану смелой.
>		      D F#
		За тобой.

		Жалей других, для меня
		Побереги свою злость.
		Не можешь - так уходи.
		Искалось, но не звалось.
		Я не забуду тебя.

		Годы - реки, люди - пароходы.
		За тобой.
		Сердце - в небо, стану смелой.
		За тобой.

>		H                   Em
		Услышу плеск в камышах,
>		        C        Hm
		Увижу чьи-то следы.
>		        G
		Не дотяну до воды,
>		        F#
		Не дотяну до воды.

		Годы - реки, люди - пароходы.
		За тобой.
		Сердце - в небо, стану смелой.
		За тобой.

>		 Hm      F#
		Годы... Реки...
>		 Hm      F#
		Люди... Годы...
>		 Hm      F#
		Реки... Люди...
>		 Hm  F# Hm
		Пароходы!..