Вторая пуля (1996)
		Песня юнкера
!		(Д.Арбенина)

>		        Am                                  Dm
		Кто-то тихо постучал дверь открыл, вошел и сел.
>		                                        F
		Я его не приглашал, он так просто прилетел,
>		    E
		Скажи ему: "Спасибо..."
>		      Am                              Dm
		За окном его корабль наслаждался тишиной.
>		                                               F
		Он вернулся лишь за тем, чтобы взять меня с собой.
>		    E
		Скажи ему: "Не надо..."

>		      Dm          E
		Я давно лежу на дне.
>		                  Am
		Мои мысли мутный дым.
>		                          F
		Сколько лет прошло с тех пор,
>		                 Dm
		Когда я был молодым.
>		    E
		Не нужно говорить.

		Да, я знал, что он придет. Быть иначе не могло.
		Но он опоздал на жизнь - нам опять не повезло.
		Скажи ему: "Бывает..."
		За окном его корабль был у осени в плену.
		Он давно ее искал и любил ее одну,
		Скажи ему: "Удачи..."

		Я давно лежу на дне.
		Мои мысли мутный дым.
		Сколько лет прошло с тех пор,
		Когда я был молодым.
		Не нужно говорить.

		И прозрачное тепло вдруг упало на ладонь.
		Он поднялся и ушел и не взял меня с собой,
		Спроси его: "Куда?.."
		И корабль его унес на плечах осенний плен,
		Недосказанность любви оставляя мне взамен.
		Скажи мне: "Навсегда..."

		Я давно лежу на дне.
		Мои мысли мутный дым.
		Сколько лет прошло с тех пор,
		Когда я был молодым.
		Не нужно говорить.