В бочке мёда (1998)
		Солнце погасло
!		(С.Сурганова)

>		 Cm       G       Cm       Fm      Cm    Fm       G
		Солнце погасло и тучи взвалили на землю тонны дождя.
>		 Cm     G       Cm      Fm    Cm     Fm      G
		Пару часов и железная птица снова похитит тебя.
>		  Fm                                 G                 Cm
		Сколько продлится твое расстоянье? Сколько протянется лет?
>		 Fm                              G              Cm G
		Жить в ожидании жизни возможно, хуже, когда ее нет.

>		  Cm                Fm           Cm    G# G
		Она будет там, где лето уходит в осень.
>		  Fm                 G              Cm G
		Она будет там, где пьют по ночам вино.
>		  Cm                   Fm                Cm  G# G
		Она будет там, где скучает асфальт по колесам.
>		  Fm                   G              Cm      G
		Она будет с теми, кто был от нее далеко, далеко...

		Ты покидаешь мой город, и завтра cтанет бессмысленным путь.
		В ритмах дождя уходящего лета меня оставляешь тонуть.
		Там, где стареют еще не родившись, где шут себя мнит королем,
		Уж лучше быть рыбой, способной пуститься в море за кораблем.

		Она будет там, где лето уходит в осень.
		Она будет там, где пьют по ночам вино.
		Она будет там, где скучает асфальт по колесам.
		Она будет с теми, кто был от нее далеко, далеко...

		Ночь обозначила выход к спасенью песней трамвайных рельс.
		Все решено. И теперь, как молитва дата вылета, рейс.
		Kтo-тo из старых знакомых мне скажет "Слушай, да ты не в себе!"
		Мне наплевать. Я устала слать письма. Я уезжаю к тебе.

		Мы будет там, где лето уходит в осень.
		Она будет там, где пьют по ночам вино.
		Она будет там, где скучает асфальт по колесам.
		Она будет с теми, кто был от нее далеко, далеко...