
		То, что делает меня...
!		(Д.Арбенина)

>		 Am               D
		То, что делает меня неотразимой,
>		  Am               Dm
		Слишком не похоже на тебя.
>		 Am               D
		То, что делает меня такой красивой -
>		 F                             Am
		Тонкий ломтик луны, прелюдия сна.

>		  Dm                          Am
		Она, мне нравится как дышит она.
>		                            Dm
		Когда меня не слышит, грустна.
>		                             H
		Но, впрочем, как и все мы одна.
>		  Em                          Hm
		Она молчит, но делом дело. Могу
>		                          Em
		Представить как бы пела она
>		                            C
		Быть может и поет, но странна
>		     H             Em               E
		Обесценена и никогда не вернется обратно.
>		  Am D Am D
		Она.

		Рано или поздно нужно делать выбор
		Очень не похожий на тебя.
		Поздно будет поздно, рано лучше рано.
		Откровения твои не в цене.

		О ней я знаю только тайный ответ
		На уровне колена. А там
		Все встречи не случайны и чувства, чувства неизменны.
		И мне не надо по-другому. И мне
		Обратно только в небо. Сгореть,
		Ну что в этом такого, но кто
		Держит нить и меня не пускает на берег другой
		За тобой?

		То, что делает меня неотразимой,
		То, что делает меня такой красивой
		Тот, кто делает меня такой...