Цунами (2002)
		Ты дарила мне розы
!		(Д.Арбенина)

>		               C#
		Ты дарила мне розы,
>		              F#m
		Розы пахли полынью,
>		               C#
		Знала все мои песни,
>		            F#m
		Шевелила губами.

>		              F#
		Исчезала мгновенно
>		               Hm
		Не сидела в засаде
>		              F#m
		Никогда не дышала
>		   C#          F#m
		Тихонько в трубу

		Мы скрывались в машинах
		Равнодушных таксистов,
		По ночным автострадам
		Нарезали круги.

		Ты любила холодный,
		Обжигающий виски
		И легонько касалась
		Горячей руки.

		А потом было лето,
		Мы прощались и знали -
		Мы с тобой одной крови,
		Мы небесных кровей.

		Твои драные джинсы
		И монгольские скулы,
		Ты была моей тайной,
		Зазнобой моей.