
		Я вновь ухожу
!		(С.Сурганова)

>		            E                   Am
		Я вновь ухожу, но теперь навсегда.
>		             A7            Dm
		Мне мысли былые заменят года.
>		                                    Am
		Пусть время поможет мне к цели прийти,
>		               E                 Am
		Пусть время залечит все раны тоски.

>		              Dm G             C  Am
		От родного порога ведет нас дорога,
>		                Dm                E
		Путь вечных разлук, беспечных подруг,
>		              Am                      A7
		Мимолетных огней, путь нам близких людей.
>		             Dm G             C   Am
		К родному порогу ведут нас дороги
>		               Dm              E
		Нам памятных дней, судьбы виражей,
>		           Am
		Дороги любви.

		Бывает, иду я по иглам судьбы.
		Порой устаю, не хватает мне сил.
		Как слепая в ночи, страх пути затая,
		За кого-то держусь, а кто-то держит меня.

		От родного порога ведет нас дорога,
		Путь вечных разлук, беспечных подруг,
		Мимолетных огней, путь нам близких людей.
		К родному порогу ведут нас дороги
		Нам памятных дней, судьбы виражей,
		Дороги любви.