
		Лунный свет

>		G Em C D

>		G        Am        Hm
		Весело играет на воде
>		       C         Em
		Полный месяц и зовёт
>		        C            G
		Парня с девушкой к себе.

		Весело смеются в лодке те,
		У кого в любви предел
		Hе наступит и во сне.

>		C         D
		Hо парень тут взорвался,
>		Hm        Em
		В любви Луне признался
>		C          D
		За то, что есть любовь
>		G      G/A     C            D
		К девушке, с которой в этом море,
>		G     G/A   C         D
		Места нет печали и тревоге.
>		G  G/A C     D
		Ла-ла- ла-ла-ла-ла-лай } 2 раза

		Hежные глаза девчушки тут
		Заблестели, и Луна
		Подмигнула парню вдруг.

		И по водной глади, как дельфин,
		Приближалась она к ним,
		Глаз лаская и маня.

		Hо парень тут взорвался,
		В любви Луне признался
		За то, что есть любовь
		К девушке, с которой в этом море,
		Места нет печали и тревоге.
		Ла-ла-лала-лала-лай.

		Hо парень тут взорвался,
		В любви Луне признался
		За то, что есть любовь
		Прыгнул он в желаньи поцелуя,
		В брызги всю разбил шалунью,
		И ушел на дно с мечтой в любовь.
		И ушел на дно с мечтой в любовь.
		И ушел на дно с мечтой в любовь.
		И ушел на дно с мечтой в любовь.

-

>		 G    Am       Hm
(1)		Весело играет на воде
>		  C    Em
		Полный месяц и зовёт
>		  C G
		Парня с девушкой к себе.

		Весело смеются в лодке те,
		У кого в любви предел
		Hе наступит и во сне.

>		 C       D
Припев:		Hо парень тут взорвался,
>		 Hm       Em
		В любви Луне признался
>		 C       D
		За то, что есть любовь
>		     G    Am    C D
		К девушке, с которой в этом море,
>		   G   Am C   D
		Места нет печали и тревоге.
>		   G   Am     C  D           \
		Ла-ла-лала-лала-лай, лала... / X2

(2)		Hежные глаза девчушки тут
		Заблестели, и Луна
		Подмигнула парню вдруг.

		И по водной глади, как дельфин,
		Приближалась она к ним,
		Глаз лаская и маня.

!		Припев1

!		Припев2: (аккорды те же, что и в Припев1)

		Hо парень тут взорвался,
		В любви Луне признался
		За то, что есть любовь
		Прыгнул он в желаньи поцелуя,
		В брызги всю разбил шалунью,
		И ушел на дно с мечтой в любовь.
		И ушел на дно с мечтой в любовь.
		И ушел на дно с мечтой в любовь.
		И ушел на дно с мечтой в любовь.