
		На высоких этажах

!		1й куплет играется перебором, причем <Hm> - полифонический.

>		Hm
		2|------2----
		3|----4--4---
		4|---4-4--4--
		5|--2------2--

!		Остальные аккорды обычные, таким же перебором.
!		Припев с дистошном квинтами. 2й куплет боем.

>		Hm                          D
		Когда не приводят мечты никуда
>		                    G
		И я остаюсь здесь один
>		                  Em
		И с небом уже никуда
>		F#
		  В небе один никотин

		Как странно мелеет душа
		Как мало осталось на дне
		И можно ль оставить на шаг?
		Мне места?

>		Hm } 2 раза

>		  Hm
		  На высоких этажах
>		  G         Em      F#
		  Я любил решать проблемы
>		  Hm
		  Высотой иль на ножах
>		  G             Em    F#
		  Жизнь моя - излом и вены.

		Не жди за порогом туманную даль
		Не будет тебе в ней окна
		Где времени будет не жаль
		Где вряд ли ты встанешь со дна.

		Всё это полуденный скрип
		От солнца до мыльной струны
		Всё это отчаянный крик
		В круг луны!

		  На высоких этажах
		  Я любил решать проблемы
		  Высотой иль на ножах
		  Жизнь моя - излом и вены.

!		Соло под текст припева
		1|--10--9--7----|----------|------------------------
		2|------------7-|-5--10--7-|----------7--5--5--7--7-
		3|--------------|----------|-5--5--5----------------