1985 - Энергия, 1990 - Шабаш
		Ко мне

>		 Am
(1)		Иди ко мне!
>		Dm            C                    Am
		Если случится ночь, мы станем пить чай...
>		 Am
		Иди ко мне!
>		Dm              С              Em
		Я объясню тебе смысл слова "прощай"...
>		 Am
		Иди ко мне!
>		Dm            C       Em
		Если выпадет снег, ты ляжешь чуть раньше меня...
>		 Am
		Иди ко мне!
>		Dm     C Em
		Слышишь? Это говорю тебе я...
>		   Am
		Ко мне!!!

(2)		Иди ко мне!
		Когда бессмысленно петь и тревожно ждать...
		Иди ко мне!
		Я подниму тебя вверх - я умею летать...
		Иди ко мне!
		Итак, я открываю счет: "Раз, два, три..."
		Ко мне!!!

(3)		Иди ко мне!
		Это новолуние мстит тем, кто успел...
		Иди ко мне!
		Я до сих пор удивляюсь себе, как я посмел...
		Иди ко мне!
		Лес продолжает жить,
		Лес чувствует движенье весны...
		Иди ко мне!
		Я слышу голос, я знаю - это зовешь меня ТЫ...
		Ко мне!!!