*БЛОК АДА* (1987)
		Компромисс

>		            G
		Мой дом без окон -
		Сплошная стена.
		Я прошу неба,
		Я прошу окна
		Мой сад стоит голый -
		Деревья, столбы.
		Я прошу света,
		Я прошу листвы.

>		 C                     G   Bb
		Да я сам взорвал свой мост,
>		    C                     G
		За тех кто не попал, мой тост.
>		    C                             G
		В кулуарах подполья запах воды,
>		    C                                      G
		Здесь такие, как я, здесь такие, как ты.
>		    C                                         G
		Здесь в обход не идут, здесь не прячут глаз.
>		    C                   G
		Компромисс не для нас!

		Мои цветы - вата,
		Моя река - лед.
		Мое тепло слякоть,
		Дерьмо - мой мед.
		Мой ветер вентилятор,
		Моя земля асфальт,
		Я разучился плакать,
		Мои глаза - сталь.