*206, ЧАСТЬ 2* (1990)
		Чик-чик-чик

>		         A
		Цек-цек-цек-цек-цек-ЦеКа.
>		         Hm7
		Цек-цек-цек-цек-цек-ЦеКа.
>		         E7
		Чик-чик-чик-чирик-ЧеКа.
>		       A  E7
		Цап-царап.

>		           A                 D     E7 A E7
		Как ярко светит ослепленной солнце...

		Цек-цек-цек-цек-цек-ЦеКа.
		Цек-цек-цек-цек-цек-ЦеКа.
		Чик-чик-чик-чирик-ЧеКа.
		Цап-царап.