*НЕРВНАЯ НОЧЬ* (1984) (Доктор Кинчев и группа Стиль)
		Я вижу то, что вижу (Красная книга)

>		Am
		Я не вижу их лиц - я вижу только силуэты.
>		                                   Gm
		Там, где был храм, я вижу воду и хлам.
>		Am
		Белый снег, красный дом, черные газеты.
>		   G                    F           Am
		И как магнитофон - телефон, это не сон!

>		        Am
		Ты не смотришь в глаза, он боится слов.
>		Gm                                     Am
		Темный цвет пиджаков, легкий шорох машин.
>		         Am
		Желтый цвет белых глаз - привилегия ужей и сов.
>		                            G F         Am
		Здесь скорпионом стал хамелеон. Это не сон!

>		     Dm                   Am
		Занесите меня в Красную книгу.
>		Dm                              Am
		Положите на стол с зеленым сукном.
>		Dm                                 Am
		Я открыл свой свет и свои черный дыры,
>		Dm               Am        G
		Свой антимир. И я живу в нем.
>		G                Am
		Я вижу то, что вижу.
		Это не сон!

		Я вижу тех, кто слеп, и кто открыл глаза.
		Тех, кто молчал, когда я кричал.
		Запах талой воды, у земли - цвет засохших трав.
		И мумии стоят со всех сторон. Это не сон!