* ЧАЙНИК ВИНА * (1992)     
		Чайник вина

>		        Am          E7
		А не пойду ли я собирать коноплю --
>		       E7                Am
		Ведь любимой уж нету со мной.
>		     Dm             Am
		В одиночестве я мухоморы коплю,
>		     E7               Am
		Пропадаю в тоске неземной.
>		     Dm             Am
		В одиночестве я мухоморы коплю,
>		     E7               Am
		Пропадаю в тоске неземной.

		Или, может, иль мак собирать мне пора,
		Если сух шестопаловый цвет,
		Или попросту сесть на иглу на ура,
		Если милой со мной уже нет?..
		Или попросту сесть на иглу на ура,
		Буде милой со мной уже нет?..

		Волчий жмых, рыжий пестик, дурные врачи,
		А колес лекарь в дом не везет.
		Волки воют по зайцам на лунной печи,
		А луна черепахой ползет.
		Волки воют по зайцам на лунной печи,
		А луна черепахой ползет.

		Скоро тает гнила на язык белена,
		Мокнут в пене извивы ужей.
		Эй, слуга, завари-ка мне чайник вина,
		Скоро ночь и проходит уже.
		Эй, слуга, завари-ка мне чайник вина,
		Скоро ночь и проходит уже.