Февраль-март 1973 - 12 октября 1982
		Я умру на бегу

>		     Dm
		Я умру на бегу, торопясь, опоздав,
>		    Gm
		И уже не смогу доказать, что я прав,
>		      C                   F
		Что я очень спешил, не хотел подвести,
>		       A                         Dm
		Я бы все разрешил, но уже не спасти.

>		     D               Gm
		Самолет улетит без меня, без меня,
>		      C              F
		И составы одни зазвенят, зазвенят,
>		       Gm                 Dm
		Ну а тех, кто дождется до этого дня,
>		     E                 A      Dm
		Я заранее прошу - извините меня.

>		                      Gm
		Извините за то, что стареть не решил,
>		     C                  F
		Извините за то, что неправедно жил,
>		       D                 Gm
		И что дальше и дальше я день ото дня,
>		      A                Dm
		И что это сказал, извините меня.