
		Ностальжи

>		C#m             A        E G# C#m
		Боль пронзила все тело миллиардом острых игл,
>		A       E               G#              C
		А небо хотело удивить его дождем
>		                   Em
		Куда мы идем?
>		        H
		Куда мы идем?
		Куда мы идем?

>		C#m             A       E       G#      C#m
		Жить и не сомневаться, что два шага до войны,
>		A               E               G#                  C
		И не просыпаться, потому, что наши сны
>		        Em
		Мерцание… Сны
>		        H
		Прощание… Сны
		Все нежностью… Сны
>		                C
		Безбрежностью…
>		                 Em             H
		Летящие, настоящие, мы,
>		                        C#m
		Все нежностью, безнадежностью, и
>		A               E  G#  C#m
		Поэтому снова не желаем говорить,
>		A               E       G#  C
		Поэты ни слова не меняют, чтобы жить
>		Em
		Спокойствие, только спокойствие,
>		H
		Прямо за совестью
		Склад продовольствия
>		C                       Em
		Все ответы даны неполные,
>		H
		Мы раздетые, незнакомые

>		Em                      С
		Все вопросы, как имя-отчество,
>		H
		Мы, как в космосе. Одиночество.
>		C
		Люди носятся,
		Звуки просятся,
>		H
		Таем в нежности,
		В неизбежности…

>		Em              C       G
		Ты не смеешь, скотина,
>		H               Em
		Называть меня чужим.
>		C       G               H(?)
		Ты под героином, или просто ностальжи
		Замучило,
>		G
		Комп заглючило,
		(?)
		Страх по трезвости,
		Неизвестности

>		C#m       A           E G#  C#m
		Нам осталось немного не пройденных шагов,
>		A          E                G#               C#m
		Узнаем у Бога, как выглядит ЛЮБОВЬ…