
		By the way

		x8     x8    x16
		[e------|------|-----|
		B------|------|-----|
		G------|------|-----|
		D---3--|---2--|--2--|
		A---3--|---3--|--0--|
		E------|------|-----|]
		x8     x8    x12      Fill
		[e------|------|-----|-------------|
		B------|------|-----|-------------|
		G------|------|-----|--2-2--------|
		D---3--|---2--|--2--|--------3-3--|
		A---3--|---3--|--0--|-------------|
		E------|------|-----|-------------|]
		Standin? in line...
		x8     x8    x16
		[e------|------|-----|
		B------|------|-----|
		G------|------|-----|
		D---3--|---2--|--2--|
		A---3--|---3--|--0--|
		E------|------|-----|]

!		Bridge A:
		[e-------------------------
		B-------------------------
		G-------------------------
		D--x-x-x-x-x-x-x-x-------- } repeat a lot
		A--x-x-x-x-x-x-x-x--------
		E--x-x-x-x-x-x-x-x--------]

!		Verse:
		[e--8-8-8-8-----
		B--------------
		G--------------
		D--------------
		A--------------
		E--------------

		e----------------------------
		B--8-8-----------------------
		G--7-7----------------------- } play 4x
		D--6-6--x-x-x-x-x-x-x-x------
		A--7-7--x-x-x-x-x-x-x-x------
		E-------x-x-x-x-x-x-x-x------]

		Fill:
		[e--------------------
		B--8-8-8-8-8-8-8-8---
		G--7-7-7-7-7-7-7-7---  =20
		D--6-6-6-6-6-6-6-6---   fast strumming
		A--7-7-7-7-7-7-7-7---
		E--------------------]

!		Chorus A:
		x8     x8    x16
		[e---8--|---8--|--5--|
		B--10--|---8--|--6--|
		G--10--|---9--|--7--|
		D--10--|--10--|--7--|
		A---8--|--10--|--5--|
		E------|---8--|-----|]
		x8     x8    x8    x8
		[e---8--|---8--|--5--|--6--|
		B--10--|---8--|--5--|--6--|
		G--10--|---9--|--5--|--7--|
		D--10--|--10--|--7--|--8--|
		A---8--|--10--|--7--|--8--|
		E------|---8--|--5--|--6--|]
		By the way...

!		Interlude (w/dist and wa-wah):
		[D--------|
		A--------| } repeat 16x
		E--/7b^--|]

!		Chorus B:
		x8     x8    x16
		[e------|------|-----|
		B------|------|-----|
		G------|------|-----|
		D---3--|---2--|--2--|
		A---3--|---3--|--0--|
		E------|------|-----|]
		x8     x8    x12      Fill
		[e------|------|-----|-------------|
		B------|------|-----|-------------|
		G------|------|-----|--2-2--------|
		D---3--|---2--|--2--|--------3-3--|
		A---3--|---3--|--0--|-------------|
		E------|------|-----|-------------|]
		Standin? in line...
		x8     x8    x16
		[e------|------|-----|
		B------|------|-----|
		G------|------|-----|
		D---3--|---2--|--2--|
		A---3--|---3--|--0--|
		E------|------|-----|]

!		Bridge B:
		[e-------|
		B--8-8--|
		G--7-7--|
		D--6-6--| } play 4x
		A--7-7--|
		E-------|

		e------
		B------
		G--10--
		D--10--
		A---8--
		E------]

>		F
		Standing in line
>		C
		to see the show tonight
>		Dm
		and there's a light on

		heavy glow
>		F            C
		By the way I tried to say
>		Am           Bb
		I'd be there... waiting for
>		F
		Dani the girl
>		C
		is singing songs to me
>		Dm
		beneath the marquee... oversold
>		F            C
		By the way I tried to say
>		Am           Bb
		I know you... from before

>		F
		Standing in line
>		C
		to see the show tonight
>		Dm
		and there's a light on

		heavy glow
>		F            C
		By the way I tried to say
>		Am           Bb
		I'd be there... waiting for