
		Не Дикаприо

!		Куплет: (1)

>		A                      C#m
(1)		Там, где нет свободных мест
>		                  Hm
		Между небом и землёй
>		              E
		Появился и исчез
>		                  A
		Новый плюшевый герой

!		Куплет: (2)

>		                C#m
		Посмотрел из далека
>		                 Hm
		Подождал до темноты
>		               E
		Посветился и упал,
>		                 Hm
		Не достигнув высоТы!

!		Припев:

>		      E
		Не Дикаприо,
>		    Hm       E
		Ты уже не Дикаприо,
>		      C#m      F#m
		Ты совсем не Дикаприо!

!		Вопли:

>		A C D A C D A C D C D A
		Уа-у-у-а-у-у-а-у-у-у-у-уа!

!		Куплет: (3)

		Будет новая звезда
		Будет лучше, чем вчера
		Не сорвётся с высоты
		Не исчезнет до утра

!		Куплет: (4)

		Бесконечная игра
		Дотянуться др звезды
		И тебе уже пора
		Оборваться с высоТы!

!		Припев:

		Не Дикаприо,
		Ты уже не Дикаприо,
		Ты совсем не Дикаприо!

		Не Дикаприо,
		Ты уже не Дикаприо,
		Ты совсем не Дикаприо!

!		Вопли:

		Уа-у-у-а-у-у-а-у-у-у-у-уа!