
		38 узлов

>		Am                           Dm
(1)		Было время - я шёл тридцать восемь узлов,
>		E                E7        Am     E (E7)
		И свинцовый вал резал форштевень,
>		       Am              Dm
		Как героев встречали моих моряков
>		       G             C      A7
		Петроград, Лиепая и Ревель.
>		                                 Dm
		А теперь - каждый кабельтов в скрипе зубов,
>		      F                 E
		И хрипит во мне каждая миля...
>		       Am                    Dm
		Было время - я шёл тридцать восемь узлов,
>		           E       E7       Am   E
		И всё сверкало от мачты до киля.

(2)		И мне верили все: и враги, и друзья,
		От зелёных салаг до Главкома.
		И все знали одно - победить их нельзя,
		Лееров их не видеть излома.
		И эскадры, завидев мой вымпел вдали,
		Самым главным гремели калибром,
		И я нёсся вперёд, уходя от земли,
		До скулы оба якоря выбрав.

(3)		Было всё это так. Мы не ждали наград,
		И под килем лежало семь футов.
		Ждали дома невесты, и ждал нас Кронштадт,
		Как фатою, туманом окутан.
		Было всё это так. Только время не ждёт,
		Вот сейчас бы и дать самый полный.
		Я в машины кричу: "Самый полный вперёд!"
		-
		Да не тянут винты, вязнут в волнах...

(4)		Не могу, стану в док. Отдохну до поры -
		Не пристало Балтфлоту быть слабым.
		Лучше флаг в небо взмыть и, кингстоны открыв,
		Затопить свой усталый корабль.
		Но разве выскажешь всё это в несколько слов,
		Когда снятся в кильватере чайки?
		На компасе - норд-вест, тридцать восемь узлов,
		И всё сверкает от пушки до гайки.