
		Вальс "Бостон"

>		Am      E+5        Am7    *         Dm    Dm+7  Dm7  Dm6
		На ковре из желтых листьев в платьеце простом,
>		      G                     C       E  E7
		Из подаренного ветром крепдешина.
>		     Am   E+5    Am7  *      Dm   Dm+7 Dm7  Dm6
		Танцевала в подворотне Осень вальс-бостон.
>		    F          H7                      E7
		Отлетал теплый день, и хрипло пел саксофон.

		И со всей округи люди приходили к нам.
		И со всех окрестных крыш слетались птицы,
		Танцовщице золотой захлопав крыльями.
		Как давно, как давно, звучала музыка там.

ПРИПЕВ:		<Am        Am     E+5         Am7       *>
		Как часто вижу я сон, тот удивительный сон,
>		          Am           E+5           Dm  Dm+7
		В котором Осень нам танцует вальс-бостон.
>		           Dm     Dm+7            Dm7      Dm6
		Там листья падают вниз, пластинки крутится диск.
>		      F             H7             E   E7
		Не уходи, побудь со мной ты мой каприз.
>		          Am     E+5         Am7       *
		Как часто вижу я сон, тот удивительный сон,
>		          F            E             Am
		В котором Осень нам танцует вальс-бостон.

		Опьянев от наслажденья, о годах забыв,
		Старый дом, давно влюбленный в свою юность,
		Всеми стенами качался, окна отворив,
		И всем тем, кто в нем жил, он это чудо дарил.

		А когда затихли звуки в сумраке ночном,
		(Все имеет свой конец, свое начало.)
		Загрустив, всплакнула Осень, маленьким дождем.
		Ах, как жаль этот вальс! Нам хорошо было в нем...

Коментарий:	Аккорд <E7>: дополнительно прижимаешь мизинцем вторую
		струну на третьем ладу.
		Аккорд отмеченный "<*>": Как бы <Ab7+5>, короче, указательный
		палец на 1 ладу - 2 струна, средний на 2 ладу - 4 струна,
		безымянный или мизинец на 2 ладу - 1 струна.

-

!		Текст набран и выверен по книге "Затяжной прыжок".

>		Am       Am7+       Am7
		На ковре из жёлтых листьев
>		Am6      Dm7      Dm7+
		В платьице простом
>		Dm7   G7/4      G7           C7+ C9/7+ E9- E7
		Из подаренного ветром крепдешина
>		E7    Am  Am7+    Am7         Dm7
		Танцевала в подворотне осень вальс-бостон.
>		     F9         Hm7
		Отлетал тёплый день,
>		          Dm6      E7 E9- E7
		И хрипло пел саксофон.

		И со всей округи люди приходили к нам,
		И со всех окрестных крыш слетались птицы,
		Танцовщице золотой захлопав крыльями...
		Как давно, как давно звучала музыка там.

>		E7         Am
		Как часто вижу я сон,
		Мой удивительный сон,
>		                                      Hm7
		В котором осень нам танцует вальс-бостон.
>		E7          Dm
		Там листья падают вниз,
		Пластинки крутится диск:
>		        E7             E9-            Am
		"Не уходи, побудь со мной, ты мой каприз".
>		E7         Am
		Как часто вижу я сон,
		Мой удивительный сон,
>		                                      Am
		В котором осень нам танцует вальс-бостон.

		Опьянев от наслажденья,
		О годах забыв,
		Старый дом, давно влюблённый в свою юность,
		Всеми стенами качался, окна отворив,
		И всем тем, кто в нём жил,
		Он это чудо дарил.

		А когда затихли звуки в сумраке ночном -
		Всё имеет свой конец, своё начало, -
		Загрустив, всплакнула осень маленьким дождём...
		Ах, как жаль этот вальс, как хорошо было в нём.

		Как часто вижу я сон,
		Мой удивительный сон,
		В котором осень нам танцует вальс-бостон.
		Там листья падают вниз,
		Пластинки крутится диск:
		"Не уходи, побудь со мной, ты мой каприз".
		Как часто вижу я сон,
		Мой удивительный сон,
		В котором осень нам танцует вальс-бостон.

-

>		       Gm Gm6         Gm              Cm7
		На ковре   из жёлтых листьев в платьице простом
>		      Cm7/F     F+           B7& D7
		Из подаренного ветром крепдешина
>		      Gm Gm7&     Gm          Cm7
		Танцевала в подворотне осень вальс-бостон.
>		     Eb9        Am7          D9/b13
		Отлетал тёплый день, и хрипло пел саксофон.
>		       Gm Gm6      Gm        Cm7
		И со всей  округи люди приходили к нам,
>		       Cm7/F          F+             B7& D7
		И со всех окрестных крыш слетались птицы,
>		       Gm Gm7&  Gm            Cm7
		Танцовщице золотой захлопав крыльями...
>		        Eb9        Am7        D9/b13
		Как давно, как давно звучала музыка там.

>		           Gm     Gm7&        Gm7       Gm6
		Как часто вижу я сон, мой удивительный сон,
>		          Gm                          A7 D7
		В котором осень нам танцует вальс-бостон.
>		            Cm7     Cm7&            Cm7     Cm7&
		Там листья падают вниз, пластинки крутится диск:
>		        D7                              Gm  D7
		"Не уходи, побудь со мной, ты - мой каприз".
>		           Gm     Gm7&        Gm7       Gm6
		Как часто вижу я сон, мой удивительный сон,
>		          Am7           D7            Gm D7
		В котором осень нам танцует вальс-бостон.

>		     Gm Gm6        Gm         Cm7
		Опьянев  от наслажденья, о годах забыв,
>		        Cm7/F          F+          B7&     D7
		Старый дом, давно влюблённый в свою юность,
>		        Gm  Gm7& Gm         Cm7
		Всеми стенами качался, окна отворив,
>		        Eb9            Am7         D9/b13
		И всем тем, кто в нём жил, он это чудо дарил.
>		      Gm Gm6        Gm          Cm7
		А когда   затихли звуки в сумраке ночном -
>		      Cm7/F       F+          B7&   D7
		Всё имеет свой конец, своё начало, -
>		       Gm Gm7&        Gm           Cm7
		Загрустив, всплакнула осень маленьким дождём...
>		         Eb9       Am7          D9/b13
		Ах, как жаль этот вальс, как хорошо было в нём!

>		           Gm     Gm7&        Gm7       Gm6
		Как часто вижу я сон, мой удивительный сон,
>		          Gm                          A7 D7
		В котором осень нам танцует вальс-бостон.
>		            Cm7     Cm7&            Cm7     Cm7&
		Там листья падают вниз, пластинки крутится диск:
>		        D7                              Gm  D7
		"Не уходи, побудь со мной, ты - мой каприз".
>		           Gm     Gm7&        Gm7       Gm6
		Как часто вижу я сон, мой удивительный сон,
>		          Am7           D7            G13
		В котором осень нам танцует вальс-бостон.

-

!		Аккорды взяты из сборника "Время жить и помнить. Время петь".
!		Знак "^" обозначает быстрый переход с одного аккорда на другой.

>		Am     E+5          Am
		На ковре из жёлтых листьев
>		F#m7-5   Dm
		В платьице простом
>		    G7+3^G7                  C
		Из подаренного ветром крепдешина
>		E7    Am  E+5     Am
		Танцевала в подворотне
>		       Dm
		Осень вальс-бостон.
>		       F7       Hm7
		Отлетал тёплый день,
>		          Dm/E     E7^E7+5^E7
		И хрипло пел саксофон.

>		E7+5^E7    Am
		Как часто вижу я сон, мой удивительный сон,
>		                                      E7+3/H
		В котором осень нам танцует вальс-бостон.
>		E7          Dm7                     Dm
		Там листья падают вниз, пластинки крутится диск:
>		Dm6     E7                            Am
		"Не уходи, побудь со мной, ты мой каприз".
>		E7         Am
		Как часто вижу я сон, мой удивительный сон,
>		          H7            E7            Am
		В котором осень нам танцует вальс-бостон.