
		ВЫСОТА ОДИНОЧЕСТВА

>		           Am        E               Am
		Высота одиночества - элемент ультра-си,
>		                 Dm      G              C
		И спускаться не хочется, и стоять нету сил,
>		 A7                Dm     G               C
		Не надеть джинсы грязные, и не податься в Устюг,
>		A7           Dm         E                Am
		И среляться заказано, кровью пачкать костюм.

		Высота одиночества - не для слабых ребят.
		Мозги взорваны строчками, а в сердце пушки звенят,
		Хоть победа осознанна, но не радует слог,
		Небо полное воздуха, а дышать тяжело.

>		A7      Dm              E7 Am
		А мой дружок по скалам лазает,
>		A7 Dm            E7       Am
		А хорошо ему - он в отпуске,
>		A7     Dm              G     C
		А у меня все будни - праздники,
>		A7       Dm        E7       Am
		И ветер тело моё рвёт в куски.

		Высота одиночества - филосовский мотив.
		Равнодушие к почестям, вдруг хула восхитит,
		Вроде солнца немеряно, а в глазах темнота,
		И как пустыня для дерева, так для меня высота.

		А поджилки от усталости,
		Всё трясутся, как осинный лист.
		Только радостный оскал спасти
		Надо мне, ведь я большой артист.

		Высота одиночества - не прощает фолов.
		Ни на рыночной площади, и не в питье за столом,
		А мне судбою назначено - вверх ползти по хребту,
		Пропускаю стаканчик я за свою высоту.

		А мой дружок по скалам лазает,
		А хорошо ему - он в отпуске,
		А у меня все будни - праздники,
		И ветер тело моё рвёт в куски.