
		ЕСАУЛ

!		Текст набран и выверен по книге "Затяжной прыжок".
!		Аккорды по сборнику "За милых дам!" (М.: "Денис Альфа").

>		Dm Am Dm E7 Am F G C Am Dm E7 Am

>		            G    C F   G     C     Am
		Под ольхой задремал есаул молоденький,
>		  Dm       Am       Dm         E7
		Приклонил голову к доброму седлу.
>		 Am      G   C   Gm    A7  Dm
		Не буди казака, ваше благородие,
>		           Am         Dm          E7
		Он во сне видит дом, мамку да ветлу.
>		 Am      G   C   Gm    A7  Dm
		Не буди казака, ваше благородие,
>		           Am         Dm    E7    Am
		Он во сне видит дом, мамку да ветлу.

		Он во сне видит Дон, да лампасы дедовы,
		Да братьёв-баловней, оседлавших тын,
		Да сестрицу свою, девку дюже вредную,
		От которой мальцом удирал в кусты.

>		        F/D G7       C
		А на окне    наличники,
>		          Dm      E7   Am
		Гуляй да пой, станичники,
>		          Dm  G7      C
		Черны глаза в окошке том,
>		          Dm     E7    Am
		Гуляй да пой, казачий Дон.

		Не буди, атаман, есаула верного,
		Он от смерти тебя спас в лихом бою.
		Да ещё сотню раз сбережёт, наверное,
		Не буди, атаман, ты судьбу свою.

		Полыхнули кусты иван-чаем розовым,
		Да со скошенных трав тянется туман.    (*)
		Задремал под ольхой есаул на роздыхе,
		Не буди своего друга, атаман.

!		---
!		* Вариант строки: Да со скошенных трав стелется туман.

-

!		Аккорды из сборника "Время жить и помнить. Время петь".

>		 Am         G7   C  F  G7    C     A7
		Под ольхой задремал есаул молоденький,
>		  Dm       Am       Dm         E7
		Приклонил голову к доброму седлу.
>		 Am      G7  C   Gm    A7  Dm
		Не буди казака, ваше благородие,
>		           Am         Dm          E7
		Он во сне видит дом, мамку да ветлу.

>		Am      Dm G7      C
		А на окне  наличники,
>		          Dm      E7   Am
		Гуляй да пой, станичники,
>		          Dm G7        C
		Черны глаза  в окошке том,
>		          Dm     E7    Am
		Гуляй да пой, казачий Дон.