
		ИЗВИНИТЕ, ЧТО НА СВАДЬБАХ НЕ ИГРАЮ

>		Dm
>		   Gm              A7           Dm
		Извините, что на свадьбах не играю,
>		       Gm     C7            F  D7
		На застольях, извините, не пою,
>		      Gm        A7        Dm     B
		Ведь фокусник обычно "не катает",
>		   Gm                        A7
		А бармены, как правило, не пьют.
		Извините, что стою посередине
		Пьяного разбора без ножа,
		Ведь трезвый лучше пьяного поднимет,
		Но никогда не будет рядом с ним лежать.

>		     Gm             A7                 Dm (A+5 Dm7 Dm6)
		Как было когда-то, так больше никогда не будет.
>		     Gm             C7              F
		Простите, ребята, вчера на зоны сели судьи.
>		     Gm                A7                    Dm  B
		Два раза не ступишь, братва, в одну и ту же реку:
>		      Em7-5              A7               Dm
		Кто продал - тот купит. Но я не лавочник, я лекарь.

		Извините, что как в старь я не в фаворе
		У имущих власть влиятельных друзей,
		Что как тысячу лет назад живу в миноре
		И дурею от расхлюстанных газет.
		Извините, что час от часу правею -
		Да потому что левых бросило в кювет -
		И что в дружбу час от часу меньше верю -
		Их, друзей, навалом в книгах, а в жизни нет.

		Извините, что сегодня не болею,
		А заболею - ящик стругани.
		Извините, вроде, должен быть добрее,
		Да вот злее стал - хоть из дому гони.
		Извините, стало дальше мне до рая,
		А вообще меня туда и не зовут,
		Ведь фокусник в безденежье "катает",
		Ну а бармены от горя тоже пьют.