Am           Dm      A7             Dm7
Тает вечер голубой. Спи, я посижу с тобой
Gm              A7      Am            Dm
Спи и ничего не бойся. Руку к небу протяну
    A7            D7    Gm
И звезду зажгу одну. Ты ее теплом укройся,
A7                 Dm
Спи и ничего не бойся.
Am               Dm      A7             Dm7
День еще один прошел, что-то было хорошо,
    Gm              A7          Am            Dm
Что-то может быть, не вышло. Никому не расскажу
    A7            D7      Gm
И твой сон посторожу. Он уже идет по крыше.
   A7                 Dm
Сон к тебе идет по крыше.

Пр:
      Dm              B       C              Am
   Порой осенних листьев, добром желаний чистых,
      Am                             Dm
   Ветром посмеется и тебя коснется сон.
          Dm7          G       G7         Am
   Рождественским весельем и детской каруселью,
           A7                          Dm
   Половодьем весен пусть тебя уносит сон,
          A7            Dm
   Пусть тебя уносит сон.

Спи, моя хорошая, боль твоя непрошена -
Пусть уходит восвояси. Я ее заколдовал,
Произнес любви слова. Боль сказала: мир прекрасен,
И умчалась восвояси.

Пр:
   Усни в тенистой роще, где свет листву полощет,
   Там, где после ливня соловей счасливый пел.
   Усни, я буду рядом, всегда я буду рядом,
   В жизни или в смерти все, что есть, поверь, тебе,
   Все, что есть, отдам тебе.


Уходить не стану я. Спи, моя желанная,
Сон уже прилип к ресницам. Тает вечер голубой,
А моя любовь с тобой. Пусть она тебе приснится
Сон прилип к твоим ресницам.