
		МЫ ВСЕ ПОЙМЕМ

>		Am                Dm      E7  Am
		Мы все поймем, да что там говорить.
>		Dm6 E-9     Am
		Ну  как нам быть,
>		Dm7 G7   C       Dm      E7          Am
		  Кого любить, теперь, кого теперь любить?
>		   F   F/E C        Dm             Am
		Ну как нам быть, ну как теперь нам быть,
>		  Dm          Am      Am/C Hm7-5 E7 Am
		Кого теперь любить, кого теперь  лю_бить?

		Кому доверить мысли и слова?
		Идет молва,
		Что скоро с плеч слетит дурная голова.
		Идет молва, идет молва,
		Что скоро с плеч слетит дурная голова.

		Мы все поймем, не надо лишних фраз,
		Поймите нас,
		Поймите нас и не прищуривайте глаз.
		Поймите нас, поймите лучше нас
		И, ради Бога, не прищуривайте глаз.

		Мы все повязаны одним узлом,
		Да что нам в том,
		Когда мы ходим с черной лестницы в свой дом.
		Да что нам в том, да что нам в том,
		Когда мы ходим с черной лестницы в свой дом.