
		НА ПЛАНТАЦИЯХ ЛЮБВИ

>		Gm               A7
		Вот снова ночь моя темна,
>		   Dm
		И день мой бел...
>		Gm                A7
		Кто виноват, что ты одна
>		    Cm      D7
		В моей судьбе?..
>		Gm      A7 Dm        B
		Ещё вчера  я был другой...
>		      Gm
		...Я так скучаю по тебе,
>		  A7
		моя любовь!

		Ещё вчера я этих слов
		Не мог сказать,
		Когда дарили мне тепло
		Твои глаза,
		Теперь я стал твоим рабом
		И на свободу не прошусь,
		моя любовь.

>		Gm
		Нет на плантациях любви
>		A7         D7
		Замков-ключей,
>		       F          G    C
		Не убегу я, не лови меня,
>		   A7
		Зачем?
>		    Gm
		Когда ты далеко,
>		    A7
		Не шевельнуть рукой
>		   Dm
		И рифмы мне не найти,
>		    G7
		Я пробовал петь,
>		    C
		Но голос хрипел
>		   Dm     F       E
		И не попадал в мотив.

		Мне хорошо, когда огонь
		Горит в груди,
		Когда защитой от врагов
		Необходим...
		Ты прикажи, и в миг любой
		Стрелу поймаю на лету,
		моя любовь.

		Струной натянутой звенит,
		Кричит душа.
		За то, что будет, извини,
		Живу спеша...
		Рождённый от любви,
		Пришёл я в этот мир
		Тебя отыскать в толпе,
		И за руку взять,
		Забыв, что нельзя,
		И эти слова пропеть.

		Луч солнца первый, лампы свет,
		Остывший чай...
		Глаза болят от сигарет,
		Виски стучат.
		На крыше кот,
		И хвост трубой.
		Мы с ним скучаем по тебе,
		моя любовь...

		Нет на плантациях любви
		Замков-ключей,
		Не убегу я, не лови меня,
		Зачем?
		Когда ты далеко,
		Не шевельнуть рукой
		И рифмы мне не найти,
		Я пробовал петь,
		Но голос хрипел
		И не попадал в мотив.

-

Вступление:	<A7 Em7-5 A7>

>		Gm (Em7-5)               A7
		  Вот снова ночь моя темна,
>		    Dm
		 И день мой бел...
>		 Gm                     A7
		 Кто виноват, что ты одна
>		   Am7-5      D7
		 В моей  судьбе?..
>		Gm       A7 Dm/F       B+7
		 Ещё вчера   я был другой...
>		Gm     (Em7-5)
		 Я так скучаю по тебе,
>		     A7
		моя любовь!

>		              Gm  (Em7-5)
		Нет на плантациях любви
>		 A7       D+7
		Замков-ключей,
>		       H7         Em7  A7
		Не убегу я, не лови меня,
>		   D+7
		Зачем?
>		   Am7-5      D7
		Когда ты далеко,
>		    Am7-5        D7
		Не шевельнуть рукой
>		   Gm            Gm7
		И рифмы мне не найти,
>		    C7
		Я пробовал петь,
>		    F(7)     B+7
		Но голос хрипел
>		   Gm   Em7-5     A7
		И не попадал в мотив.

!		(....)

!		(Импровизация на мотив припева в тональности <Em>:
!		<Am>,<H7>,<E+7>,<C#7>,<F#m7>,<H7>,<E+7>,<Hm7>,<E7>,<Hm7>,<E7>,<Am7>,<D7> и т.д.)

-

>		Gm7            Gm6 A7
		Вот снова ночь моя темна,
>		  Dm        F6
		И день мой бел...
>		Gm7            Gm6 A7
		Кто виноват, что ты одна
>		      Cm7
		В моей судьбе?..
>		Gm6    A7 F          B7
		Ещё вчера  я был другой...
>		Gm7            Gm6
		...Я так скучаю по тебе,
>		   A7
		моя любовь!

>		Gm7 Gm6     Gm7      Gm6
		  Ещё вчера я этих слов
>		  A7         Dm   Dm(1) Dm(3) Dm(2)
		  Не мог сказать,
>		Gm7 Gm6       Gm7      A7
		   Когда дарили мне тепло
>		     Cm7   D7
		  Твои глаза,
>		Gm6          A7 F        B7
		  Теперь я стал твоим рабом
>		Gm7 Gm6       Gm7
		   И на свободу не прошусь,
>		Gm6       A7
		   моя любовь.

>		                   Gm7
		Нет на плантациях любви
>		 A7        Dmaj7
		Замков-ключей,
>		      Fmaj7       D#maj7
		Не убегу я, не лови
>		 C7     F7
		Меня, зачем?
>		  Cm7        D7
		Когда ты далеко,
>		      Cm7        D7
		Не шевельнуть рукой
>		   Gm7  Gm7-  Gm  Gm6
		И рифмы мне не найти,
>		    C
		Я пробовал петь,
>		F        B7
		Но голос хрипел
!		 <E7              A7>  (let ring)
		И не попадал в мотив.

!		концовка (в общем, то же самое, что и припев,
!		только на два тона выше):

>		Am7 Am6 H7 Emaj7
>		Gmaj7 Fmaj7 D7 G7*
>		Cm7 D7 Cm7 D7 Dm7 E7* Dm7 E7*

Аппликатура:	<Am7>:    [0-0-7-5-5-5]
		<Am6>:    [0-0-4-5-5-5]
		<Fmaj7>:  [0-0-10-9-10-8]
		<D#maj7>: [0-0-8-7-8-6]
		<Gmaj7>:  [0-0-12-11-12-10]
		<G7*>:    [0-12-14-12-14-12]
		<E7*>:    [0-7-9-7-9-0]
		<Dm(1)>:  [0-0-0-7-6-5]
		<Dm(2)>:  [0-0-0-7-6-6]
		<Dm(3>:   [0-0-0-10-10-10]

!		При использовании трёх последних аккордов сначала зажимаем струны на полтона
!		ниже и плавно доводим до названных аккордов. Лучше всего послушать саму
!		песню, и всё станет понятно.