
		ОДИНОЧЕСТВО

>		Gm Gm+5 Gm6 Gm+5 Gm (F#m+5^Gm+5) Gm6 Gm+5 Gm

>		Gm Gm+5 Gm6   Gm+5    Gm  Gm+5 Gm6 Gm+5 Gm
		В муках извивается струна,
>		 Gm+5  Gm6       Gm+5    Cm  (Cm(8) Cm6(8) Cm9(8) Csus4 Csus2 Cm)
		Корчится в звенящей тишине...
>		Cm   Cm6 Csus4       Cm      D7(5) D#7(6) F7(8) D7(5)
		Ах, как выпить хочется до дна
>		 D7                Cm      Gm Gm+5 Gm6 Gm+5 Gm
		За тебя, возлюбленная, мне.

		Только вот, в гранёный мой стакан,
		К сожаленью, нечего налить.
		Я давно не видел старика -
		Года два - с тех пор, как бросил пить.

>		 D7+9    D7(5)              D7+9       D7(5) Gm Gm+5 Gm6 Gm+5
		Рано, вещун, я, послушав тебя, завязал,
>		 G7           F#7^G7                        Cm Csus7 Csus4 Cm Csus7 Cm
		Рано забыл об одном: двум смертям не бывать,
>		 Adim(8)    Cm(8)          D#(3)   A#(6) Abdim(6)
		Рано я вставил себе голубые глаза -
>		 Cm                     D7              Gm (Gm+5 Gm6 Gm+5 Gm)
		Карие больше идут мне, не буду скрывать.

		Два часа, как умер телефон,
		До утра его не воскресить.
		Мне б строку не спутать со строфой -
		Сохрани, Господь, и Боже, упаси!

		Не угадать бы того, что умом не понять,
		И не подсмотреть бы того, что сокрыто в ночи,
		И не услышать бы стона, что не для меня
		Бьётся в горячей подушке у ясной свечи.

		Заходи, старик, я вновь один,
		Как всегда, со всеми - и ни с кем.
		И хоть сердце вроде бы в груди -
		Кожу рвёт мне вена на виске.

		Рано, послушав тебя, я, вещун, завязал, -
		Но не страшны мне на стенах теперь зеркала.
		Время пришло, старичок, отвечать за базар,
		А без полбанки никак - вот такие дела!

!		<Gm+5>=<Gm+addEb>  = [3-4-3-5-5-3]
!		<Gm6>            = [3-5-3-5-5-3]
!		<Cm6(viii)>      = [8-10-8-10-10-8]
!		<Cm9(viii)>      = [10-8-8-10-10-8]
!		<Csus4>          = [3-6-5-5-3-3]
!		<Csus2>          = [3-3-5-5-3-3]
!		<D7+9>=<D7(vi)+A#> = [6-7-5-7-5-5]
!		<Adim (viii)>    = [8-7-8-7-x-x]
!		<Abdim/G (v)>    = [7-6-7-5-x-x]