
		Отслужи по мне

>		Am              Em
		Отслужи по мне, отслужи,
>		      Am               F G7
		Я не тот, что умер вчера.
>		       C              A7
		Он, конечно, здорово жил
>		       Dm               E7
		Под палящим солнцем двора,
>		       Am            Dm#/G
		Он, конечно, жил не тужил,
>		      F     G7       A7
		Не жалел того, что имел.
>		      Dm              Am
		Отслужи по мне, отслужи,
>		      Dm              E7
		Я им быть вчера расхотел.

		С места он коня пускал вскачь,
		Не щадил своих кулаков,
		Пусть теперь столетний твой плач
		Смоет сладость ваших грехов.
		Пусть теперь твой герб родовой
		На знамёнах траурных шьют.
		Он бы был сейчас, конечно, живой,
		Если б верил в честность твою.

		Но его свалили с коня,
		Разорвав подпругу седла,
		Тетива вскричала, звеня,
		И стрела под сердце легла...
		Тронный зал убрать прикажи,
		Вспомни, что сирень он любил.
		Отслужи по мне, отслужи,
		Я его вчера позабыл.

		Я вчера погиб ни за грош,
		За большие тыщи погиб,
		А он наружу лез из всех своих кож,
		А я теперь не двину ноги.
		В его ложе спать не ложись,
		Холод там теперь ледяной.
		Отслужи по мне, отслужи,
		Умер он, а я нынче другой.

>		       Dm#/G
		+--1--+-----+-----+
		+-----+-----+--4--+
		+-----+--3--+-----+
		+-----+--x--+-----+
		+-----+--x--+-----+
		+-----+--2--+-----+
		  II    III   IV

-

>		      Em              H7
		Отслужи по мне, отслужи,
>		      Em               Dm
		Я не тот, что умер вчера.
>		       E7      Dm     E7
		Он, конечно, здорово жил
>		       Am6   C          H7
		Под палящим солнцем двора,
>		       Em            H7
		Он, конечно, жил не тужил,
>		      Em    D        G  E
		Не жалел того, что имел.
>		      Am6             Em
		Отслужи по мне, отслужи,
>		      Am    Am6/C(H7) H7(Em)
		Я им быть вчера расхотел.

-

>		      Em              H7
		Отслужи по мне, отслужи,
>		      Em               C D7
		Я не тот, что умер вчера.
>		       G              E7
		Он, конечно, здорово жил
>		       Am               H7
		Под палящим солнцем двора,
>		       Em              H7
		Он, конечно, жил не тужил,
>		      C     D7       E7
		Не жалел того, что имел.
>		      Am              Em
		Отслужи по мне, отслужи,
>		      Am              H7
		Я им быть вчера расхотел.