
		ПЕСНЯ О ЛЕНИНГРАДЕ

!		Текст набран и выверен по книге "Затяжной прыжок".

>		 Am
		Дождь...
>		             H
		Над Невой туман,
>		   Dm           E
		Львы намочили гривы.
>		 Am               H
		Только портовый кран
>		 Dm              E
		Нам разгружает сливы.

>		  Gm              A7
		Мне не нужна Москва,
>		  Dm           E
		Мне не нужна Одесса,
>		 Am            H
		Видеть бы мне дома
>		Dm         E     Am
		В белых ночей завесе.

		Дождь намочил асфальт,
		Дождь прыгает по крышам.
		На Театральной альт
		Мы из окошек слышим.

		Дождь на моей руке,
		Дождь на листве зелёной,
		Дождь каплей по щеке...
		А на вкус солёный.