
		ПОСВЯЩЕНИЕ АКТРИСЕ

>		Gm                  Eb Eb+7 D7      Gm
		Смотрите, женщина идёт,    не без Христа.
>		F        F7           B
		Толпы ухмылки ей в почёт.
>		  A7            D7
		Она пойдёт на эшафот,
>		    G7                 Cm
		Кривя в усмешке едкой рот,
>		F7      B
		В её лета
>		  Eb      Ab7
		Стюарт и та
>		   D7    Gm
		была чиста...

		Смотрите, женщина идёт по мостовой,
		Дитя порока, дочь добра,
		Вчера глупа, сейчас мудра,
		Её не встретишь так с утра.
		Смотрите, женщина идёт по мостовой.

		Смотрите, женщина идёт. Она пьяна.
		Она пьяна не от вина,
		А потому, что не одна,
		И ей знакома тишина:
		Когда кругом царит содом, ей тихо в нём.

>		 Cm7
		День так высоко,
		Мир под каблуком
>		 B
		Раскалил
		Лёгким ветерком.
>		   Eb7
		Пожалеть о том
>		  A7
		Стоит ли?
>		                D7
		Свет достать рукой
		Было так легко -
>		         Gm
		Стало далеко.
		Жить бы - не тужить,
		Королевой быть,
		Властвовать.
		Только не забыть,
		Как вели кормить
		Сказками.
		Только не простить,
		Как могла любить,
		Как могла любить...

		Смотрите, женщина идёт, не без Христа.
		Толпы ухмылки ей в почёт.
		Она пойдёт на эшафот,
		Кривя в усмешке едкой рот,
		В её лета
		Стюарт и та
		была чиста...