
		Придёт пора...

>		Dm           Em7-5         A7
		Придёт пора, и золотым дождём
>		Dm                    Gm        C7      F
		Осыплет Петербург торжественная осень...
>		                Gm         A7  Dm
		И каждый будет думать о своём,
>		                 Em7-5         A7
		И мы друг друга ни о чём не спросим.

		И Сфинксы над Невой, от холода дрожа,
		Накинут на плечи тепло лучей под утро.
		И ветер, яблоню к земле прижав,
		Разденет сильною рукой её, беспутный.

>		 Gm           A7      Dm
		По Невскому пройду булыжной мостовой...
>		  Gm            C7    F        D7
		Грохочет по камням далёкая пролётка...
>		   Gm         A7   Dm   B
		Куда же ты, убогая, постой,
>		        Em7-5   A7         D7
		Не исчезай, прошу, за поворотом.
>		        Gm6     A7         Dm
		Не исчезай, прошу, за поворотом.

		Придёт пора, и камни на дворцах
		Дыханьем ледяным зажгут огонь в каминах.
		Отхлынет кровь от бледного лица,
		Свеча вдруг вспыхнет пламенем карминным.

		Кудрявый мальчик вдруг склонится над листком,
		Над рифмой над нечаянной хмелея.
		И небо смотрит с грустью и тоской
		На памятник у Русского музея...