
		РЕТРО

!		Аккорды из сборника "Время жить и помнить. Время петь".

>		 B+7               Gb9
		На день рожденья твой
>		       B6                      G7 Cm7
		Я подарю тебе букет свежих роз,
		Белых, как цвет фаты,
>		            Cm7/F              F-9
		В которой, помнишь, венчалась ты
>		        B+7 Ab9
		Со мной,
>		                  G7
		И был так ласков мир,
>		                      Gm7
		В котором тихо мы кружились,
>		    Eb   F7    B+7
		кружились с тобой.

		Как много лет прошло,
		Но до сих пор от тёплых ласковых губ
		Так кружится голова,
		И замирает сердце, лишь едва
		На грудь
		Положишь руку мне
		И тихо-тихо засмеёшься во сне.

>		         F  Gb7         D+7
		Как быстро повзрослела наша дочь.
>		                G#m7-5 C#7
		Ей кудри растрепала   ночь.
>		        F#m7
		Зажав улыбку в руке,
>		        H9
		Она плывёт в далеке,
>		            Hm7         D/E E7
		И пусть спокойно ей спитс___я,

>		         E7 F7                     ...
		И пусть наш_епчет ей тихонько клён,
		Что будет кто-нибудь влюблён
		В неё, как я много лет
		В любимых глаз тёплый свет,
		И пусть ей мама приснится...

>		 A+7               F9
		На день рожденья твой
>		       A6                      F#7 Hm7
		Я подарю тебе букет свежих роз,
		Белых, как цвет фаты,
>		            Hm7/E              E-9
		В которой, помнишь, венчалась ты
>		        A+7 G9
		Со мной,
>		                  F#7
		И был так ласков мир,
>		                      Hm7
		В котором тихо мы кружились,
>		    D/E   E7     A6 B+7 A+7
		кружились   с тобой.