
		СВАДЬБА

!		Текст набран и выверен по книге "Белая птица удачи".

>		Am
		Этот маленький оркестрик
		Не даёт стоять на месте,
>		 Dm             E         Am
		Ну, скрипач, давай повеселей!
>		F  E
		Э-гей!
>		 Am
		Разойдись куда кто может,
		Музыканты, дай вам Боже,
>		  Dm           E          Am G
		Спойте-ка для дорогих гостей.

>		    C    G         C
		Давно на улице темно,
>		 E
		Но
>		 Dm       E          Am
		Нам расходиться недосуг,
>		  G
		Друг!
>		C            G        C
		И пусть всё выпито вино,
>		 E
		Но
>		Dm          E           Am
		Если будет надо - принесут.

		А ну-ка,
		Свадьба, свадьба
>		   G            C
		В жизни только раз,
>		 Dm            Am
		Может, два, а может, три,
>		   E           Am
		Но это не для нас.

		Ну, давай повеселее,
		Струн и пальцев не жалея.
		Кавалеры сняли пиджаки.
		Не за гроши - друг для друга...
		Вот жених пошёл по кругу,
		И невеста встала на носки.

		Пусть зимний ветер ледяной,
		Пой,
		Качает старенький фонарь,
		Жарь!
		Давай нальём-ка по одной,
		Ой...
		Песни мене голову кружат!

		Что вы, мама, разве можно?
		Надо крайне осторожно,
		Ног не поломайте, я прошу!
		Веселей играйте, дети,
		Много пожил я на свете,
		Но пока я весел - я живу.

		Пусть зимний ветер ледяной,
		Пой,
		Качает старенький фонарь,
		Жарь!
		Давай нальём-ка по одной,
		Ой...
		Песни мене голову кружат!