Молодые ветра (2001), Инопланетен (2003)
		Жди

Проигрыш:	<D A Hm Em Hm>

>		D                              A
		Ты где-то далеко высоко в небе знаешь
>		Em                          Hm
		Крылья сотрутся мои до тебя долететь
>		D                                    A
		Ты где-то там так смешно невесомость ласкаешь
>		Em                           Hm     A
		Мысль утонула моя погружаюсь на дно но

>		Em                            Hm
Припев:		Всё равно я буду ждать с неба ответа
>		Em                                              Hm
		Подай мне знаки улыбнись свой поцелуй пошли мне с ветром
>		Em                   G             Hm
		И слово за слово начнём всё заново и
>		Em             A               Hm   A
		Спаём а любви спрячемся вдвоём жди

		Ты где-то за луной в сказках радость рождаешь
		Сон верю сбудется мой и мы будем с тобой
		Ты где-то там на краю во вселенной сжигаешь
		Чувство пламенем жёт целюсь сердцем в окно

-

>		D A Em Hm

>		D                              A
		Ты где-то далеко высоко в небе знаешь
>		Em                          Hm
		Крылья сотрутся мои до тебя долететь
>		D                                    A
		Ты где-то там так смешно невесомость ласкаешь
>		Em                           Hm
		Мысль утонула моя погружаюсь на дно но

>		D                             A
Припев:		Всё равно я буду ждать с неба ответа
>		Em                                              Hm
		Подай мне знаки улыбнись свой поцелуй пошли мне с ветром
>		D                                  A
		И слово за слово начнём всё заново и
>		Em             A               Hm
		Споём а любви спрячемся вдвоём жди

		Ты где-то за луной в сказках радость рождаешь
		Сон верю сбудется мой и мы будем с тобой
		Ты где-то там на краю во вселенной сжигаешь
		Чувство пламенем жжёт целюсь сердцем в окно

!		Припев