альбом - Тяжкий
		"Дождь льет"

Вступление:	<Cm Cm G# G>
>		Cm Cm G#
>		Cm G# D# G } 2 раза

>		Cm                        Fm
		Ты стоишь давно и долго ждешь
>		G                    Cm
		А его все нету нету нету
>		Cm                       Fm
		И усталый ливень старый дождь
>		G#                       G
		Не несет от мальчика привета

		Твое платье вымокло давно
		И все тело как-то подзамерзло
		И поход обещанный в кино
		Стал как будто под большим вопросом

>		              Cm                G#
Припев:		А дождь все льет, а дождь все льет
>		           D#              G
		И слезы с каплями на лужи падают
>		              Cm             Fm
		А дождь все льет, а кто-то ждет
>		          G#             G
		Может придет, случилось мало ли

Проигрыш:	<Cm G# D# G> } 2 раза

		А может заболеть и умереть
		Он тогда бы плакал две недели
		Или на ракете улететь
		С сентября до самого апреля

		Или записаться в Голливуд
		И играть не хуже Дикой Розы
		Он тогда бы сразу тут как тут
		Еле добрался голодный, босый

!		Припев

Проигрыш:	<Cm Cm G# G>
>		Cm Cm G#
>		Cm G# D# G } 2 раза

		Ты, конечно, скоро подрастешь
		Замуж выдешь, может даже ???
		о как только за окошком дождь
		Вспомни, как грустили с ним однажды

!		Припев } 2 раза