
		Пять причин

>		Am                    С
(1)		Как же это все произошло
>		                         Dm
		Ведь не мало времени прошло
>		                    E
		Я не научился жить один
>		                        Am
		И у меня на это пять причин

>		Am                 G
Припев:		Первая причина-это ты
>		                     F
		А вторая все твои мечты
>		                       Dm
		Третья-это все твои слова
>		E                 Am
		Я им не поверил едва
		Четвертая причина-это ложь
		Кто прав кто виноват не разберешь
		А пятая причина-это боль
		От того что умерла любовь.

(2)		А сегодня видел я во сне
		Как ты улыбалась, но не мне
		Как ушла ты в мир других мужчин
		И у тебя на это пять причин
		Первая причина-это я
		А вторая все твои друзья
		Третья твоя новая любовь
		Все это понятно без слов
		Четвертая причина-это ложь
		Кто прав кто виноват не разберешь
		А пятая причина-это боль
		От того что умерла любовь.

Припев:		Первая причина-это ты
		А вторая все твои мечты
		Третья-это все твои слова
		Я им не поверил едва
		Четвертая причина-это ложь
		Кто прав кто виноват не разберешь
		А пятая причина-это боль
		От того что умерла любовь.