
		Цветут цветы

		< Am            Dm>
     (1)	Твоего лица глаза,
		<            Am>
		Твоего лица рот,
		<               Dm>
		Не забуду никогда,
		<            Am>
		Даже если умрет,
		<            G>
		Даже если умрет
		<           Am >
		Мировой океан
		<                 G>
		И не рыбы вместо рыб
		<              Am   G>
		Будут плавать там.
 
      (2)	И не рыбы вместо рыб,
		И не люди вместо нас,
		Город был, остался дым,
		Город просто погас,
		Город просто погас
		И остался лишь он,
		Запах тела твоего,
		Тела твоего звон.
 
		<Am                     G>
    Припев:	Цветут цветы, не я, не ты,
		<                   Am>
		У же не можем их сорвать,
		<                     G>
		Цветут цветы среди зимы,
		<                      Am>
		Считаю дни, я должен ждать.
		Цветут цветы среди огней,
		Среди чужой большой любви,
		Цветы-глаза, цветы-слова,
		С холодным запахом зимы.
 
     (3)	И не птицы вместо птиц В облаках о тебе,
		Эту песню поют Вовсе не о весне.
		На холодной земле,Населенной извне,
		Приземляются они -Инопланетяне.
 
!		Припев
 
     (4)	И не рыбы вместо рыб,И не люди вместо нас,
		Город был, остался дым,Город просто погас,
		Город просто погас И остался лишь он,
		Запах тела твоего,Тела твоего звон.