м/ф "Бременские музыканты"
		Бременские музыканты. Песня разбойников

>		       Am        E          Am
		Пусть нету ни кола и не двора.
>		          Dm    G7       C     A7
		Зато не платят королю налоги
>		   Dm      E7         F
		Работники ножа и топора -
>		   Dm    E7             Am
		Романтики  с большой дороги.

>		       E7        Am
Припев:		      Не желаем жить по другому,
>		       G7        C        A7
		      Не желаем жить, эх по другому,
>		       Dm    G7           C     A7
		      Ходим мы по окраю, ходим мы по краю,
>		       Dm           E7     Am
		      Ходим мы по краю родному.

		Мы бродим от утра и до утра.
		Чужие сапоги натерли ноги.
		Работникам ножа и топора -
		Романтикам с большой дороги.

		Прохожих ищем с ночи до утра.
		Ну от чего не любят недотроги
		Работников ножа и топора -
		Романтиков с большой дороги.