"Выше радуги"
		Зурбаган
Исполняет:	В.Пресняков

>		 Am                   Fmaj7 - G7 Cmaj7
		Засыпает старый Зурбаган,
>		Am                  Fmaj7 - G7 Cmaj7
		А за горизонтом ураган,
>		    Dm
		С грохотом и гомоном и гамом,
>		 G                         C    - C E Am
		Путь свой начинает к Зурбагану.

		Грянет ливень, резкий и косой,
		И продрогнет юная Ассоль,
		И опять понять не смогут люди
		Было это или только будет      - <C7>

>		           Dm                  G7                Em - Am
Припев:		    Два часа на часах, день ненастный ненашего века,
>		            Dm               E                 Am  - Asus4/B A
		    Смотрит юная девушка с пристани вслед кораблю,
>		          Dm             G7                Cmaj7    Am
		    И плечами поводит, озябнув от вешнего ветра,
>		          Dm6         E               Fmaj7  G  C
		    Я люблю это время, безнадежно люблю.

		Сгинет ночь, и день придет иной,
		Как волна приходит за волной,
		И проснусь я в мире невозможном,
		Где-то между будущим и прошлым.

		В мире, где девчонкою босой,
		У прибоя бегает Ассоль,
		Бегает смешная озорная,
		Ничего о парусе не зная.

!		Припев