к/ф "Гусарская баллада"
		Колыбельная светланы
!		Сл. А.Гладкова
!		муз. Т.Дренникова.

>		 Am       E7
		Лунные поляны...
>		 Am                 E7
		Ночь, как день, светла...
>		  A7           Dm
		Спи, моя Светлана,
>		  Dm           E7
		Спи, как я спала...
>		  A7        Dm
		В уголок подушки
>		 Dm         E7
		Носиком уткнись...
>		  A7            Dm
		Звезды, как веснушки,
>		 Am     E7     Am
		Мирно светят вниз.

		Лунный сад листвою
		Тихо шелестит...
		Скоро день настанет,
		Что-то он сулит?
		Догорает свечка,
		Догорит дотла...
		Спи, мое сердечко,
		Ночь, как день, светла...