К/ф "Мэри Попинс, до свидания"
		Жил да был бpадобpей

>		 C      F         C   F
		Жил да был брадобрей,
>		       C        A7     Dm
		На земле не найти добрей
>		       G            C     F
		Брадобрей стриг и брил зверей
>		                      C    -F
		После той чудесной стрижки
>		                   C    -F
		Кошки были словно мышки
>		                C      -A7 Dm
		Даже глупые мартышки
>		     G         C
		Походили на людей

>		    F    G            C
Припев:		    Это было прошлым летом
>		       F   G       C
		    В середине января
>		        F   G         C    Am
		    В тридесятом коpолевстве
>		     F               G        C
		    Там где нет в помине короля

		Как то рая, встретив льва
		Брадобрей оробел сперва
		И с трудом подобрав слова
		Он сказал весьма учтиво:
		"Что бы быть всегда красивым
		Надо стричь усы и гриву
		В год примерно раза два..У

!		Припев

		Что же было потом
		Ясно всем, кто со львом знаком
		Стричь его, что играть с огнем
		Продолжать рассказ не будем,
		Лев, остриженний как пудель
		Сьел беднягу словно пудинг
		Сьел со всем инвентарем

!		Припев