
		Милая моя

>		Em
(1)		Всем нашим встречам разлуки увы суждены
>		G
		Тих и печален ручей у янтарной сосны
>		H7                                   C E
		Пеплом несмелым подернулись угли костра
>		Am                H7                 Em
		Вот и закончилось все, расставаться пора

>		Em     Am   D           G
Припев:		Милая моя, солнышко лесное
>		Em             Am     H7           Em
		Где в каких краях встретишься со мною?

(2)		Крылья сложили палатки - их кончен полет
		Крылья расправил искатель разлук - самолет
		И потихонечку пятится трап от крыла
		Вот уж действительно - пропасть меж нами легла

!		Припев

(3)		Не утешайте меня, мне слова не нужны
		Мне-б отыскать тот ручей у янтарной сосны
		Вдруг сквозь туман я увижу кусочек огня
		Вдруг у огня ожидает, представьте, меня...

!		Припев

-

>		 Em
		Всем нашим встречам разлуки, увы, суждены.
>		 G              D7                 G
		Тих и печален ручей у янтарной сосны.
>		 H7                                    C   E7
		Пеплом несмелым подёрнулись угли костра -
>		 Am                H7               Em
		Вот и окончилось всё, расставаться пора.

>		Em      Am
Припев:		Милая моя,
>		D7           G
		Солнышко лесное,
>		 Em             Am
		Где, в каких краях
>		   H7           Em
		Встретишься со мною?

		Крылья сложили палатки - их кончен полёт.
		Крылья расправил искатель разлук - самолёт,
		И потихонечку пятится трап от крыла...
		Вот уж действительно, пропасть меж нами легла.

!		Припев

		Hе утешайте меня, мне слова не нужны.
		Мне б отыскать тот ручей у янтарной сосны.
		Вдруг сквозь туман там краснеет кусочек огня,
		А у огня ожидают, представьте, меня?

!		Припев