1995 - Greatest Hits, 1995 - о любви, 1998 - в 20_00 по Гринвичу
		О ЛЮБВИ
!		(О.Тарасов)

!		В альбомах 1995 - о любви и 1998 - в 20_00 по Гринвичу
!		Чиж играет <F#> как [02344х]

>		D      F#          Hm   G  A  D
		А не спеть ли мне песню о любви,
>		      F#       Hm G A     D
		А не выдумать ли   новый жанр?
>		      F#      Hm G A     D
		Попопсовей мотив   и стихи
>		       F#        Hm G A   D
		И всю жизнь получать гонорар?

		Мою песню услышат тысячи глаз,
		Мое фото раскупят тысячи рук.
		Мое Солнце мне скажет: "Это про нас!",
		Посмеется над текстом лучший друг...

		И я стану сверхновой суперзвездой!
		Много девок, машина - все дела,
		Улыбнувшись, ты скажешь: "Как Крутой!"
		Я тебя обниму - ты права!!!

		Напишу-ка я песню о любви,
		Только что-то струна порвалась...
		Да сломалось перо. Ты прости...
		Может, в следу(ю)щий раз,
		А сейчас пора спать.

-

!		Эту песню многие играют разными вариантами и предпочтительно,
!		почему то боем, хотя песня прекрасно звучит не под гитару,
!		а под фортепьяно, поэтому на гитаре ее лучше исполнять
!		методом щепков:

!		1-я строчка песни:
>		   С        E        Am       F
		1|-0---0----0---0----0---0----1---1---|
		2|-1---1----0---0----1---1----1---1---|
		3|-2-2---2--1-1---1--2-2---2--2-2---2-|
		4|------------------------------------|
		5|-3-----------------0----------------|
		6|----------0-----------------1-------|

!		2-я строчка песни:
>		   С        E        Am       F G
		1|-0---0----0---0----0---0----1---1---|
		2|-1---1----0---0----1---1----1---0---|
		3|-2-2---2--1-1---1--2-2---2--2-0---0-|
		4|------------------------------------|
		5|-3-----------------0----------------|
		6|----------0-----------------1-------|

!		...и так зацикленно

		А не спеть ли мне песню, о любви
		А не выдумать ли, новый жанр
		По попсовей матив и стихи
		И всю жизнь получать гонорар!

		Мою песню услышат, тысячи глас
		Моё фото раскупят сотни рук
		Моё солнце мне скажет- это про вас
		Посмеётся над текстом, лучший друг.

		И я стану сверх новой супер звездой,
		Много денег машина, все дела
		Улыбнувшись ты скажешь, как крутой,
		Я тебя обниму, ты права!

		Напишу-ка я песню о любви
		Только что-то струна порвалась
		Да сломалось перо ты прости
		Может в следующий раз,а теперь пора спать.

-

>		C      E           Am   G     C
		А не спеть ли мне песню о любви
>		       E          Am F       C
		Не придумать ли мне   новый жанр
>		      E       Am   G     C
		Попопсовей мотив   и стихи
>		       E         Am F     C
		И всю жизнь получать гонорар.

		Мою песню услышат тысячи глаз
		Мое фото раскупят тысячи рук
		Мое солнце мне скажет - это про нас
		Рассмеется над текстом лучший друг

		И я стану сверховой суперзвездой
		Много денег, машина, все дела
		Улыбнувшись, ты скажешь - я крутой
		Я тебя обниму - ты права.

		А не спеть ли мне песню о любви
		Только что-то струна порвалась
		Да сломалось перо - ты прости -
		Может, в следующий раз,
		А сейчас пора спать.

-

		[e---2---0---2---0-------0----5-3-2--И-c-нaчaлa----------------
		b-----3---3---3---3---3---3-----------------------------------
		g-------------------4-----------------------------------------
		a-------------------------------------------------------------
		d-------------------------------------------------------------
		e-------------------------------------------------------------]

-

Pитм:		<D         F#        Hm        G    A7 D>

Coлo:		|1|-2-------|-----0---|---------|---5-5-3-2-|
		|2|---3-5-3-|-2-3---3-|---3-5-3-|-----------|
		|3|---------|---------|-4-------|-----------|
		|4|---------|---------|---------|-5---------|
		|5|---------|---------|---------|-----------|
		|6|---------|---------|---------|-----------|
!		                                             И пo кpyгy...
		|1|---------|-----0---|---------|---3-3-2---|
		|2|---3-5-3-|-2-3---3-|---3-5-3-|-----------|
		|3|---------|---------|-4-------|-5---------|
		|4|---------|---------|---------|-----------|
		|5|---------|---------|---------|-----------|
		|6|---------|---------|---------|-----------|

Бac:		Нy oчeнь пpимepнo, тaк кaк oн oчeнь зaвиcит oт бapaбaнщикa.
		И бeз нaвopoтoв. Oбычный, тaкoй, pядoвoй бac :)
		|1|---------|---------|---------|---2-2-0---|
		|2|-4-------|---------|---------|-----------|
		|3|---5-7-5-|-4---7-4-|-----7-5-|-----------|
		|4|---------|---------|-7-------|-3---------|
!		гoнopaaaap :)
!		                                                  Пo кpyгy...
		|1|---------|---------|---------|-----------|
		|2|-4-------|---------|---------|-------4---|
		|3|---5-7-5-|-4---7-4-|-----7-5-|-----------|
		|4|---------|---------|-7-------|-3-3-2-----|

>		D    F#7          Bm   G   A  D
		A нe cпeть ли мнe пecню o любви?
>		      F#7     Bm  G A     D
		A нe выдyмaть ли    нoвый жaнp?
		Пoпoпcoвeй мoтив и cтиxи,
		И вcю жизнь пoлyчaть гoнopap!

		Мoю пecню ycлышaт тыcячи глaз,
		Мoe фoтo pacкyпят coтни pyк.
		Мoe Coлнцe мнe cкaжeт: "Этo пpo нac",
		Пocмeeтcя нaд тeкcтoм лyчший дpyг.

		И я cтaнy cвepxнoвoй cyпepзвeздoй,
		Мнoгo дeнeг, мaшинa - вce дeлa.
		Улыбнyвшиcь, ты cкaжeшь: "Кaк кpyтoй",
		Я тeбя oбнимy - ты пpaвa.

		Нaпишy-кa я пecню o любви.
		Тoлькo чтo-тo cтpyнa пopвaлacь,
		Дa cлoмaлocь пepo, ты пpocти.
		Мoжeт, в cлeдyющий paз, a ceйчac пoкa - cпaть.