Солнцеворот (1997)
		ДЕМБЕЛЬСКАЯ
!		Музыка и слова - Е.Летов

>		  Em        Am    H           Em
		Хpабpое словечко чиpкнyло об лёд
>		   Em         Am       D         Am H
		Вспыхнyло сеpдечко, взвился пyлемёт
>		  Em       Am     D          Am H
		Хлынyли доpоги, дpогнyли мосты
>		 C   D     G C  Am    H      Em
		Погоди немного, отдохнёшь и ты.

		Слава моя, слава, звонкое яpмо
		Сочная канава, зоpкое бельмо
		Тpаypная пена, копоть воpонья
		Если бyдет смена, отдохнy и я.

		Поздняя yсталость на твоё плечо
		Сколько нам осталось, сколько нам ещё?
		Сколько нам пpостоpа, сколько седины?
		Сколько нам позоpа, сколько нам зимы?

!		(выше на 1 тон)

		Память моя, память, pасскажи о том,
		Как мы помиpали в небе голyбом
		Как мы дожидались, как не дождались,
		Как мы не сдавались, как мы не сдались.

!		(выше на 1 тон)

		Гоpе моё, гоpе, дождик поyтpy.
		Pадyга над полем, знамя на ветpy.
		Холода, тpевоги, пpаздники войны.
		Потеpпи немного, отдохнём и мы.
		Потеpпи немного, отдохнём и мы.

-

>		  F#m        Hm    C#           F#m
		Храброе словечко чиркнуло об лёд
>		   F#m         Hm       E         Hm C#
		Вспыхнуло сердечко, взвился пулемёт
>		  F#m       Hm     E          Hm C#
		Хлынули дороги, дрогнули мосты
>		 D   E     A D  Hm    C#      F#m
		Погоди немного, отдохнёшь и ты.

		Слава моя, слава, звонкое ярмо
		Сочная канава, зоркое бельмо
		Траурная пена, копоть воронья
		Если будет смена, отдохну и я.

		Поздняя усталость на твоё плечо
		Сколько нам осталось, сколько нам ещё?
		Сколько нам простора, сколько седины?
		Сколько нам позора, сколько нам зимы?

>		G#m        C#m      D#           G#m
		Память моя, память, расскажи о том,
>		G#m         C#m    F#        C#m D#
		Как мы помирали в небе голубом
>		G#m          C#m    F#           C#m D#
		Как мы дожидались, как не дождались,
>		E      F# H      E   C#m    D#      G#m
		Как мы не сдавались, как мы не сдались.

>		A#m       D#m      F        A#m
		Горе моё, горе, дождик поутру.
>		A#m         D#m    G#         D#m F
		Радуга над полем, знамя на ветру.
>		A#m         D#m    G#          D#m F
		Холода, тревоги, праздники войны.
>		F#   G#  C#  F#    D#m   F    A#m
		потерпи немного, отдохнём и мы.
>		F#   G#  C#  F#    D#m   F    A#m
		Потерпи немного, отдохнём и мы.

-

>		Em          Am          H     Em
		Храброе словечко чиркнуло об лед
>		Em           Am        D        Am H
		Вспыхнуло сердечко, взвился пулемет
>		Em        Am        D      Am H
		Хлынули дороги, дрогнули мосты
>		C    D     G C   Am H       Em
		Погоди немного, отдохнешь и ты.
		Слава моя, слава, звонкое ярмо
		Сочная канава, зоркое бельмо
		Траурная пена, копоть воронья
		Если будет смена, отдохну и я.
		Поздняя усталость на твое плечо
		Сколько нам осталось, сколько нам еще?
		Сколько нам простора, сколько седины?
		Сколько нам позора, сколько нам зимы
!		(выше на 1 тон)
		Память моя, память, расскажи о том,
		Как мы помирали в небе голубом
		Как мы дожидались, как не дождались,
		Как мы не сдавались, как мы не сдались.
!		(выше на 1 тон)
		Горе мое, горе, дождик поутру.
		Радуга над полем, знамя на ветру.
		Холода, тревоги, праздники войны.
		Потерпи немного, отдохнем и мы.
		Потерпи немного, отдохнем и мы.

		В начале было слово
>		G     F#    Hm      A         D
		Как везли бревно на семи лошадях,
		Сквозь игольное ушко,
		да за три-девять червивых земель,
		За снотворные туманы,
		за бродячие сухие леса,
		За дремучие селения,
		за кислые слепые дожди,
		За грибные водопады,
		за бездонные глухие поля,