Игра В Бисер Перед Свиньями (1986), Красный Альбом (1987)
		ДЕТСКИЙ МИР
!		Музыка и слова - Е.Летов

Вступление:	(<Hm G F#>) } 3 раза <E F#>

>		F#              E  F#
		Это было не со мной
>		             Hm  G
		Это было наугад
>		                  E  F#
		Кто разбил мое окно?
>		    Hm G
		Кто разбил мои очки?
		Очень трудно убегать
		С автоматом на плече
		С бумерангом в голове
		И мишенью на спине   <Hm G F#>

>		 F#      Hm  G
		Детский мир!
>		     F#      Hm  G F#  E F#
		Это детский мир!

		Кто-то лезет в мой окоп
		Весь кровавый и шальной
		Что бы ни произошло
		Он умрёт и без меня
		Если всё нарисовать
		Будет скользкое пятно
		Очень скользкое пятно
		Очень трудно не упасть

		Я стрельну себе в висок
		Потекёт веселый сок
		Если это повторить
		Будет вдвое веселей
		Когда нечего терять
		Можно долго протерпеть
		Можно весело смотреть
		И цветочки собирать

Аккорды:	<Hm> = [224432]
		<G>  = [355433]
		<F#> = [244322]
		<E>  = [022100]

-

>		Gm C             F   Dm
		Это было не со мной, это было наугад
>		                  Gm C                 F  Dm
		Кто разбил мое окно, кто разбил мои очки
>		                 Gm  C                   F  Dm
		Очень трудно убегать, с автоматом на плече
>		                    Gm C               Dm
		С бумерангом в голове и мишенью на спине

>		 A# A         Dm
		Детский мир
>		     A# A        Dm
		Это детский мир
		 <A#  A         Gm>-&#62;<A>
		Детский мир

		Кто-то лезет в мой окоп, вид кровавый и шальной
		Что бы ни произошло, он умрет и без меня
		Если все нарисовать, будет скользкое пятно
		Очень скользкое пятно, слишком сложно не упасть

		Детский мир
		Это детский мир
		Детский мир

		Я стрельну себе в висок, потекет веселый сок
		Если это повторить, будет вдвое веселей
		Когда нечего терять, можно долго протерпеть
		Можно весело смотреть и цветочки собирать

		Детский мир
		Это детский мир
		Детский мир