Мышеловка (1987)
		Иван Говнов
!		Музыка и слова - Е.Летов

>		E                G(III)   A(V)
		О, я боюсь - там Иван Говнов
>		E                G(III)   A(V)
		Иван Говнов убийца травы
>		E                G(III)   A(V)
		Иван Говнов - носитель штанов
>		E                G(III)   A(V)
		Иван Говнов говоритель хуйни

>		C(III)           A
		Он великий он герой
>		H
		Он по всюду он везде
>		C(III)           A
		Он толпою он горой
>		H
		На каждом шагу и в каждой пизде
>		E          G(III) A(V)
		Он Иван Говнов

		Но я люблю как Иван Говнов
		Иван Говнов народный герой
		Иван Говнов он всегда готов
		Иван Говнов покоритель "Хой"

		Он великий он герой
		Он по всюду он везде
		Он толпою он горой
		На каждом шагу и в каждой пизде
		Он Иван Говнов

		Но я тащусь от Иван Говнов
		Иван Говнов он Иван Говнов
		Мы Иван Говнов, ты Иван Говнов
		И все они тоже Иван Говнов

		Он великий он герой
		Он по всюду он везде
		Он толпою он горой
		На каждом шагу и в каждой пизде
		Он Иван Говнов

Примечание:	в скобках указан лад, на котором берётся аккорд