Прыг-Скок (Детские Песенки) (1990) (Егор и опизденевшие)
		Про червячков
!		Музыка и слова - Е.Летов

Вступление:	<Fm# G# Cm# Am Fm# G# Cm#> (рекомендую играть на 4х нижких струнах)

>		Cm#            E        Fm#
		Из груши выползал червячок
>		A       H            E G#
		А из подушки - сновиденье
>		  Cm#         E       Fm#
		На кухне хохотал дурачок
>		    A      H          E G#
		Смешав колбаску со слюною
>		  Cm#           E        Fm#
		Запуталась культя в рукаве
>		   A     H            E  G#
		Весна забылась в рукопашной
>		   Cm#           E          Fm#
		На цыпочках подкравшись к себе
>		A       H        E
		Я позвонил и убежал.

>		  A          E
		С вечера застолье
>		G#         Cm#
		Поутру похмелье
>		A               E
		Перец, соль, да сахар...
>		     Fm#    G#          Cm# A
		...А только вышло по-другому
>		Fm#   G#         Cm#
		Вышло вовсе и не так.

		Из груши выползал червячок
		А из кармана - безобразие
		На лавочке молчал старичок
		Собой являя запредельность
		Местами возникали толчки
		А в целом было превосходно
		По-прежнему ползли червячки
		Лишь холмик на кладбище просел.

		Небо цвета мяса
		Мясо вкуса неба
		Перец, соль, да сахар...
		...Да только вышло по-другому
		Вышло вовсе и не так!

-

>		  Am          G        Dm
		Из груши выползал червячок,
>		   F       G          C E
		А из подушки - сновиденье.
>		Am            G        Dm
		На кухне хохотал дурачок
>		   F       G          C E
		Смешав колбаску со слюною.
>		  Am          G        Dm
		Запуталась культя в рукаве,
>		   F       G          C E
		Весна забылась в рукопашной.
>		  Am          G        Dm
		На цыпочках подкравшись к себе
>		F       G        C
		Я позвонил и убежал.

>		  F          C
		С вечера - застолье,
>		 G          Am
		Поутру - похмелье.
>		 F               C
		Перец, соль, да сахар,
>		     Dm      E          Am F
		Да только вышло по-другому
>		Dm    E          Am
		Вышло вовсе и не так.

		Из груши выползал червячок,
		А из кармана - безобразие.
		На лавочке молчал старичок
		Собой являя запредельность.
		Местами возникали толчки,
		А в целом было превосходно.
		По-прежнему ползли червячки,
		Лишь холмик на кладбище просел.

		Небо - цвета мяса,
		Мясо - вкуса неба.
		Перец, соль, да сахар,
		Да только вышло по-другому
		Вышло вовсе и не так!