Инструкция по выживанию
		Хуй

Автор:		Роман Неумоев/Мирослав Немиров

>		 Hm                            D
		Ну вот, ну вот, ну вот сейчас встанет
		Ну вот, ну вот, ну вот сейчас встанет
		Ну вот, ну вот, ну вот сейчас встанет
>		 C#
		Передо мною, как раб, на колени
>		 Fm# A  Fm# A      Fm# A  Fm# A
		Мой хуй - бледный как Ленин
		Мой хуй - железный как Сталин
>		 Hm   D  Hm D      Hm D  Hm D
		Мой хуй - бледный как Ленин
>		 Fm# A  Fm# A      Fm# A  Fm# A
		Мой хуй - железный как Сталин

		Мой хуй встанет как Сталин