
		Что бы было тише

>		Em           C  D
		Что бы было тише
>		    G       Am          H        Em
		Наждачною бумагой приласкайте сердца
>		Em            C   D
		Что бы стало больше
>		G          Am          H        Em
		Ежевой рукавицей проповедуйте любовь
>		Am                          G
		Закрыв лицо ладошкой притворившись безымянным
>		     C                      D         Am
		Позабыв вчера и завтра терпиливо постигат
>		G         Am      H       Em
		Веселую науку дорогого бытия

		Что бы стало чище
		Наденьте всем счастливым по терновому венку
		Что бы стало проще
		Свалите всех нас кучей в некий новый бабий яр
		Закрыв лицо ладошкой притворившись безымянным
		Позабыв вчера и завтра терпиливо постигать
		Веселую науку дорогого бытия