Красный альбом
		Чёрный понедельник
Автор:		Егор Летов

Вступление:	<Fm# Hm A C#>

>		A  H    D      C#    Fm#
		О-о-о — я был безразличен.
		О-о-о — я был безграничен.
		О-о-о — я был озабочен.
		О-о-о — я был позвоночен.

>		  A         E         D          E
		Спойте мне тело, в котором нет слов.
		Спойте мне слово, в котором нет мяса.
>		   Fm#       Hm         A      C#
		Здравствуй, чёрный понедельник.

		О-о-о — я был неопознан.
		О-о-о — я был неосознан.
		О-о-о — я был обезличен.
		О-о-о — я был параличен.

		О-о-о — дайте мне подумать.
		О-о-о — дайте мне потрогать.
		О-о-о — дайте мне попрыгать.
		О-о-о — дайте мне поплакать...