Оптимизм (1985)
		Я БЛЮЮ НА ВАШИ ДЕЛА
!		Музыка - Е. Летов, слова - Е. Летов, К. Рябинов, А. Бабенко

>		C
		Кто-то сопит
>		  Am
		Кто-то воняет
>		        F             G
		Кто-то моет кожу чемодана свово
>		     С            Am
		Я блюю на ваши дела
>		     F            G
		Я блюю на ваши дела

		Кто-то пыхтит
		Кто-то рыгает
		Кто-то обнимает юные тела
		Я блюю на ваши дела

		Кто-то звенит
		Кто-то рыдает
		Кто-то вспоминает дедов и отцов
		Я блюю на ваши дела

		Кто-то совсем
		Кто-то почти что
		Кто-то еле-еле
		Кто-то просто ваще!
		Я блюю на ваши дела