2001 - Как в старой сказке
		Гимн шута

Вступление:	<A | F#m | D | E>

>		A
		Терпеньем я не наделен,
>		          E                 D
		И мне все лучше, да мне все лучше.
>		      F#m Hm     F#m  Hm
		Я удивлен, я удивлен.
>		A
		Судьба, в которую влюблен,
>		         E              D
		Дает мне право смеяться даже
>		        F#m E        Hm   E 
		Над королем, над королем.
>		  D          E  D              E
		   Стать дураком мне здесь пришлось
>		  D       A             E
		   Хотя я вижу всех насквозь.

Припев:		<A>
		Искренне прошу,
>		F#m
		Смейтесь надо мной,
>		D        E
		Если это вам поможет.
		Да, я с виду шут,
		Но в душе король,
		И никто как я не может.

		Эй вы, придворная толпа,
		Я вас не вижу, я вас не слышу.
		Я отрешен, я отрешен.
		Меня готовы как клопа
		Топтать ногами, и это значит -
		Мой час пришел, мой час пришел.

		Открою вам один секрет:
		Вельмож, к несчастью, честных нет.

!		Припев } 2 раза

		Я всех высмеивать вокруг
		Имею право, и моя слава
		Всегда со мной, всегда со мной.
		Пускай все чаще угрожают
		Мне расправой, но я и в драке
		Хорош собой, хорош собой.

		Как, голова, ты горяча,
		Не стань трофеем палача!

!		Припев } 2 раза

-

!		Соло на басу вначале:
		D-|----2---2-----2-2-2-0-2-2-0-------2-----
		A-|--------------------------------2-------
		E-|0-0---0---0-0---------------0-4---------

Вступление:	H-|-------------------------------0--------
		G-|2---------------------------2----1------
		D-|--4-2---2--4-2------------2--------4-2--
		A-|------4--------4-0-4--0-4---------------

		H-|-------------------------------0-----0--
		G-|2---------------------------2----1------
		D-|--4-2---2--4-2------------2--------4----
		A-|------4--------4-0-4--0-4---------------

		E-|----------------------0-----------------
		H-|2-2-2-0-2--2-2-2-0-2----3-2-3--2-0------
		G-|-----------------------------------2-1--

		E-|----------------------0-----------------
		H-|2-2-2-0-2--2-2-2-0-2----3-2-3--2-0-----2
		G-|-----------------------------------2-1--

>		A
		 Терпеньем я не наделен,
>		           E                 D
		 И мне все лучше, да мне все лучше,
>		       A    D
		 Я удивлен!
>		       A    D
		 Я удивлен!

>		A
		 Судьба, в которую влюблен,
>		            E             D
		 Дает мне право, смеяться даже
>		         A    D
		 Над королем!
>		         A    E
		 Над королем!

>		D          A
		 Стать дураком
>		D              A
		 Мне сдесь пришлось,
>		D        A             E
		 Хотя я вижу всех насквозь.

>		 A             F#m
Припев:		Искрене прошу, смейтесь надо мной,
>		 D         E
		Если это вам поможет.
>		 A               F#m
		Да я с виду шут, но в душе король,
>		 D          E
		И никто как я не может.

		Эй, вы, придворная толпа
		Я вас не вижу, я вас не слышу,
		Я отрешен!
		Я отрешен!

		Меня готовы, как клопа,
		Топтать ногами, и это значит
		Мой час пришел!
		Мой час пришел!

		Открою вам
		Один секрет
		Вельмож к несчастью честных нет.

!		Припев

		Я всех высмеевать вокруг
		Имею право, и моя слава
		Всегда со мной!
		Всегда со мной!

		Пускай все чаще угрожают
		Мне расправой, но я в драках
		Хорош собой!
		Хорош собой!

		Как голова
		Ты горяча,
		Не стань трофеем палача.

!		Припев } 2 раза

Концовка:	E-|--0----------0----------------------------
		H-|----3-232------3-232----3-2-020----3-2-020 } 6 раз
		G-|2----------2------------------------------
		D-|----------------------2----------2--------

-

Вступление:	<(G)  C Am F G>  4 раза <(C)>

		<C                                 G>
(1)		Терпеньем я не наделен, и мне все лучше
		<F>
		Да, мне все лучше
		<Am  Dm>
		Я удивлен
		<Am  Dm>
		Я удивлен
		<C                                    G>
		Судьба, в которую влюблен, дает мне право
		<F>
		Смеяться даже
		<Am  G>
		Hад королем
		<D  G>
		Hад королем
		<F         G   F             G>
		Стать дураком  мне здесь пришлось
		<F      C             G>
		Хотя я вижу всех насквозь

		<C                 Am>
Припев:		Искренне прошу - смейтесь надо мной
		<F        G>
		Если это вам поможет
		<C                 Am>
		Да, я с виду шут, но в душе король
		<F         G            C>
		Hикто, как я не может...

(2)		Эй вы, придворная толпа, я вас не вижу
		Я вас не слышу
		Я отрешен
		Я отрешен
		Меня готовы как клопа топтать ногами
		И это значит
		Мой час пришел
		Мой час пришел
		Открою вам один секрет
		Вельмож, к несчастью, честных нет

Припев:		2 раза

(3)		Я всех высмеивать вокруг имею право
		И моя слава
		Всегда со мной
		Всегда со мной
		Пускай все чаще угрожают мне расправой
		Hо я и в драке
		Хорош собой
		Хорош собой
		Как, голова, ты горяча!
		Hе стань трофеем палача

Припев:		 2 раза