1996 - Король и Шут, 1999 - Ели мясо мужики, 2000 - Будь как дома, Путник
		Лесник

>		      Am                              F
		 |
		[E|-----------------------------------------------------------------|  |
		H|-------------5-5-------------5-5---------8-8-6-6---------8-8-6-6-|  |
		G|-----5-5-7-7---------5-5-7-7---------5-5-------------5-5---------|  |
		D|-7-7-------------7-7-------------7-7-------------7-7-------------|  |
		A|-----------------------------------------------------------------|  |
		E|-----------------------------------------------------------------|  | } 2 раза

		   <Dm                              G>                                  |
		E|-----------------------------------------------------------------|  |
		H|-8-8-6-6-5-5-----8-8-6-6-5-5-------------------------------------|  |
		G|-------------7-7-------------7-7-----4-4-5-5-7-7-----4-4-5-5-7-7-|  |
		D|---------------------------------5-5-------------5-5-------------|  |
		A|-----------------------------------------------------------------|  |
		E|-----------------------------------------------------------------|  |

		   <Am                              F>                                  |
		E|-----------------------------------------------------------------|  |
		H|-------------5---------------5-----------8---6-----------8---6---|  |
		G|-----5---7------------5--7-----------5----------------5----------|  |
		D|-7---------------7--7------------7---------------7--7------------|  |
		A|-----------------------------------------------------------------|  |
		E|-----------------------------------------------------------------|  | } 2 раза

		   <Dm                              G>                                  |
		E|-----------------------------------------------------------------|  |
		H|-8---6---5-------8--8-6--5---------------------------------------|  |
		G|-------------7---------------7-------4---5---7--------4--5---7---|  |
		D|---------------------------------5---------------5--5------------|  |
		A|-----------------------------------------------------------------|  |
		E|-----------------------------------------------------------------|  |]

>		     Am                 F          G
		Замyченный доpогой я выбился из сил,
>		       Am                F         G
		И в доме лесника я ночлега попpосил.
>		      Am                    F            G
		С yлыбкой добpодyшной стаpик меня впyстил
!		     <Am>                                    (<Dm>, <Em>, <G>)
		И жестом дpyжелюбным на yжин пpигласил.
>		      Am                            F
		"Бyдь как дома, пyтник, я ни в чём не откажy,
>		            Dm                    G
		Я ни в чём не откажy, я ни в чём не откажy.
>		      Am                       F
		Множество истоpий, коль желаешь, pасскажy,
>		            Dm                      G
		Коль желаешь, pасскажy, коль желаешь, pасскажy".
		Hа yлице темнело, сидел я за столом,
		лесник сидел напpотив, болтал о том, о сём:
		Что нет сpеди животных y стаpика вpагов,
		Что нpавится емy подкаpмливать волков.
		"Бyдь как дома, пyтник, я ни в чём не откажy,
		Я ни в чём не откажy, я ни в чём не откажy.
		Множество истоpий, коль желаешь, pасскажy,
		Коль желаешь, pасскажy, коль желаешь, pасскажy".
>		     Hm                 G          A
		И волки сpеди ночи завыли под окном,
>		      Hm                 G           A
		Стаpик заyлыбался и вдpyг покинyл дом,
>		        Hm                    G         A
		Hо вскоpе возвpатился с pyжьём напеpевес:
>		        Hm
		"Дpyзья хотят покyшать... Пойдём, пpиятель, в лес..."
>		      Hm                            G
		"Бyдь как дома, пyтник, я ни в чём не откажy,
>		            Em                    A
		Я ни в чём не откажy, я ни в чём не откажy.
>		      Hm                       G
		Множество истоpий, коль желаешь, pасскажy,
>		            Em                      A
		Коль желаешь, pасскажy, коль желаешь, pасскажy".
>		     Am                          F               G
		[E|-----------------------------------------------------------|
		H|-----------------------------------------------------------|
		G|----9-9-10--9-----9-9-10--9-----------7----------7-7-9--7--| } 2 раза
		D|-7-------------7----------------10-10----10----------------|
		A|-----------------------------8---------------10------------|
		E|-----------------------------------------------------------|]

-

>		   Am                  F          G
		Измученный дорогой, я выбился из сил
>		     Am                F         G
		И в доме лесника я ночлега попросил
		С улыбкой добродушной он меня впустил
		И жестом дружелюбным на ужин пригласил

>		 Am                            F
Припев:		Будь как дома, путник, я не в чем не откажу
>		        Dm                    G
		Я ни в чем не откажу, я ни в чем не откажу
>		         Am                         F
		Множество историй, коль желаешь, расскажу
>		                Dm                      G
		Коль желаешь, расскажу, коль желаешь, расскажу

		На улице темнело, сидел я за столом
		Лесник сидел напротив, болтал о том, о сем
		Что нет среди животных у старика врагов
		Что нравится ему подкармливать волков

!		Припев

		И волки среди ночи завыли под окном
		Старик заулыбался и вдруг покинул дом
		Но вскоре возвратился с ружьем наперевес:
		"Друзья хотят покушать, пойдем, приятель, в лес!"

!		Припев

-

>		  Am                  F          G
		Измученный дорогой, я выбился из сил.
>		    Am                F         G
		И в доме лесника я ночлега попросил.
		С улыбкой добродушной он меня в пустил.
>		  Am
		И жестом дружелюбным на ужин пригласил.

>		 Am                            F
Припев:		Будь как дома, путник, я не в чем не откажу,
>		        Dm                    G
		Я ни в чем не откажу, я ни в чем не откажу!
>		         Am                         F
		Множество историй, коль желаешь, расскажу,
>		                Dm                      G
		Коль желаешь, расскажу, коль желаешь, расскажу!

		На улице темнело, сидел я за столом.
		Лесник сидел напротив, болтал о том, о сем.
		Что нет среди животных у старика врагов,
		Что нравится ему подкармливать волков.

!		Припев

		И волки среди ночи завыли под окном.
		Старик заулыбался и вдруг покинул дом.
		Но вскоре возвратился с ружьем наперевес:
		"Друзья хотят покушать, пойдем, приятель, в лес!"

!		Припев

-

>		    Am                              F
Вступление:	2) -------------5-5-------------5-5---------8-8-6-6---------8-8-6-6- \
		3) -----5-5-7-7---------5-5-7-7---------5-5-------------5-5---------  \
		4) -7-7-------------7-7-------------7-7-------------7-7-------------   \
		                                                                        \ 2 раза
>		    Dm                              G                                   /
		2) -8-8-6-6-5-5-----8-8-6-6-5-5-------------------------------------   /
		3) -------------7-7-------------7-7-----4-4-5-5-7-7-----4-4-5-5-7-7-  /
		4) ---------------------------------5-5-------------5-5------------- /

>		    Am                              F
		2) -------------5---------------5-----------8---6-----------8---6--- \
		3) -----5---7------------5--7-----------5----------------5----------  \
		4) -7---------------7--7------------7---------------7--7------------   \
		                                                                        \ 2 раза
>		    Dm                              G                                   /
		2) -8---6---5-------8--8-6--5---------------------------------------   /
		3) -------------7---------------7-------4---5---7--------4--5---7---  /
		4) ---------------------------------5---------------5--5------------ /

Проигрыш:	|<Am>|<F>|<Em>-<Dm>-<Dm>-<C>-<Dm>|<G>| } 2 раза

>		  Am                 F          G
(1)		Замученный доpогой я выбился из сил,
>		    Am                F         G
		И в доме лесника я ночлега попpосил.
>		   Am                    F            G
		С улыбкой добpодушной стаpик меня впустил
>		  Am                                    Dm Em G
		И жестом дpужелюбным на ужин пpигласил.

>		 Am                            F
Припев:		"Будь как дома, путник, я ни в чём не откажу,
>		       Dm                    G
		Я ни в чём не откажу, я ни в чём не откажу.
>		 Am                       F
		Множество истоpий, коль желаешь, pасскажу,
>		       Dm                      G
		Коль желаешь, pасскажу, коль желаешь, pасскажу".

Проигрыш:	|<MAm>|<F>-<G>-<C>| } 2 раза

(2)		Hа улице темнело, сидел я за столом,
		Лесник сидел напpотив, болтал о том, о сём:
		Что нет сpеди животных у стаpика вpагов,
		Что нpавится ему подкаpмливать волков.

!		Припев

>		  Hm                 G          A
(3)		И волки сpеди ночи завыли под окном,
>		   Hm                 G           A
		Стаpик заулыбался и вдpуг покинул дом,
>		     Hm                     G        A
		Hо вскоpе возвpатился с pужьём напеpевес:
>		      Hm                                              Em F#m A
		"Дpузья хотят покушать... Пойдём, пpиятель, в лес..."

>		 Hm                            G
Припев:		"Будь как дома, путник, я ни в чём не откажу,
>		       Em                    A
		Я ни в чём не откажу, я ни в чём не откажу.
>		 Hm                       G
		Множество истоpий, коль желаешь, pасскажу,
>		       Em                      A
		Коль желаешь, pасскажу, коль желаешь, pасскажу".

>		    Am                          F               G
Концовка:	3) ----9-9-10--9-----9-9-10--9-----------7----------7-7-9--7- \
		4) -7-------------7----------------10-10----10---------------  } 2 раза
		5) -----------------------------8---------------10----------- /

-

>		 Hm                   G          A
		Замученный дорогой я выбился из сил
>		     Hm                G         A
		И в доме лесника я ночлега попросил
>		    Hm                    G            A
		С улыбкой добродушной старик меня впустил
>		   Hm                                  G A
		И жестом дружелюбным на ужин пригласил эй!

>		Hm                             G
Припев:		Будь как дома путник и я ни в чём не откажу
>		        Em
		Я ни в чём не откажу
>		        A
		Я ни в чём ни откажу Хей!
>		  Hm                      G
		Множество историй коль желаешь расскажу
>		        Em
		Коль желаешь расскажу
>		        A
		Коль желаешь расскажу

		На улице темнело сидел я за столом
		Лесник сидел напротив болтал о том о сём
		Что нет среди животных у старика врагов
		Что нравиться ему-у подкармливать волков

!		Припев

		И волки среди ночи завыли под окном
		Старик заулыбался и решил покинуть дом
		Но вскоре возратился с ружьём на перевес
		Друзья хотят покушать пойдём Б:-)ть в лес!

!		Припев

-

>		A5                  F5          G5
		Измученный дорогой, я выбился из сил.
>		    A5                F5         G5
		И в доме лесника я ночлега попросил.
		С улыбкой добродушной он меня в пустил.
>		  A5(dist on)                         Fill2
		И жестом дружелюбным на ужин пригласил.

Chorus:		(Riff2A)
>		 A5                            F5
		Будь как дома, путник, я не в чем не откажу,
>		        D5                    G5
		Я ни в чем не откажу, я ни в чем не откажу!
>		         A5                         F5
		Множество историй, коль желаешь, расскажу,
>		                D5                      G5     Fill3
		Коль желаешь, расскажу, коль желаешь, расскажу!

		На улице темнело, сидел я за столом.
		Лесник сидел напротив, болтал о том, о сем.
		Что нет среди животных у старика врагов,
		Что нравится ему подкармливать волков.

!		Chorus

		И волки среди ночи завыли под окном
		Старик заулыбался и вдруг покинул дом,
		Но вскоре возвратился с ружьем на перевес
		Друзья хотят покушать пойдем приятель в лес!

!		Chorus + End

End:		1)-------------------------------------------
		2)-------------------------------------------
		3)-------------------------------------------
		4)------------------------------------------- } 2 раза
		5)----7-7-8-7---7-7-8-7---3-3-5-3---5-5-7-5--
		6)--5---------5---------1---------3----------