1996 - Король и Шут, 1999 - Ели мясо мужики, 2000 - Будь как дома, Путник
		Охотник

>		A5
		Темнело за окном, наступала ночь
		За кухонным столом сидели мужики
>		      F5
		весь вечер непрерывно бил по крыше дождь
>		  D5
		И гром гремел ужасно где-то у реки

>		Am
		Темнело за окном, наступала ночь
		За кухонным столом сидели мужики
>		     F
		весь вечер непрерывно бил по крыше дождь
>		    Dm
		И гром гремел ужасно где-то у реки
>		Am
		А в доме шло веселье и гульба
		Hикто еще не знал, что в зтот миг
>		  F 
		Охотник Себастьян, что спал на чердаке
>		        Dm
		вдруг почернел лицом, стал дряхлым как старик
>		    Dm F Am

Припев:		Охотник } 4 раза <Am>

		1)---5--5--5--5------------------------------------------
		2)---5--5--5--5------------------------------------------
		3)---5--5--5--5------------------------------------------
		4)---7--7--7--7--7--5--7--5--7--5------------------------
		5)---7--7--7--7------------------------------------------
		6)---5--5--5--7------------------------------------------

		Закончилась гроза и дождь прошел
		Hа небе появилась полная луна
		И повалил во двор подвыпивший народ
		Смеются мужики, кричат-им не до сна
		Hо вдруг из темноты раздался рев
		Затем с петель слетела в доме дверь
		За шумною толпой
		Бежал огромный страшный зверь

!		Припев

		С зарей запели петухи
		И хвойный лес зашелестел
		А в поле у реки
		чежало пять кровавых тел
		Проснувшись дома на полу
		Охотник в зеркало взглянул
		"О, как я сладко спал!"
		Себе со смехом он сказал

-

Вступление:	|<Cm#>|

>		Cm#
(1)		Темнело за окном, наступала ночь.
		За кухонным столом сидели мужики.
>		     A
		Весь вечер беспрерывно бил по крыше дождь,
>		  Fm#
		И гром гремел ужасно где-то у реки.

Проигрыш:	|<Cm#>|<Cm#>|

(2)		Темнело за окном, наступала ночь.
		За кухонным столом сидели мужики.
		Весь вечер беспрерывно бил по крыше дождь,
		И гром гремел ужасно где-то у реки.
		А в доме шло веселье и гульба,
		Ещё никто не знал, что в этот миг
		Охотник Себастьен, что спал на чердаке,
		Вдруг почернел лицом, стал дряхлый, как старик.

>		Cm#    A  H
Припев:		Эй... Охотник... } 3 раза
>		Fm# G#

Проигрыш:	|<Cm#>|<Cm#>|

(3)		Закончилась гроза и дождь прошёл,
		Hа небе появилась полная луна.
		И повалил во двор подвыпивший народ,
		Смеются мужики, кричат, им не до сна.
		Hо вдруг из темноты раздался рёв,
		Затем с петель слетела в доме дверь.
		За шумною толпой
		Бежал огромный страшный зверь.

!		Припев

!		Проигрыш

(4)		С зарёй запели петухи,
		И хвойный лес зашелестел.
		А в поле у реки
		Лежало пять кровавых тел.
		Проснувшись дома на полу,
		Охотник в зеркало взглянул.
		"О, как я сладко спал!" -
		Себе со смехом он сказал.

!		Припев

-

АппликатурА:	<    Cm#    A    Fm#   G7#    B    Em>
		[e |--4-- --5-- --2-- --4-- --7-- --7--
		H |--5-- --5-- --2-- --4-- --7-- --8--
		G |--6-- --6-- --2-- --5-- --8-- --9--
		D |--6-- --7-- --4-- --4-- --9-- --9--
		A |--4-- --7-- --4-- --6-- --9-- --7--
		E |--4-- --5-- --2-- --4-- --7-- --7--]

!		-==Вот что получилось==-

Intro:		<    Cm#>
		[ P.M.-------------------------¬
		e |----------------------|-----||
		H |----------------------|-----||
		G |--6-6--6-6--6-6--6-6--|--%--||
		D |--6-6--6-6--6-6--6-6--|-----||
		A |--4-4--4-4--4-4--4-4--|-----||
		E |----------------------|-----||]

Verse:		<     Cm#>
		[ P.M.-------------------------¬
		e |----------------------|-----||
		H |----------------------|-----||
		G |--6----6----6----6----|--%--||
		D |--6-6--6-6--6-6--6-6--|-----||
		A |--4-4--4-4--4-4--4-4--|-----||
		E |---(4)--(4)--(4)--(4)-|-----||]

>		   Cm#
		Темнело за окном, наступала ночь.
		За кухонным столом сидели мужики.
>		      A^
		Весь вечер беспрерывно бил по крыше дождь,
>		   Fm#
		И гром гремел ужасно где-то у реки.
		(Это можно играть с глушением, выделив неприглушённым акцентом <А>)

>		    Cm#^
		[e |-------------------------------------------------------||
		H |-------------------------------------------------------||
		G |--6.-(6)-(4)-6b(1/2)-6-6b(1/2)-6-6b(1/2)-6-6b(1/2)-6--•||
		D |--6.--------------------------------------------------•||
		A |--4.---------------------------------------------------||
		E |-------------------------------------------------------||]
		   У-А-А-А!!!

!		6b(1/2) - это я так обозначил бэнд (подтяжка на полтона вверх)

>		   Cm#
(1)		Темнело за окном, наступала ночь.
		За кухонным столом сидели мужики.
>		      A
		Весь вечер беспрерывно бил по крыше дождь,
>		   Fm#
		И гром гремел ужасно где-то у реки.
>		    Cm#
		А в доме шло веселье и гульба,
		Ещё никто не знал, что в этот миг
>		  A
		Охотник Себастьян, что спал на чердаке,
>		      Fm#
		Вдруг почернел лицом, стал дряхлый, как старик.

Припев:		<    Cm#   A   B>
		[e |--------------|
		H |--------------|
		G |--6.----------|
		D |--6.---7---9--| } 2 раза
		A |--4.---7---9--|
		E |-------5---7--|]
		     О - хот-ник

>		    Cm#   A   B    Fm#  G7#^
		[e |--------------|-----------|
		H |--------------|-----------|
		G |--6.----------|------/5---|
		D |--6.---7---9--|--4.--/4---|
		A |--4.---7---9--|--4.--/6---|
		E |-------5---7--|--2.-/(4)--|]
		     О - хот-ник

>		    Cm#^
		[e |-------------------------------------------------------||
		H |-------------------------------------------------------||
		G |--6.-(6)-(4)-6b(1/2)-6-6b(1/2)-6-6b(1/2)-6-6b(1/2)-6--•||
		D |--6.--------------------------------------------------•||
		A |--4.---------------------------------------------------||
		E |-------------------------------------------------------||]
		Охотник Себастьян!!

>		  Cm#
(2)		Закончилась гроза и дождь прошёл,
		На небе появилась полная луна.
>		   A
		И повалил во двор подвыпивший народ,
>		   Fm#
		Смеются мужики, кричат, им не до сна.
>		     Cm#
		Но вдруг из темноты раздался рёв,
		Затем с петель слетела в доме дверь.
>		    A
		За шумною толпой
>		  Fm#
		Бежал огромный страшный зверь.

Припев:		<    Cm#   A   B>
		[e |--------------|
		H |--------------|
		G |--6.----------|
		D |--6.---7---9--| } 2 раза
		A |--4.---7---9--|
		E |-------5---7--|]
		     О - хот-ник

>		    Cm#   A   B    Fm#  G7#^
		[e |--------------|-----------|
		H |--------------|-----------|
		G |--6.----------|------/5---|
		D |--6.---7---9--|--4.--/4---|
		A |--4.---7---9--|--4.--/6---|
		E |-------5---7--|--2.-/(4)--|]
		     О - хот-ник

Проигрыш:	<   Cm#^>
		[       P.M----¬
		e |-------------------|---------------------------------4^------||
		H |-------------5.----|--------------4(h)5-4(h)5.---5------7-5--||
		G |--6-6----4-6----6--|--------4(h)6--------------6---6---------||
		D |--6-6--6-----------|--4(h)6----------------------------------||
		A |--4-4--------------|-----------------------------------------||
		E |-------------------|-----------------------------------------||]
		Охотник Себастьян!!

		[e |------4^----(/)9-7------------------------------------------|
		H |--5----------------9-7.~~(7)-----7-9.~~(9)-----7-9-----7----|
		G |----6----6.------------------8-9-----------8-9-----8-9---8--|
		D |------------------------------------------------------------|
		A |------------------------------------------------------------|
		E |------------------------------------------------------------|

		e |--7h9-9-9--7h9-9-9--7h9-9-9--7h9-9-9----------------------------|
		H |----------------------------------------------------------------|
		G |-------------------------------------8h9-9-9--8h9-9-9--8h9-9-9--|
		D |----------------------------------------------------------------|
		A |----------------------------------------------------------------|
		E |----------------------------------------------------------------|

		e |-----------------------------------------||
		H |-----------------------------------------||
		G |--8h9-9/4.~~-4-2-4-4.~~-4-2-4-4/6.~~~~~--||
		D |-----------------------------------------||
		A |-----------------------------------------||
		E |-----------------------------------------||]

!		(можно от проигрыша к куплету перейти скребком:)
!		               R A K E
		[e |------------------------...|
		H |------------------------...|
		G |--6.~~~~~-----------/6--...|
		D |--------------------/6--...|
		A |--------------------/4--...|
		E |------------------------...|]
		конец проигрыша... С зарёй ...

>		    Cm#
		С зарёй запели петухи,
		И хвойный лес зашелестел.
>		     A
		А в поле у реки
>		  Fm#
		Лежало пять кровавых тел.
>		    Cm#
		Проснувшись дома не полу,
		Охотник в зеркало взглянул.
>		     A
		"О, как я сладко спал!" -
>		  Fm#
		Себе со смехом он сказал.

CODA:		<    Cm#   A   B>
		[e |--------------||
		H |--------------||
		G |--6.----------||
		D |--6.---7---9--|| } 4 раза
		A |--4.---7---9--||
		E |-------5---7--||]
		     О - хот-ник

>		    Cm#^               Em Fm#   Cm#^
		[e |----------------------------|-------||
		H |-------x-x-x-x-x------------|-------||
		G |--6-6--x-x-x-x-x--6-/9-/2.-•|--6-6--||
		D |--6-6--x-x-x-x-x--6-/9-/4.-•|--6-6--||
		A |--4-4--x-x-x-x-x--4-/7-/4.--|--4-4--||
		E |----------------------------|-------||]

!		крестики - это перкуссия (постукивание по полуприжатым струнам)

Verse:		<    Cm#   A   B>
		[e |--------------||
		H |--------------||
		G |--6.----------||
		D |--6.---7---9--|| } 4 раза
		A |--4.---7---9--||
		E |-------5---7--||]
		     О - хот-ник

		Охотник
		Охотник
		Охотник
		Охотник

!		Ритм - тот же
!		Соло-гитара (плавно и на большом перегрузе):

		[e |-------------------|
		H |-------------------|
		G |-------------------| } 4 раза
		D |------6------------|
		A |--4-7---------7-6--|
		E |--------4-5-7------|]
		     о  -   хот-ник

>		    Cm#^
		[e |-------||
		H |-------||
		G |--6-6--||
		D |--6-6--||
		A |--4-4--||
		E |-------||]