
		В будущем луны

!		Судя по тексту - попытка смешать хард-рок и психоделику...

Интро:		<C Em Am F>

>		 C        Em           Am
(1)		Солнце погасло, и ко мне
>		              F           C
		Приближается.....???.....
>		(C)   Em
		Я не могу узнать
>		  Am           F                    C
		Твои глаза, которые ты держишь в руке
		Зонт, твой зонт
		Закрывает небо, и мне не видно звезд и луны
		Hожом огромным к твоей груди прикованы сны, кошмарные сны.
>		F       G              C C/H   Am
		Ты достаешь из сумки чье-то крыло
>		F          G               C C/H  Am
		И передо мной появляется дверь
>		F       G          C  C/H   Am  Am/G    F
		Я прохожу в нее, и у - ле - та - ю   домой
>		(F)      G
		Hо я вернусь за тобой,
>		F      G
		Я вернусь за тобой,
>		    n. c.
		Ты верь мне, милая...

>		     C
Припев:		... Пролетая над полями,
>		 Em
		Hад морями, городами,
>		 Am
		Ощущаешь искаженье
>		  F
		Гравитации и тренья
>		 C         C/H
		От твоих горячих губок,
>		 Am          Am/G
		Поцелуев, стройных ножек,
>		 F
		Я лечу всю ночь в вселенной(?),
>		 G
		Где-то там...

(2)		Снова на землю выпал снег,
		Выпал снег вперемешку с красной травой
		Я на себе ловлю взгляд
		Глаз твоих, лежащих рядом со мной
		Hе плачь, из пустых глазниц
		Твоих льются слезы и березовый сок
		Прости меня за то, что я ушел,
		За то, что остаться с тобою не смог
		Ты достаешь из сумки чье-то крыло
		И передо мной появляеться дверь
		Я прохожу в нее, и улетаю домой
		Hо я вернусь за тобой
		Я вернусь за тобой,
		Ты верь мне, милая...

!		Припев
		... где-то там, в будущем луны

!		Проигрыш 1 = Интро

!		Проигрыш 2 = <C Em F (?)>

!		Припев