
		Художник

Вступление:	<|G|D/F#|Em|Em|G(?)|C|D|D|>

		<Am      Hm         D              Em>
(1)		Я работаю ночами в неком царстве грез
		<Am         Hm           C         D>
		Под ногами вечно кружит полоумный пес
		<Am       Hm       D           Em>
		Мои руки и одежда радужных цветов
		<Am          C            D>
		Я художник, мой шедевр готов

		            <G             C              Am             D>
Припев:		Hа стене картина-на-на-на-на-на на-на-на-на на-на-на-на-на
		               <G          C              Am             D>
		А на картине льдина-на-на-на-на на-на-на-на на-на-на-на-на
		     <C    D   G>
		Hа льдине рыбаки
		   <C    D     Em>
		Умирают от тоски
		               <Am             C              D>
		Hа-на-на-на-на на-на на-на-на-на-на на-на-на-на-a-a
		Такие вот дела

(2)		Я работаю ночами в душной мастерской
		И в работу погружаюсь с головой и всей душой
		Иногда друзья приходят и приводят дам
		И тогда мой дом походит на вертеп и балаган

!		Припев

(3)		Я поэт, художник, гений и талант
		Вместо галстука ношу огромный красный бант
		Мой шедевр признан всеми, и весь шар земной
		Hа колени встал передо мной

!		Припев
