
		Одинокое шоссе

>		Em          Am
		Одинокое шоссе,
>		Em              Am
		Соль обиды на лице,
>		D                 G
		Кто рассыпал фонари
>		C                H7
		По причалам до зари.

		Никому ненужный хлам,
		Мы делили пополам,
		Капли света в два ручья,
		Время вышло - я ничья.

>		         Em  Am         G
Припев:		А по глазам, синим глазам
>		H7       Em   Am      G  H7
		Вьется дорога на восход,
>		           Em    Am         G
		Отпустит в даль, бросит назад,
>		H7     Em  Am    G  H7
		Это уж как повезет.

		Мне б гореть, да здесь вода,
		Не привыкну - не беда,
		Капли света в два ручья
		Все окончено - ничья.

!		Припев