
		Падать

>		Dm           Em
		Шепчется город
>		Dm            Em
		С пасмурным небом,
>		Am          G
		Наглухо занят
>		F
		Твой телефон

		Буду курить
		И закусывать хлебом
		Пялясь в прихожей
		На пыльный плафон

Припев:		<Am            Em>
		И опережая лето,
>		Am                Em
		Плавали и ждали ветра,
>		Dm               Em
		Плавали искали сушу
>		Dm           Em
		Слушай, слушай...

		Умер телефон в кармане
		Напишу записку маме,
		Напишу, что очень очень
		Рада падать...

		Падают стрелки
		Падает пепел
		Сколько ошибак
		Наляпала вновь,

		Ты, ну, а ты
		Ничего не заметил
		Дурочка нега
		Лилеет любовь

Припев:		И опережая лето,
		Плавали и ждали ветра,
		Плавали искали сушу
		Слушай, слушай...

		Умер телефон в кармане
		Напишу записку маме,
		Напишу, что очень очень
		Рада падать...

-

>		Dm         E7       Dm        E7
(1)		Шепчется город с пасмурным небом,
>		Am        G      Dm
		Наглухо занят твой телефон.
		Буду курить, да закусывать хлебом,
		Пялясь в прихожей на пыльный плафон.

>		Am       E7        Am         G
Припев:		И опережая лето плавали и ждали ветра
>		  C         G         Dm      E7
		Плавали, искали сушу, слушай, слушай.
		Умер телефон в кармане, напишу записку маме,
		Напишу что очень, очень рада падать.

(2)		Падают стрелки, падает пепел,
		Сколько ошибок наляпала вновь.
		Ты? Ну а ты ничего не заметил -
		Дурочка нега лелеет любовь.

!		Припев } 2 раза