
		Агидель (Белая река)

>		Am
		Недавно его встретил я,
>		E
		Он мне родня по юности
!		<E> or <E7>
		Смотрели, ухмылялися,
>		Am
		Да стукали в две рюмочки,
>		C
		Ну как живешь? - Не спрашивай...
>		G
		Всем миром правит добрая,
>		G
		Хорошая, чуть вздорная
>		E
		Но мне уже не страшная...

!		Припев

>		E7       Am            E7
		Белая река, капли о былом
>		                          Am
		Ах, река-рука, поведи крылом
>		            C               G
		Я тону, и мне, в этих пустяках
>		                G E              Am
		Ты рюмка на столе, ты небо на руках

		А помнишь эту песенку,
		Что запевали детством мы
		В подъезде да на лесенке
		Стояли наши стороны

		И свет окном разбавленный
		Был нам милее солнышка
		И ветерок отравленный
		Хватали мы из горлышка...

!		Припев...

		И к миру, где все поровну
		Судьба вела нас веником,
		А мы смотрели в сторону,
		И было все до фени нам

		И в этой вечной осени
		Сидим с тобой, два голых тополя
		А смерть считает до семи,
		И утирает сопли нам

!		Припев...

!		бас в припеве(если нужно)
		[4 5-7-8-10-8-7-(1*)-0-4-6-7-6-4-(2*)-(2*)-(2*)-(1*)-(1*)
		3
		2
		1

		4 ----------------(3*)-(3*)-(3*)-(2*)-(1*)-5
		3 3-5-6-8-6-5-(3*)--------------------------]
!		   ()-играть то,что перед скобками

-

		 1              2             3             4            5
		|-----------| |-----------| |-----------| |-----------| |-----------|
		|-3-1-0-1---| |-3-1-0-1-0-| |-5-5-5-6-5-| |-5-5-5-6-3-| |-3-1-0-1-3-|
		|---------2-| |-----------| |-----------| |-----------| |-----------|
		|-----------| |-----------| |-----------| |-----------| |-----------|
		|-----------| |-----------| |-----------| |-----------| |-----------|
		|-----------| |-----------| |-----------| |-----------| |-----------|

>		Am
		Недавно его встретил я,
>		E
		Он мне родня по юности
!		<E> or <E7>
		Смотрели, ухмылялися,
>		Am
		Да стукали в две рюмочки,
>		C
		Ну как живешь? - Не спрашивай...
>		G
		Всем миром правит добрая,
>		G
		Хорошая, чуть вздорная
>		E
		Но мне уже не страшная...

!		Припев

>		E7       Am            E7
		Белая река, капли о былом
>		                          Am
		Ах, река-рука, поведи крылом
>		            C               G
		Я тону, и мне, в этих пустяках
>		                G E              Am
		Ты рюмка на столе, ты небо на руках

		А помнишь эту песенку,
		Что запевали детством мы
		В подъезде да на лесенке
		Стояли наши стороны

		И свет окном разбавленный
		Был нам милее солнышка
		И ветерок отравленный
		Хватали мы из горлышка...

!		Припев...

		И к миру, где все поровну
		Судьба вела нас веником,
		А мы смотрели в сторону,
		И было все до фени нам

		И в этой вечной осени
		Сидим с тобой, два голых тополя
		А смерть считает до семи,
		И утирает сопли нам

!		Припев...

-

Intro:		<               Am>
		[e||------------0--------------0-||
		b||------------1--------------1-||
		g||------------2--------------2-||
		d||------------2--------------2-||
		a||3/5--3--2-3-0--3/5--3--2-3-0-||
		e||------------0--------------0-||]

Verse:		<               Am             E                            Am>
		[e||------------0--------------0--------------0-------------0-|
		b||------------1--------------0--------------0-------------1-|
		g||------------2--------------1--------------1-------------2-|
		d||------------2--------------2--------------2-------------2-|
		a||3/5--3--2-3-0--3/5--3--2-3-2--3/5--3--2-3-2--3/5--3-2-3-0-|
		e||------------0--------------0--------------0-------------0-|

>		               C            G                             E
		e||------------0------------3--------------3--------------0-||
		b||------------1------------3--------------3--------------0-||
		g||------------2------------0--------------0--------------1-||
		d||-/2-2-2-3---0-/2-2-2-3---0--------------0--------------2-||
		a||------------3------------2--3/5--3--2-3-2----5--3--2---2-||
		e||------------0------------3--------------3--------------0-||]

Pre-chorus:	       "Белая река..."
		[e||-----------||
		b||-----------||
		g||-----------||
		d||-----------||
		a||-----2-3-2-||
		e||-0-4-------||]

Chorus:		<    Am                        E>
		[e||---------------------------------------------------------||
		b||---------------------------------------------------------||
		g||---------------------------------------------------------||
		d||---------------------------------------------------------||
		a||-0-2-3-5-3-2--0-2-3-5-3-2------2-3-2--------2-3-2--------||
		e||---------------------------0-4-------4--0-4-------4------||
>		                              Am
		e||---------------------------------------------------------||
		b||---------------------------------------------------------||
		g||---------------------------------------------------------||
		d||---------------------------------------------------------||
		a||-----2-3-2--------2-3-2----0-2-3-5-3-2--0-2-3-5-3-2------||
		e||-0-4-------4--0-4-------4--------------------------------||
>		    C                             G
		e||-------------------------------------------------------------||
		b||-------------------------------------------------------------||
		g||-------------------------------------------------------------||
		d||-----2-3-2h3p2--------2-3-2----------------------------------||
		a||-3-5-----------5--3-5-------5------2-3-2h3p2--------2-3-2----||
		e||-------------------------------3-5-----------5--3-5-------5--||
>		                 E            Am             E
		e||------------------------------------------0--------------||
		b||------------------------------------------0--------------||
		g||------------------------------------------1--------------||
		d||------------------------------------------2--------------||
		a||-----2-3-2--------2-3-2----0-2-3-5-3-2-0--2--------------||
		e||-3-5-------5--0-4-------4-----------------0--------------||]

		Недавно его встретил я
		Он мне родня по юности
		Смотрели, ухмылялися
		Да стукали в две рюмочки

		Ну как живешь? - Не спрашивай,
		Всем миром правит добрая
		Хорошая, чуть вздорная,
		Но мне уже не страшная

Припев:		Белая река
		Капли о былом
		Ах река-рука
		Поведи крылом
		Я тону и мне
		В этих пустяках
		Ты рюмка на столе
		Ты небо на руках.

		А помнишь эту песенку,
		Что запевали с детства мы?
		В подъезде да на лесенке
		Стояли наши стороны.

		И свет, окном разбавленный
		Был нам милее солнышка.
		И ветерок отравленный
		Глотали мы из горлышка.

!		Припев

		И к миру, где все по-ровну
		Судьба мела нас веником.
		А мы смотрели в сторону
		И было все до фени нам.

		И в этой вечной осени
		Сидим с тобой два голых тополя
		А смерть считает до семи
		И утирает сопли нам.

!		Припев

-

		----------------------------------------------------------
Обозначения:	(5)   - не брать медиатором, особенно важно у слайд гитары
		5/7   - слайд вверх
		7\5   - слайд вниз
		5h7   - хаммер
		7p5   - пулл
		7u(8) - бенд вверх
		8d(7) - бенд вниз
		7u(8)d(7) - соответственно, бенд вверх, а потом вниз
		----------------------------------------------------------

		                   (1)
		[E||-------------|----------------------------------------------------
		B||-------------|----------------------------------------------------
		G||*-----------*|----------------------------------------------------
		D||*-----------*|----------------------------------------------------
		A||-/5-3-2-3-0--|--5-3-2-3-0--5-3-2-3-2--5-3-2-3-5--5-3-2-3-0--------
		E||-------------|----------------------------------------------------

		---------------------------------------------------------------------
		---------------------------------------------------------------------
		---------------------------------------------------------------------
		-2-2-2-3-2--2-2-2-3-0------------------------------------------------
		-------------------------5-3-2-3-5-----------------------------2-----
		------------------------------------3-2-1-0------0--4-7--8-7-4-0-----]

		(2)                       (2,5)
		[------------------------------|-------------------------------|------
		------------------------------|-------------------------------|------
		------------------------------|*-----------------------------*|------
		------------------------------|*-----------------------------*|------
		-0--2-3--5-3-2-0--2-3--5-3-2--|-------------------------------|------
		------------------------------|--0--4-7--8-7-4-0--4-7--8-7-4--|------

		---------------------------------------------------------------------
		---------------------------------------------------------------------
		---------------------------------------------------------------------
		---------------------------------------------------------------------
		-0--2-3--5-3-2-0--2-3--5-3-2--3--5-7--8-7-5--3--5-7--8-7h8p7-5-------
		---------------------------------------------------------------------]

		                                                         (3)
		[---------------------------------------------------------------------
		---------------------------------------------------------------------
		---------------------------------------------------------------------
		---------------------------------------------------------------------
		-------------------------------------------------------------0--2--5-
		-3--5-7--8-7-5--3--5-7--8-7-5--3--5-7--8-7-5--0--4-7--8-7-4----------]

!		повторить от (1) до (3)

!		  (PreSolo)
		[/ Gtr1:                 Gtr2:PM.......................
		|  ------------------------|----------------------------------
		|  ------------------------|----------------------------------
		|  ------------------------|----------------------------------
		|  ---14-14---14-14---14---|----------------------------------
		|  -0-15-15-0-15-15-0-15---|-----------5----------------5-----
		|  ------------------------|-5--5--5-----8-7--5--5--5-----8-7-
		| Gtr2:                    |
		|   A       A            E |
		|
		|                       (Solo)
		| Gtr3 (со слайдом, вибрацию я не стал указывать):
		| -----------------------------------------------------------
		| ----------------------5---(5)---/---(17)---17---\---(5)----
		| ----------------------5---(5)---/---(17)---17---\---(5)----
		| -----------------------------------------------------------
		| -----------------------------------------------------------
		\ -----------------------------------------------------------]

!		Gtr3 - Слайд гитара (соло - продолжение):
		[--------------------------------------------7-------4----4-----------5------------
		-------9---9/(10)\(9)----------------------------------------------5-5--5/(7)\(5)-
		-5/(9)---9------------9-\-(7)-/-(9)----9\(7)---7\(4)---4---4-4/(5)------5/(7)\(5)-
		----------------------------------------------------------------------------------
		----------------------------------------------------------------------------------
		----------------------------------------------------------------------------------

		------12--12/(13)\(12)-------12-12---------------------------------------
		-(5)/---------------------------------12--12/(13)\(12)-------------------
		--5-/(12)-------------12--/12-----/12------------------12-\-(10)-/-(12)--
		-------------------------------------------------------------------------
		-------------------------------------------------------------------------
		-------------------------------------------------------------------------

		--------------------------------------------------------------------------
		---12/(13)-13/(15)-13/(15)-15-15-15-15-\13-\12-------9------9-7/(9)-9-\-\-
		-12---------------------------------------------7/(9)--7/(9)--7/(9)-9-\-\-
		--------------------------------------------------------------------------
		--------------------------------------------------------------------------
		--------------------------------------------------------------------------]

!		Gtr2 - Ритм гитара (соло - продолжение, одновременно со слайд гитарой):
		[(PM).................................................................
		|---------------------------------|----------------------------------
		|---------------------------------|----------------------------------
		|*-------------------------------*|----------------------------------
		|*-------------------------------*|----------------------------------
		|(7)(7)(7)-------(7)(7)(5)--------|-----------5----------------5-----
		|-0--0--0---8-7-4-0--0--0---8-7-4-|-5--5--5-----8-7--5--5--5-----8-7-]
!		Цифры в скобках здесь - бас гитара во второй раз

		[(PM).......................................................................
		-------------------------------------|-----------------------------------|-
		-------------------------------------|-----------------------------------|-
		-------------------------------------|*---------------------------------*|-
		-------------------------------------|*---------------------------------*|-
		-----------8-----------------8-------|-----------3----------------3------|-
		-8--8--8-----12-10-8--8--8-----12-10-|-3--3--3-----7-5--3--3--3-----7-5--|-

		(PM)...............
		--------------------
		--------------------
		--------------------
		-----------------2--
		-----------------2--
		-0--0--0---8-7-4-0--]   Далее повторить от (1) до (2)

!		Еще одно соло (без слайда :), Ритм играет (2)-(3), (2)-(2,5) и снова (2)-(3) ...
		[---------------------------------------------------------------------
		---------------------------------------------------------------------
		---------------------------------------------------------------------
		-----------7-9/10~~---9h10p9-7-6u(7)d(6)-----------------------------
		--------7-------------------------------7u(8)d(7)--5/(7)~~~---------
		---5-7-8-------------------------------------------------------------

		---------------------------------------------------------------------
		---------------------------------------------------------------------
		---------------------------------------------------------------------
		---------------------------------------------------------------------
		---------------------2----7h8p7--------------------------------------
		-0--4-7~~-4-7~~-4--1-0----------8-7u(8)d7u(8)d(7)-5~~----------------

		-------------------------------------------------------------------
		-------------------------------------------------------------------
		-------------------------------------------------------------------
		-------------------------------------------------------------------
		-3--5-7--8-7h8p7-5--3--5-7--8-7h8p7-5------------------------------
		--------------------------------------3--5-7--8-7-5--3--5-7--8-7-5-

		---------------------------
		----------------------8-10-
		---------------5-7--9------
		-----------5-7------------- и так далее ...
		-------5р7----------------- там дальше опять будет что-то со слайдом
		---------------------------] (очередная импровизация, которую лень подбирать),

!		а закончится это чем-то похожим на PreSolo, только с квакушкой
!		а в конце - со слайдом
		[---------------------
		---------------------
		-/7-\5-\4/(5)-\-\-2--
		---------------------
		---------------------
		---------------------]