*Пластун* (1991)
		Ветры

>		      Am                   Em
		Если был ты, старик, на неправой войне,
>		       Dm       Em
		Что ответить тебе?
		Я тебе не судья, не герой и не врач,
		Я...

		Я одно знаю точно - ты не был неправ,
		Подыхая в пыли чужой,
		Когда ты молчишь.
		Когда ты молчишь, я знаю одно:
>		 C       E
		Ветры...

>		 Am   Dm   Em
		Ветры с тобой.

		Обезлюдели души кабульских огней.
		Что скажешь о ней?
		Что смотрела угрюмо, прищурив глаза -
		За плечами гроза.

		Я одно знаю точно - ты не был неправ,
		Подыхая в пыли чужой,
		Когда ты молчишь.
		Когда ты молчишь, я верю в одно:
		Ветры...

		Ветры с тобой.