
		Дай хоть на секунду испытать святую милость (О творчестве)

!		Вступление

		1|--7--5-3-2-3--2-0------------0--------
		2|---------------------3-1----1----4-0--
		3|---------------------------2----------

		1|--7--5-3-2-3--2-0------------0--------
		2|---------------------3-1----1----4----
		3|---------------------------2----------

		1|--0--1-0---0--1-0---0--1-0------------
		2|----------4---------4----------4-4-0--
		3|--------------------------------------

		1|--7--5-3-2-3--2-0------------0--------
		2|---------------------3-1----1----4----
		3|---------------------------2----------

>		     Em           C          Am        H7
		1|-----0-0---------0-0--------0-0---------2-2-------
		2|-----0-0---------1-1--------1-1---------0-0-------
		3|-----0-0---------0-0--------2-2---------2-2-------
		4|--------------------------------------------------
		5|---------------3----------0----------2------------
		6|--0-----------------------------------------------
		   Дай хоть на секунду испытать святую милость

>		     Em           C          Am        H7
		1|-----0-0---------0-0--------0-0---------2-2-------
		2|-----0-0---------1-1--------1-1---------0-0-------
		3|-----0-0---------0-0--------2-2---------2-2-------
		4|--------------------------------------------------
		5|---------------3----------0----------2------------
		6|--0-----------------------------------------------
		   Снег, вчера упавший, расспросить про небеса

>		      C           C          C          H7
		1|-----0-0---------0-0--------0-0---------2-2-------
		2|-----1-1---------1-1--------1-1---------0-0-------
		3|-----0-0---------0-0--------0-0---------2-2-------
		4|--------------------------------------------------
		5|--3------------3----------3----------2------------
		6|--------------------------------------------------
		    Что бы не пропало, не погибло, не случилось,

>		     Em           C          Am        H7
		1|-----0-0---------0-0--------0-0---------2-2-------
		2|-----0-0---------1-1--------1-1---------0-0-------
		3|-----0-0---------0-0--------2-2---------2-2-------
		4|--------------------------------------------------
		5|---------------3----------0----------2------------
		6|--0-----------------------------------------------
		    Слышать доносящиеся с неба  голоса.

>		    C                                H7
		   И догнать бредущую в безпамятстве дорогу,
>		    C                                H7
		   И вернуть на место землю,как заведено
>		    C                               H7
		   Покажите чудо, чтобы видно было многим,
>		       Em       C        Am         H7
		   Как перевоплощается в кровь твое вино.

		   Ветрами, морозами, хоть чем-нибудь, поверьте
		   Покажи нам чудо, злую осень покажи
		   Жизнь всегда любуется великолепной смертью
		   Смерть всегда отчаянно запоминает жизнь.
		   А если бы хоть строчка этой ночью получилась
		   День жужал и жег бумагой белой на столе
		   Все что потерял я, отлюбил, что не свершилось
		   Вырастив подстрочника зеленым на золе

		   Дай мне оправдать твою безжалостную милость
		   Верными аккордами подыскать ключи
		   В сад где все начала, все концы, куда стремились
		   Мы, когда нас резали и штопали врачи.
		   Вырваться за грань уютной проданной свободы,
		   Выбраться на волю сквозь витрины, миражи
		   Лечь в траву сухую и увидеть свои роды
		   Бабка-повитуха-смерть хоть что-нибудь скажи.

-

>		Em                      Am           H7
		Дай хоть на секунду испытать святую милость,
>		Em                         Am            H7
		Снег, вчера упавший расспросить про небеса;
>		C                                     H7
		Что бы ни пропало, ни погибло, ни случилось,
>		Em           C        Am        H7
		Слышать доносящиеся с неба голоса.

>		C                                    H7
		И догнать бредущую в беспамятстве дорогу,
>		Em
		И вернуть на место Землю, как заведено;
>		C                                 H7
		Покажите чудо, чтобы видно было многим,
>		    Em        C        Am          H7
		Как перевоплощается в кровь твое вино.

		Ветрами, морозами, хоть чем-нибудь поверьте;
		Покажи им чудо, злую осень покажи.
		Жизнь всегда любуется великолепной смертью,
		Смерть всегда отчаянно запоминает жизнь.

		Если бы хоть строчка этой ночью получилась;
		День жужжал и жег бумагой белой на столе;
		Все что потерял я, полюбил, что не свершилось
		Вырастет подстрочником зеленым на золе.

		Дай мне оправдать твою безжалостную милость-
		Верными аккордами подыскать ключи
		В сад, где все начала, все концы, куда стремились
		Мы, когда нас резали и штопали врачи.

		Вырваться за грань уютной проданной свободы
		Выдраться на волю сквозь витрины - миражи,
		Лечь в траву сухую и увидеть свои роды;
		Бабка - повитуха, Смерть, хоть что-нибудь скажи!

		Дай хоть на секунду испытать святую милость,
		Снег, вчера упавший расспросить про небеса;
		Что бы ни пропало, ни погибло, ни случилось,
		Слышать доносящиеся с неба голоса.

-

!		Получилось так себе, но я старался

>		Am                       Dm          E7
		Дай хоть на секунду испытать святую милость
>		Am                        Dm           E7
		Снег вчера упавший расспросить пр небеса
>		F                                   E7
		Что бы ни пропало ни погибло ни случилось
>		Am                       Dm          E7
		Слышать доносящиеся с неба голоса

		И догнать бредущую в беспамятстве дорогу
		И вернуть на место Землю как заведено
		Покажите чудо чтобы видно было многим
		Как перевоплощается в кровь твоё вино

		Ветрами морозами хоть чем-нибудь поверьте
		Покажи им чудо злую осень покажи
		Жизнь всегда любуется великолепной смерти
		Смерть всегда отчаяно запоминает жизнь

		Если бы хоть строчка этой ночью получилась
		День жужжал и жёг бумагой белой на столе
		Всё что потерял что полюбил что не свершилось
		Вырастет подстрочником зелёным на заре

		Дай мне искупить Твою безжалостную милость
		Верными аккордам одыскать ключи
		В сад где все начала все концы куда стремились
		Мы когда нас резали и штопали врачи

		Вырваться за грань уютной проданой свободы
		Вылраться на волю сквозь витрины-миражи
		Лечь в траву сухую и увидеть свои роды
		Бабка побитуха смерть хоть что-нибудь скажи

		Дай хоть на секунду испытать святую милость
		Снег вчера упавший расспросить пр небеса
		Что бы ни пропало ни погибло ни случилось
		Слышать доносящиеся с неба голоса

-

		<Dm>(5лад)       <C>(3лад)   <Hb>(1лад)    <Gm>(3лад)
		Дай хоть на секунду испытать святую милость

		Снег вчера упавший расспросить пр небеса

		<Hb>(1лад)                <Gm>(3лад)    <A7>(2лад)
		Что бы ни пропало ни погибло ни случилось

		<Dm>(5лад)     <C>(3лад)   <Hb>(1лад) <Gm>(3лад)
		Слышать доносящиеся с неба голоса

		И догнать бредущую в беспамятстве дорогу
		И вернуть на место Землю как заведено
		Покажите чудо чтобы видно было многим
		Как перевоплощается в кровь твоё вино

		Ветрами морозами хоть чем-нибудь поверьте
		Покажи им чудо злую осень покажи
		Жизнь всегда любуется великолепной смерти
		Смерть всегда отчаяно запоминает жизнь

		Если бы хоть строчка этой ночью получилась
		День жужжал и жёг бумагой белой на столе
		Всё что потерял что полюбил что не свершилось
		Вырастет подстрочником зелёным на заре

		Дай мне искупить Твою безжалостную милость
		Верными аккордам одыскать ключи
		В сад где все начала все концы куда стремились
		Мы когда нас резали и штопали врачи

		Вырваться за грань уютной проданой свободы
		Вылраться на волю сквозь витрины-миражи
		Лечь в траву сухую и увидеть свои роды
		Бабка побитуха смерть хоть что-нибудь скажи

		Дай хоть на секунду испытать святую милость
		Снег вчера упавший расспросить пр небеса
		Что бы ни пропало ни погибло ни случилось
		Слышать доносящиеся с неба голоса

!		<Hb> (по-моему, он так называется):

		Г+-O-+---+---+-
		Г+-O-+---+-O-+-
		Г+-O-+---+-O-+-
		Г+-O-+---+-O-+-
		Г+-O-+---+---+-
		Г+-O-+---+---+-
		   I  II   III 

!		В общем, как <С> мажор, но на первом ладу.