* ЭТО ВСЕ* (1995)
		Жизнь на месте

проигрыш:	<G C G F> } 2 раза

>		F         G         C             G          F
		 Старше слова "дорога", вспомнил новые строчки,
>		          G          C         G          F
		 В них веселья немного, все овраги да кочки,
>		           Em     D         Em      D
		 В них тревожные вести и печальные ноты,
>		           C                                        D
		 В них лицо - кричу: "Кто ты?" я к себе же без лести

>		    G                  Em    D
		 Я жив, как всегда на месте,
>		  G                   Em    D
		 Жизнь как всегда на месте,

!		проигрыш

		Похмеляется утро, ночь заляпана светом,
		Миром серым и мутным, до конца о нем спетым
		Захлебнулся от пыли, задохнулся от водки,
		Думал, мы уже были, что ж мне выжать из глотки?!

!		Припев...

		Заплатили немало, но долгов еще больше
		Вылез я из подвала, проживу, думал, больше
		Я решил стать красивым, чистым, светлым и юным
		Но меня кто-то двинул, дунул, шлепнул да плюнул

!		Припев...

		Все проходит, в постели чую чье-то дыханье,
		Свет включил - налетели: мысли, чувства, желанья,
		Дуя нежно мне в ухо: Люба, Верa, Надюха,
		Отвечает играя: "Я ж твоя дорогая!"

!		Припев...

-

>		  G    C              G       D
		Старше слова "дорога", вспомнил новые строчки,
		В них веселья немного, все овраги да кочки,
>		          C      D              C       D
		В них тревожные вести, в них печальные ноты,
>		         C                         D
		В них лицо - кричу: "Кто ты?" я к себе же без лести

Припев:		<     G D           G   C    Em   D>
		    Жиизнь как всегда на месте.   } 2 раза

-

>		 G             C        G              C
		Старше слова дорога, вспомнил новые строчки,
>		 G              C       G             C
		В них веселья немного, все овраги да кочки.
>		  Em              D       Em       D
		В них тревожные вести и печальные ноты,
>		  C                                         D
		В них лицо кричит: "Кто ты? Я к себе же без лести"

Припев:		< G                        Em>
		Жи-и-знь как всегда-а на месте
>		 G                        Em
		Жи-и-знь как всегда-а на месте.

		Похмеляется утро, ночь заляпана светом,
		Миром серым и мутным до конца о нем спетом,
		Захлебнулся от пыли, задохнулся от водки,
		Думал, мы уже были, что ж мне выжать из глотки.

!		Припев.

		Заплатили немало, но долгов еще больше,
		Вылез я из подвала, проживу, думал, дольше.
		Я решил стать красивым, чистым, светлым и юным,
		Но меня кто-то двинул, дунул, шлепнул да плюнул.

!		Припев.

		Все проходит, в постели чую чье-то дыханье,
		Свет включил, налетели чувства, мысли, желанья,
		Дуя нежно мне в ухо Люба, Вера, Надюха
		Отвечает играя :"Я ж твоя дорогая!".

!		Припев.