1984 - Переферия
		Мы из Уфы

		- Простите, а вы мне не подскажете,
		  Что это за город - там, на горе?
		- Вот это? Инан син баш боласы! Это Уфа!

>		     A            D      A   D
		Наш город это - здесь живем,
>		          E            A
		Весной гуляем, спим зимой,
>		  D              A    A7  D
		А если вдруг когда умрем, -
>		           E             A
		Схоронят здесь же, за рекой.

!		 <A               D> (<E>)
		We all live in Ufa!
		We all live in Ufa!
		Бэс яшайбэс Уфа!

		Мы ходим дружно на собранья,
		Берем за горло встречный план,
		Шумим на длинных заседаньях
		На тему: "Жив ли Башкортостан?"

		We all live in Ufa!
		Бэс яшайбэс Уфа!

		У нас вся есть - свои герои, -
		В любом подъезде разольют,
		Лет через сто метро откроют,
		А нынче "Rifle" продают.

		We all live in Ufa!
		Бэс яшайбэс Уфа!