
		Она

>		       F#m  B7
		(О-на)
>		G      A
		За дверями вагона последнего,
		(О-на)
		Небеса провожали пропащего,
		(О-на)
		Целовали косой дождя летнего,
		(О-на)
		Прижимали к груди уходящего.

>		EmG  Hm
		Расковала меня ночь бессонная,
		Вынул я перспективу из скважины,
		Закапал у вокзала всё черное,
		Помолясь о здоровии вражины.

Проигрыш:	<G A F#m B7> } 4 раза

>		       F#m  B7
		(О-на)
>		G       A
		До отхода полвека проплакали,
		(О-на)
		Всё украдкой крестили молитвами,
		(О-на)
		Ушивали тоской да заплатами,
		(О-на)
		Напоив иноземными ритмами.

>		EmG   Hm
		А я намазал на хлеб расстояние,
		Захлебнулся мечтой родниковою,
		На дорогу надел струны новые,
		Да пустил под откос состояние.

Проигрыш:	<G A F#m B7> } 4 раза

>		     D      D*G     Em D
		Не пропал ещё голос, на месте глаза,
		Наблюдаю, как в море играет гроза,
		Не сверну я с дороги: один на пути
>		     DD*        G      F#m
		В небе крылья да ноги: “Что делать?” - лети.

Проигрыш:	<F#m B7 G A> } 4 раза

!		* - аккорд меняется следующим образом:
!		(следует взять аккорд ре мажор (<D>) и менять
!		лишь положение пальца, находящегося на 3ей
!		струне так, как показано в табулатуре)

		[E|------x------|------x------|-----x------|
		A|------x------|------x------|-----x------|
		D|------0------|------0------|-----0------|
		G|------2------|------1------|-----0------|
		H|------3------|------3------|-----3------|
		E|------2------|------2------|-----2------|]

-

Проигрыш:	|<G>|<A>|<F#m>|<H7>| } 4 раза

>		F#m  H7
(1)		(О-о-на)
>		G            A
		За дверями вагона последнего,
		(О-о-на)
		Небеса провожали пропащего,
		(О-о-на)
		Целовали косой дождя летнего,
		(О-о-на)
		Прижимали к груди уходящего.

>		Em          G               Hm
Припев:		Расковала меня ночь бессонная,
		Вынул я перспективу из скважины,
		Закапал у вокзала всё черное,
		Помолясь о здоровии вражины.

!		Проигрыш

(2)		(О-о-на)
		До отхода полвека проплакали,
		(О-о-на)
		Всё украдкой крестили молитвами,
		(О-о-на)
		Ушивали тоской да заплатами,
		(О-о-на)
		Напоив иноземными ритмами.

Припев:		А я намазал на хлеб расстояние,
		Захлебнулся мечтой родниковою,
		На дорогу надел струны новые,
		Да пустил под откос состояние.

!		Проигрыш

>		D     D*      D**    G        Em D
Припев:		Не пропал ещё голос, на месте глаза,
		Наблюдаю, как в море играет гроза,
		Не сверну я с дороги: один на пути
>		D       D*       D**        G            F#m      H7
		В небе крылья да ноги: "Что делать?" - лети. (О-о-на)

!		Проигрыш

Аккорды:	 1         <D*>    1        <D**>
		|---+-o-+---+   |---+-o-+---+
		|---+---+-o-+   |---+---+-o-+
		|-o-+---+---+   |---+---+---+
		|---+---+---+   |---+---+---+
		|---+---+---+   |---+---+---+
		|---+---+---+   |---+---+---+