*ЛЮБОВЬ* (1996)
		Онанист

>		D   G  Hm      A         D
		Онанизм и саможалость.
>		          G    Hm          A  Hm
		Наверно все меню на ужин мне.
>		         G     D             A       Hm
		Дорога, как змея, к душе прижалась,
>		          G     D          A
		Закат-рюкзак зевает на спине.
		Шаги устало падают на стены,
		Стена стране о чем-то говорит.
		Я изменил в себе твои измены,
		Я вымираю, я ненужный вид.

		1|-------------|
		2|-------------|
		3|-------------|
		4|-9-9-5-5-7-7-|
		5|-9-9-5-5-7-7-|
		6|-7-7-3-3-5-5-|

>		   A    Hm    G   D
Припев:		Да я сегодня не один,
>		      A   Hm     G     D
		Кто один - идет домой.
>		         A      Hm    G   Hm
		И с ним не будет никого,
>		     A      Hm      G     D
		Хочешь пей, молчи да вой.
>		       A      Hm   G     Hm
		И только вера на стене,
>		       A       Hm     G
		И только дно под ней без дна,
>		       A    Hm   G       Hm
		Я наблюдаю, как во мне
>		     A    Hm G  D A
		Не живет  она.

		Я без витрин, во мне ни дня ни ночи,
		Мы не летим, пикируем на свет.
		Я думал, будет без тебя попроще,
		Но не легко брать у себя ....
		Не космонавт, я просто существую,
		И не ходил три года не парад.
		Залез в штаны, и чувствую плохую,
		Худую карму в сотню киловатт.

!		Припев

		Страна в дерьме, да я наверно тоже,
		Не продаюсь, но падаю в цене,
		Включил мечты, на что-то все похоже,
		Но это что-то все же о тебе.

!		Припев

-

!		* - palm mute

>		D5* G5* H5*     A5*        D5*
		Онанизм и саможалость.
>	          G5*  H5*         A5* H5*
		Наверно все меню на ужин мне.
>		         G5*   D5*           A5*     H5*
		Дорога, как змея, к душе прижалась,
>		          G5*   D5*        A5*
		Закат-рюкзак зевает на спине.
>		D   G    Hm          A     D
		Шаги устало падают на стены,
>		        G        Hm        A  H5*
		Стена стране о чем-то говорит.
>		        G5*    D5*       A5*  H5*
		Я изменил в себе твои измены,
>		        G5*    D5*       A5*
		Я вымираю, я ненужный вид.

		1|-------------|
		2|-------------|
		3|-------------|
		4|-9-9-5-5-7-7-|
		5|-9-9-5-5-7-7-|
		6|-7-7-3-3-5-5-|

>		   A    Hm    G   D
Припев:		Да я сегодня не один,
>		     A   Hm     G     D
		Кто один - идет домой.
>		         A      Hm    G   Hm
		И с ним не будет никого,
>		     A      Hm      G     D
		Хочешь пей, молчи да вой.
>		       A5     H5  G5    H5
		И только вера на стене,
>		       A5     H5   G5
		И только дно под ней без дна,
>		       A    Hm   G       Hm
		Я наблюдаю, как во мне
>		     A    Hm G  D A
		Не живет  она.

		Я без витрин, во мне ни дня ни ночи,
		Мы не летим, пикируем на свет.
		Я думал, будет без тебя попроще,
		Но не легко брать у себя ....
		Не космонавт, я просто существую,
		И не ходил три года не парад.
		Залез в штаны, и чувствую плохую,
		Худую карму в сотню киловатт.

!		Припев

!		(аккордами, не квинтами)
		Страна в дерьме, да я наверно тоже,
		Не продаюсь, но падаю в цене,
		Включил мечты, на что-то все похоже,
		Но это что-то все же о тебе.

!		Припев

P.S.:		Лажа полная получилась.

-

Проигрыш:	< C#m A H>

		1|-4-----5-----5---2-----2--------|
		2|-5-----5-----5---4-----4--------|
		3|-6-6-6-6-6-6-6-6-4-4-4-4-4-4----|
		4|-6-6-6-7-7-7-7-7-4-4-4-4-4-4----|
		5|-4-4-4-7-7-7-7-7-2-2-2-2-2-2----|
		6|--------------------------------|

!		C#m* A* E* H* - играются примерно так же.
!		* приглушенно (хотя я особо не глушу:))

>		C#m* A*   E*     H*
		Онанизм и саможалость.
		Наверно все меню на ужин мне.
		Дорога, как змея, к душе прижалась,
		Закат-рюкзак зевает на спине.
>		E       A     C#m       H     E
		Шаги устало падают на сте-е-ены,
>		E          A    C#m        E
		Стена стране о чем-то говорит.
>		C#m*   A*    E*          H*
		Я изменил в себе твои измены,
>		C#m*   A*       E*     H*  H   C# A H
		Я вымираю, я ненужный вид.

>		  H    C#m    A   E
Припев:		Да я сегодня не один,
		Кто один - идет домой.
		И с ним не будет никого,
		Хочешь пей, молчи да вой.
		И только вера на стене,
		И только дно под ней без дна,
		Я наблюдаю, как во мне
>		 H   C#m  A   E     H
		Не живет    она-a-a-A-A

!		Проигрыш

>		C#m*      A*       E*           H*
		Я без витрин, во мне ни дня ни ночи,
		Мы не летим, пикируем на свет.
		Я думал, будет без тебя попроще,
		Но не легко брать у себя....
>		E        A      C#m           H    E
		Не космонавт, я просто существу-у-ую,
>		E       A      C#m        E
		И не ходил три года не парад.
>		C#m*      A*      E*          H*
		Залез в штаны, и чувствую плохую,
>		C#m*   A*      E*        H*   H   C# A H
		Худую карму в сотню киловатт.

!		Припев
!		Проигрыш

>		E        A      C#m           H    E
		Страна в дерьме, да я наверно тоже,
		Не продаюсь, но падаю в цене,
>		C#m*     A*         E*         H*
		Включил мечты, на что-то все похоже,
>		C#m*    A*      E*        H*  H  C# A H
		Но это что-то все же о тебе.

!		Припев