
		С рождеством

!		посвященную всем
!		погибшим в городе Грозном.

Проигрыш:	<Am Am G C G C E Am> } 2 раза

>		       Am                   C
		Не пройти(найти) мне ответа
>		          D       G
		Там где пули вопрос,
>		      E      Am           C
		Где каждый шаг-сантиметр,
>		         D       G
		Время - пять папирос.
>		 G       Am           C
		Мертвый город хоронит
>		  D       G
		Свои голоса.
>		 E   Am             E
		Потерялись и бродят
>		                Am
		Между стен небеса.

>		  Am               C(F)*
		Рождество наступило,
>		     D(G)     G(C)   E
		В подвале темно.
>		  Am                 C(F)
		Сколько душ погубило
>		    D(G)    G(C)
		Напротив окно?
>		    Am(Dm)             C(G)
		Я забыл, что в природе
>		 D          G(C)
		Еще что-то есть.
>		   E      Am        E
		Шестого приняли роды
>		                 Am
		Без шести минут шесть.

>		                        Am       E
Припев:		        А наутро выпал снег
>		                        Am       C
		        После долгого огня
>	               D          G      E
		        Этот снег убил меня
>		                                     Am      C
		        Погасил короткий/двадцатый** век
>		              D           G      C
		        Я набрал его в ладонь
>		                     D             G         E
		        Сплюнул (в) белый грязь и пыль
>		                             Am        E
		        То ли небыль, то ли быль,
>		                               Am
		        То ли вечность, то ли вонь...

!		Проигрыш

		Этот город разбился,
		Но не стал крестом,
		Павший город напился
		Жизни перед постом.
		Здесь кантуженные звезды
		Новый ждут Вифлием,
		На пеленке березы
		Руки ноги не всем.

		С рождеством вас, железо,
		Повязки венцом.
		Медсестра Мать Тереза
		С симпатичным лицом.
		Прошлой ночью, как шорох,
		Вспоминались дни:
		Как Вы задернули шторы,
		Как Вы были одни.

!		Припев

!		Проигрыш

		Не пройти(найти) мне ответа
		Там где пули вопрос,
		Где каждый шаг-сантиметр,
		Время- пять папирос.
		Мертвый город с пустыми
		Глазами со мной.
		Я стрелял холостыми,
		Я вчера был живой...

!		* - в скобках даны аккорды для исполнения с синтезатором
!		(мелодией), в этом случае одинакого играются 1-ый, 3-ий и
!		5-ый и 2-ой с 4-ым куплеты.
!		** - в первом припеве "короткий", во втором - "двадцатый".
!		Слова и пунктуация не проверены.