
		Крепитесь люди

>		Am                    Dm
     (1)	Я уже заскучал по столице,
>		       E7                 Am
		(А прошло-то всего три недели...)
>		     F                   Dm7
		По озябшим прохожим, по лицам,
>		       E       E7      Am
		По которым скучается мне.
>		       Am                     Dm7
		Возвращаться пора, как из плена,
>		E                  E7        F    A7
		И гадать, с кем бы первым напиться -
>		       Dm             Am
		По разводам метрополитена,
>		        H7        E7       Am
		По большой разноцветной руке.

     (2)	Там сейчас после Нового Года
		Тополя в заграничных гирляндах,
		И расщедрилась мама-природа,
		Так что снег бесконтрольно летит,
		И крещенские злятся метели,
		И такая стоит непогода,
		Что гаишники окоченели
		И полгорода в пробках стоит.

>		                  Dm
    Припев:	И кто-то пишет
>		        E7        Am
		Рукой согретой
>		        A7      Dm           E7            Am
		На замороженном троллейбусном стекле:
>		             A7      Dm
		"Крепитесь, люди,
>		          E7   Am
		Скоро лето!" -
>		           A7       Dm      E7         Am
		И всем от этого становится теплей.

     (3)	И когда через несколько суток,
		Поборов и пространство, и время,
		Мы проткнем шереметьевский сумрак
		И опустимся в море огней,
		Я по милой земле прошагаю,
		Потеряв свой последний рассудок,
		И конечно, еще прочитаю
		Эту надпись в сиреневой мгле,

    Припев:	Что так любезно
		Была прогрета
		На замороженном троллейбусном стекле:
		"Крепитесь, люди,
		Скоро лето!" -
		И мне в который раз покажется теплей.

     (4)	И душа, словно льдина, отчалит
		В дрейф по старым дворам и по кухням,
		К тем, с которыми в самом начале
		Мы не знали, что тронется лед.
		И на мелкие зайчики солнца
		Разобьются все наши печали,
		И с добрейшей улыбкой японца
		Круглолицее лето придет.

   Припев:	Когда на сердце
		Покоя нету,
		Когда оно промозглым днем чего-то ждет,
		Крепитесь, люди -
		Скоро лето,
		К нам наше лето обязательно придет.

!		p.s. В последнем куплете - транспонирование в <Hm>