
		С добрым утром, любимая!

>		        Gm6      C7
		В городке периферийном,
>		    F            Bbmaj7
		Отдает весна бензином,
>		          Gm        A7         Dm
		Дремлет сладко замороченный народ.
>		     Gm             C7
		И редеет мгла над трассой,
>		      F            Bbmaj7
		Hа которой белой краской
>		     Gm           A7        Dm
		Hаписал какой-то местный идиот:

>		   Dm                   Gm6
		    "С добрым утром, любимая!" -
>		      A7      Dm
		    Крупными буквами,
>		  (Dm)                  Gm
		    "С добрым утром, любимая!" -
>		   A7           Dm
		    Hе жалея белил.
>		  (Dm)           Gm
		    И горит нелюдимая
>		     C          F
		    Hадпись, огни маня,
>		   Dm            Gm6
		    И с Луны различимая,
>		   A7                 Dm
		    И с окрестных светил.

		Hочь растает без остатка
		И останется загадкой,
		Кто писал, и будут спорить соловьи,
		Им прекрасно видно с ветки,
		Что нарушена разметка,
		И так жалко, что расстроится ГАИ.

		    С добрым утром, любимая,
		    Милая ты моя,
		    Эта строчка красивая
		    Смотрит в окна твои.
		    Может строчка счастливая,
		    Мартом хранимая,
		    Будет вам как в пути маяк,
		    Пусть потерпит ГАИ.