
		Сон

>		     Em           Am   H7
		Я хочу скорей заснуть
		
		И проснуться рано-рано
>		                    Am   C
		И под волчий вой бурана
>		                   A7
		Свой порог перешагнуть.
>		      Dm            Е
		И пойти в снегу по пояс
>		       E7             Am
		На вокзал, на первый поезд,
>		 Am6              C
		Часовой нарушить пояс
>		F#7                  A7
		И друг другу нас вернуть.

		Будет ночь, как гулкий зал,
		Месяц в карнавальной маске,
		Как в старинной страшной сказке,
		Что мне ветер рассказал.
		Но согласно расписанью
		За окном мелькают зданья,
		И финалом ожиданья
		Приближается вокзал.

		Я прийду, не позвонив,
		И не ты мне дверь откроешь,
		Но уже не успокоишь
		Взволновавшийся мотив.
		Ты войдешь обыкновенно,
		Удивишься откровенно
		И посмотришь, совершенно
		Ничего не проронив.

		А восход не потушить -
		Горизонт уже распорот,
		В эту ночь огромный город
		Вьюга весь запорошит.
		Как два облака по небу,
		Будет нас носить по снегу,
		А наутро я уеду,
>		                    Em
		И как прежде будем жить.