
		Ах, какая женщина

!		Style=9(PnoBallad)(for Yamaha340)  Start=(E)
>		          Am
		В шумном зале ресторана
		Средь веселья и обмана
>		  (Am7)                Dm
		Пристань загулявшего поэта
		Возле столика напротив
>		      Dm7
		Ты сидишь вполоборота
>		  Dm6                Am
		Вся в луче ночного света
		Так само случилось вдруг
		Что слова сорвались с губ
>		 A7                    Dm
		Закружили голову хмельную

		--RF--
>		Dm6                  Am         (F) E7
		Ах какая женщина, какая женщина.
>		         Am  (A7)
		Мне б такую,
>		Dm6                  Am         (F) E7
		Ах какая женщина, какая женщина.
>		         Am
		Мне б такую.

!		TRANSPOS+2

		Пол не чуя под собою
		Между небом и землёю
		Как во сне с тобой танцую
		Аромат духов так манит
		Опьяняет и дурманит
		Ах как сладко в нём тону я
		Так близки наши тела
		И безумные слова
		Без стыда тебе шепчу я

		--RF--

		Ты уйдёшь с другим я знаю
		Он тебя давно ласкает
		И тебя домой не провожу я
		Жжёт в груди сильней огня
		Не моя ты не моя
		Так зачем же я ревную
		Сколько ж нужно мне вина
		Чтоб из памяти прогнать
		И забыть мечту свою шальную

		--RF--