
		Серебра!!!

Intro:		5)A |----7-8-7-5-7-------7-8-7-5-7--|  или  4)D | ---2-3-2-0-2-------2-3-2-0-2--|
		6)E |-0------------- 0------------- |       6)E |-0--------------0--------------|

>		   Em
		Да ему ли так жить - только дергаться
>		     G(III)
		Да химер сторожить ,не меняя лица
>		     Fm#
		Да оттачивать вдох ,зная шаг наперед
>		     Fm
		Квазимодо-урод, Квазимодо-урод
>		    Em
		Или ты или я ,уж такая игра
>		     G(III)
		Или свет или звук, или звук или яд
>		    Am(V)
		Поднимите им веки пусть видят они
>		      Hm(VII)
		Как бывает ,когда слишком много в крови

>		     Em G(III)   Hm(VII)  Em G(III)  Hm(VII)
		Серебра-а!!!Серебра!!!     А-а, серебра
		Если мимо пройдет, говори- повезло
		Сеять хаос и дрожь - вот его ремесло
		Или сетью слов передергивать рот
		Квазимодо-урод, Квазимодо-урод
		А пока его крик режет тень-тишину
		Да пока не охрип ,разгоняя волну
		Поднимите им веки пусть видят они
		Как бывает ,когда слишком много в крови
		Серебра!!!...
		Это те же костры, только меньше огня
		Это те же глаза, только молятся пням
		Это те же слова ,только наоборот
		Квазимодо-урод, Квазимодо-урод
		Или ты или я ,уж такая игра
		Или свет или звук, или звук или яд
		Поднимите им веки пусть видят они
		Как бывает ,когда слишком много в крови
		Серебра!!!...