
		Сиреневый туман

>		              Am                 E7
(1)		Сиреневый туман над нами проплывает
>		                                  Am
		Над тамбуром горит полночная звезда
>		                 Dm                  Am
		Кондуктор не спешит, кондуктор понимает,
>		              H7 E7             Am
		Что с девушкою я прощаюсь навсегда.

(2)		Ты смотришь мне в глаза и руку пожимаешь,
		Уеду я на год, а может быть, на два,
		А может, навсегда ты друга потеряешь,
		Еще один звонок - и уезжаю я.

(3)		Запомню все слова, что ты тогда сказала,
		Движенье милых губ, ресниц твоих полет.
		Еще один звонок - и смолкнет шум вокзала,
		Еще один звонок - и поезд отойдет.

(4)		Последнее "прости" с любимых губ слетает,
		В глазах твоих больших - тревога и печаль.
		Еще один звонок - и смолкнет шум вокзала,
		И поезд улетит в сиреневую даль.