
		Небеса

Проигрыш:	<Am* C D G5>

>		Am*                          C
		Кто по радуге, кто на облаках
>		D               G5
		Кто на солнечных лучах
		Кто белой птицей, кто чёрной змеёй
		То талым снегом, то вечерней росой
		То серым лесом, то зелёной травой
		Волшебным полем под свинцовой луною
		Сгоревшим пеплом, яркой звездой
		Кто просто так, кто устал быть собой.

Припев:		<G5   G5*  Em7   D>
		В небеса
>		G5   G5*  Em7   D
		Уходят в небеса
>		G5   G5*  Em7   D
		В небеса
>		G5   G5   G5
		Уходят в небеса

		Кто от горя себя не узнал
		Кто просто так погулять пострал
		Кто на радостях, а кто с беды
		Кто от родных, а кто-то от больных
		Кто быстро падал, кто перелетал
		Кто ни сюда вообще попал
		С детским плачем и взглядом сырым,
		То кто останется здесь, кто уйдёт самим

!		Припев

Проигрыш:	<G5 G5* Em7 D>

>		G5
		Если кто-то оступился
>		G5*
		Стала красной вдруг трава
>		G5
		Если вдруг затихли птицы
>		G5*
		Из-под ног ушла земля

		Если вдруг раскинув руки
		Ты летишь вниз головой
		Значит, это пришли за нами
>		                                    Em7     D
		Значит, время собираться нам с тобой

!		Припев

!		      [654321] - порядок струн ниже
		<Am*> - [002230]
		<G5>  - [320030]
		<G5*> - [200030]