
		Про Гитару

>		Fm# Dm Fm# Dm

>		Fm#                  Hm           Cm#         Fm#
		Перестань издеваться, открой по шире дверь свою.
>		                      Hm           Cm#            A
		Я не стану врываться, бить бутылки, маму слать твою.
>		                           D
		Я пришел сказать, что я люблю…
>		Ab            G            Fm#
		Люблю больше жизни гитару свою.

>		Fm# Dm Fm# Dm

		На оборванных струнах она играла песни мне,
		С друзьями пили на кухне и вместе мечтали о тепле.
		И уходила осень, приходила зима…
		Я был нужен тебе, ты была мне нужна.

>		Fm# Hm Cm# Fm#

		Так мы шарахались по жизни друг с подругой, не пряча про запас.
		Пили горько и молча. И на этом кончился рассказ.
		Вот и спел я песенку свою…
		Про то, как я любил гитару свою.

!		В проигрыше на <Dm> нужно с басом (4) мутить.
!		Но, по-моему, и без этого получилось прикольно.