
		Сибирь

>		  Em      C             G             H7
		Рваные кеды по первому снегу
		В драных носках, да по талому льду
		Голой ногой по живому асфальту
>		  Em      C            F#**
		И 8 километров по дороге...

Припев:		В сибирь ехал  на-на-на-на          <F#**> [224342] (<H7> на втором ладу)
		В сибирь ехал  на-на-на-на
		В сибирь ехал  на-на-на-на
		В сибирь ехал  на-на-на-на

		Шестая струна порвалась на гитаре
		Ломаю медиатры, в пальцы гвозди вбиваю
		Процесс вырожденья под бой барабанов
		И 8 километров по дороге...

!		Припев

		А ночью кошка замёрзла у двери
		А утром кто-то взял и перерезал весь свет
		А днём не хватило 5 копеек на астру
		И 8 километров по дороге...

!		Припев

		Рваные кеды по первому снегу
		Моё настроенье маслом на полотне
		Мои впечатленья мелком по асфальту
		И 8 километров по дороге...

!		Припев

		Рваные кеды по первому снегу
		Рваные вены 5 букв на стене блять
		Моя мечта – голубая пижама
		И 8 километров по дороге...

-

!		По-моему так эту песню сыграть гораздо
!		проще чем по стандартным аккордам...

		E||----------------------|------||
		B||----------------------|------||
		G||--9----5--------------|------||
		D||--9----5----5----9----|------||
		A||--7----3----5----9----|------||
		E||------------3----7----|------||

		Рваные кеды по первому снегу
		В драных носках, да по талому льду
		Голой ногой по живому асфальту

		E||-----------------||
		B||-----------------||
		G||--9----5---------||
		D||--9----5----4----||
		A||--7----3----4----||
		E||------------2----||

		И 8 километров по дороге...

Припев:		В сибирь ехал  на-на-на-на } 4 раза
		Шестая струна порвалась на гитаре
		Ломай медиатры, в пальцы гвозди вбивай
		Процесс вырожденья под бой барабанов
		И 8 километров по дороге...

!		Припев

		А ночью кошка замёрзла у двери
		А утром кто-то взял и перерезал весь свет
		А днём не хватило 5 копеек на астру
		И 8 километров по дороге...

!		Припев

		Рваные кеды по первому снегу
		Моё настроенье маслом на полотне
		Мои впечатленья мелком по асфальту
		И 8 километров по дороге...

!		Припев

		Рваные кеды по первому снегу
		Рваные вены 5 букв на стене б***ь
		Моя мечта. голубая пижама
		И 8 километров по дороге...