
		Сорок Восемь

>		F#
		Сегодня притворюсь собакой
		Из своей палаты ночью выветрюсь
		Хромая задней лапой
>		F#                               E F# A F#(2X) C A
		В дороге к добрым людям прибьюсь
>		F#
		Люди не помогут я сам игрок
>		F#                        E F# A F#(2X) C A
		Знаю кто пешка кто король
>		F#
		На клетке сорок восемь
>		F#                        E F# A F#
		Напишу пером любви пароль

>		             F#      E
		Свой рот открою положу туда
>		     H         A              F#      E A H
		Практическое средство для глубокого сна
>		          F#       E                  A   H C#
		Накроют птицы изумрудным одеялом мою голову
>		  D     H
		А-а-а а-а-а
>		       F#       E
		Но если следы мои
>		   H         A           F#      E     A H
		Невиданные твари вдруг заявят свои права
>		  D          H      C# C# C# C# C#
		Ищи меня свищи меня

>		F#
		Двери приоткрыты
>		F#                       E F# A F#(2X) C A
		На пороге мои звери ждут
>		F#
		Склюют меня в парадной птицы
>		F#                         E F# A F#(2X) C A
		Белки след хвостом заметут
>		F#
		Летит слепая птица два кольца
>		F#                E F# A F#(2X) C A
		На пальцах егерей
>		F#
		Ей семь стихий на стражу
>		F#                            E F# A F#
		И синий цвет заменят Север ей

		Свой рот открою положу туда
		Практическое средство для глубокого сна
		Накроют птицы изумрудным одеялом мою голову
		А-а-а а-а-а
		Но если следы мои
		Невиданные твари вдруг заявят свои права
		Ищи меня свищи меня

Bass:		<F# E F# A> (под куплет)
		<F# F# E F# A F# E F# C A> (вступление и проигрыш)