*ВЫВОРОТЕНЬ* (1990)
		Гон в полдень

>		  Am            F
		Тронь лицо мое мокрой веткой
>		  Am                F
		Свежей след оставь по щеке
>		 Am               F
		Мозг изъеден мой гарью едкой
>		 Am     F           F    Am
		Пальцы тянутся к взрывчеке

		Дай глоток воды расцелебной,
		Вымой волосы под дождем.
		Может, станешь мне расцаревной,
		Может, ядом жгешь. Подождем.

>		                 Am                C
		    Да только в голую степь ушло еще одно лето
>		          D                     F
		    Воет ветер дождем, темнеют рек рукава.
>		           Am                     C
		    И остывает ладонь в разгул губами согрета
>		            D                        F
		    Мечет смертным крестом, который сам ковал, ковал

		    Долгим бегом-бегом пытался наверстать
		    Стал угрюмо пегий, забыл встать.
		    Россыпь трогал, трогал, кусал репейник крут.
		    Вывернули локоть в беде крут
>		    Am       F  Am       F  Am
		      Гон в полдень безымянных.
>		    Am       F  Am         F Am
		      Гон в полдень без исхода.

		Слушай выстрелы на закате.
		Помни по утру блеск ружья.
		Как теряет рога сохатый,
		Я пришелся тебе в мужья.

		Брось загар плечей обреченных.
		Выжечь соки из глаз менял.
		Я искал тебя в травах черных,
		Нюх звериный подвел меня.

		    Да только в голую степь ушло еще одно лето,
		    Засыпает песком основы громких времен.
		    И остывает ладонь в разгул губами согрета
		    Ухожу в эту степь, тобой клеймен, клеймен, клеймен.

		    Я там не был, не был, гулял в густом бору.
		    Как делили небо ковши рук.
		    Вскладчину гуляли, дымились щеки до утра,
		    Смяли цвет буланый в пылу драк.

		      Гон в полдень безымянных.
		      Гон в полдень без исхода.