RAS & Рыба ~1996. Шуточная песня, посвящается нашим друзьям Виталику и Ивану.
		Алкоголик-наркоман

>		     Em
(1)		Ты лежишь в грязной луже
>		     G
		И не думаешь о том,
>		      Am
		Что тебе лишь будет хуже,
>		      H
		Твоей жизнью правит ром!
		Без закуски ты все глушишь
		По подвалам, чердокам.
		Злому демону ты служишь
		Алкоголик-наркоман...

>		  Em
Припев:		Виталик - ты мертв,      \
>		      Am                  \
		Посмотри на свой путь!!!   \
>		      C                     } 2 раза
		Ты стоишь на краю,         /
>		    D                     /
		Потеряв в жизни суть.    /
!		    ^ второй раз - <Em>

!		Припев

(2)		На столе стоит водка
		И граненый стакан,
		И тянется к нему рука,
		Вторая лезет в карман.
		Она достанет пачку "примы":
		Будешь пить и курить,
		Со стороны поглядим -
		Ради чего тебе жить?

!		Припев

(3)		Забыл ты мать и отца,
		Родных и близких своих.
		И не хотят тебя видеть
		Друзья, подруги твои.
		А ты встаешь поутру
		От сильной боли в голове,
		Скорее бы похмелиться,
		И уйти в забытье.

!		Припев

(4)		Нет дороги назад,
		Ты сжигаешь мосты,
		Твоя жизнь - дикий мед,
		Тварь такая пойми!!!
		Ты как брат твой Иван,
		Все к могиле ползешь.
		В голове лишь дурман,
		На том свете поймешь.

!		Припев } 2 раза