
		Снегири

>		Hm        G        A
(1)		Снегири-герои погляди.
>		Hm            G          A
		Словно капля крови на груди.
!		<Em           A         G> (или <D>)
		Hо в каком невидимом бою
>		Em      A  F#          Hm
		Ранены они за мечту свою
>		G            F#
		За любовь свою.

(2)		Ты идeшь обиду затая,
		Тает как мираж мечта твоя.
		Повторяют губы как в бреду:
		Больше не прийду.
		Больше не прийду.
		Больше не прийду.

>		Hm               G
Припев:		Снегири-негири улетят и не поймаешь.
>		A                  F#
		Снегири-негири не замолишь, не заплачешь.
>		Hm                G
		И мечты такие улетят и не поймаешь.
>		A                    F#
		Снегири-негири ты же знаешь, ты же знаешь.