
		Камарека

!		Песню можно играть в две гитары.
!		Здесь приведены сольные партии и,
!		надписанные над ними, аккорды.

Вступление:	<F G C> } 2 раза

!		Партия1
>		   Am     G          C     Am          F     G         C
		E|--8--5--3-5--0-----0--3--0-----------8--5--3-5--0-------|
		B|----------------3-----------3-1--------------------3-1--|

>		       С
		Я с надеждой смотрю в эту чистую воду,
>		G          C
		Камарека, дай мне свободу,

		Помоги мне быть новым с каждым рассветом
>		       G               C
		Через Волгу в Каспий следующим летом.

>		       Am               G
		Там зачечь огонь на заброшенном пляже,
>		         F                 C
		И быть может понять что чужое, что наше,
>		       Am                   G
		И на время забыть, что мы все игроки,
>		 F     G       C
		Камарека, помоги.

!		Партия1

		Ты напоешь меня посой спозаранку,
		Ты мне простишь эту вечную пьянку,
		Ты согреешь меня своим бабьим летом,
		И, может быть, здесь найду я ответы.

		Будем пеьт по ночам любимые песни,
		Раздавать друг другу награды из жести
		И на время забудет, что мы все игроки,
		Камарека, помоги.

!		Партия1

		Ты умеешь хранить холод талого снега,
		У тебя глубина звёздного неба,
		И мы видим в воде своё отраженье,
		И, глядя в себя, мы просим прощения.

		И зажжём огонь на заброшенном пляже,
		И быть может поймём что чужое, что наше,
		И на время забудем, что мы все игроки,
		Камарека, помоги.

!		Партия2
>		   Am               G            F              C     Am         G
		E|---------------------3---0--3--5--5--8--5--8--12----12--10--8--5--3--0--
		B|--5--3--1---1--3--5-----------------------------------------------------
		G|------------------------------------------------------------------------

>		   F           G      C
		E|-----------------------|
		B|-5--3--1-----1--1-3-1--|
		G|----------2------------|

		Будем петь по ночам любимые песни,
		Раздавать друг другу награды из жести,
		И забыть, что мы уже почти старики,
		Камарека, помоги,
		Камарека, помоги,
		Камарека, помоги.

!		Партия1 } 2раза

P.S.:		Песня полностью подобрана мной, извиняюсь, что повторяюсь, но уж
		очень красиво она звучит вместе с соло.