*Оранжевое настроение* (1994)
		Я заполняю тобой

		1|-7-------5-----3-----2-----| } 2 раза
		2|----0------0-----0-----0---|
		3|-------0-----0-----0-----0-|

		1|-0-2-3-5-&gt;7-7--0-2-3-5-&gt;7-7|
>		G                               D Dsus2 Dsus4 D
>		    D     Dsus2      Dsus4           D
		Ты будешь утренней птицей в белой фате.
		Ты будешь мне сестрой во Христе.
>		    G
		Ты будешь строкой на тетрадном листе.
		Ты будешь стихом на могильной плите.
>		G                                  D Dsus2 Dsus4 D
		Я заполняю тобою свой холст на стене.
		Я заполняю тобою все то, что во мне.
		Я заполняю тобою свободный эфир.
		Я заполняю тобою оставшийся мир.

		Ты будешь красным цветком, что плывет по реке.
		Ты будешь бабочкой, что пока не в сачке.
		Ты будешь водой в раскаленном песке.
		Ты будешь звездой у меня на руке.

		Я заполняю тобою свой холст на стене.
		Я заполняю тобою все то, что во мне.
		Я заполняю тобою свободный эфир.
		Я заполняю тобою оставшийся мир.
>		    G                                D Dsus2 Dsus4 D
		Ты будешь утренней птицей в белой фате.
		Ты будешь мне сестрой во Христе.
		Ты будешь строкой на тетрадном листе.
		Ты будешь стихом на могильной плите.