
		Орел
!		Александр Маршал (Парк Горького)

>		Am        E              Am
		Когда то помню в детстве я
>		          F        C
		Мне пела матушка моя
>		           F                 C
		О том, что есть счастливый край
>		           E                 Am
		В котором жизнь не жизнь, а рай

		Там нет ни слез ни бед не бурь
		А в небе чистом как лазурь
		Над очертаньем рек и сел
		Парит парит степной орел

>		E      Am    F  C
Припев:		Не улетай не улетай
>		E       Am   F    C
		Еще немного покружи
>		E           Am     G       C
		И в свой чудесный дивный край
>		          Dm       E7
		Ты мне дорогу покажи

		И хоть он очень далеко
		Ты долетишь туда легко
		Преодолеешь путь любой
		Прошу возьми меня с собой
		Возьми меня с собой...

		С тех пор прошло не мало лет
		И сказки нет и птицы нет
		Но иногда подняв глаза
		Гляжу с тоской я в небеса

		И может быть в судьбе моей
		В один из хмурых серых дней
		Неся надежду и тепло
		Мелькнет орлиное крыло

!		Припев } 2 раза