
		Полет

>		  Аm                C
		Тускнут все лампы и дым сигарет,
>		   G                     Dm
		Чёрные стены и мыслей секрет,
>		  Am                     F
		Голое сердце, душа как окно,
>		 G                             Dm
		Есть одно средство – известно оно:

Припев:		<       Em>
		Полёт к новым мирам
>		        F
		Полёт над землёю,
>		       G7
		Полёт к звёздным домам,
>		        C
		Полёт рядом с тобою.
>		         Am	         C
		Взлететь в небо срелой, расправить гордые крылья,

>		 G                         Dm
		И быть свободной такой с тобой.

>		   Am                          C
		Дай мне надежду на радость и свет,
>		   G                       Dm
		Дай мне на сотни вопросов ответ,
>		       Am                   F
		В дальние страны открой мне пути,
>		      G                     Dm
		В мир чувств и красок меня позови.

!		Припев

>		        Am                               C
		Задвинув глубже печаль, сдавлю кричащее горло,
>		          G                 Dm
		И сброшу мнений вуаль – и в даль.

!		Припев } 2 раза