
		Гололед

>		    C#7               F#m        Hm                 F#m
		Гололед на земле, гололед, целый год напролет - гололед.
>		                      Hm         E                 A
		Гололед на земле, гололед, будто нет ни весны, ни лета,
>		        Hm                 F#m          C#7                 F#m
		Чем-то скользким одета планета, люди, падая, бьются об лед.
>		    Hm        C#7     F#m        G#7                F#m
		Гололед на земле, гололед, целый год напролет - гололед.

		Даже если планету в облет, не касаясь планеты ногами,
		Не один, так другой упадет, гололед на земле, гололед,
		И затопчут его сапогами.

		Гололед на земпле, гололед, целый год напролет - гололед.
		Гололед на земле, гололед, будто нет ни весны, ни лета,
		Чем-то скользким одета планета, люди, падая, бьются об лед.
		Гололед на земле, гололед, целый год напролет - гололед.