
		О друге

>		Am           E7
		Если друг оказался вдруг
>		Am
		И не друг, и не враг, а так.
>		A7                Dm
		Если сразу не разберешь,
>		G7                C   E7
		Плох он или хорош.
>		Am              Dm
		Парня в горы тяни - рискни.
>		Am
		Не бросай одного его.
>		E7
		Пусть он в связке одной с тобой,
>		Am
		Там поймешь, кто такой.

		Если парень в горах не ах,
		Если сразу раскис и вниз,
		Шаг ступил на ледник и сник,
		Оступился - и в крик,
		Значит, рядом с тобой чужой.
		Ты его не брани - гони.
		Вверх таких не берут, и тут
		Про таких не поют.

		Если ж он не скулил, не ныл,
		Если хмур был и зол, но шел,
		А когда ты упал со скал,
		Он стонал, но держал,
		Если шел он с тобой, как в бой,
		а вершине стоял, хмельной,
		Значит, как на себя самого,
		Положись на него.