
		Разбойничья

>		         Am
		Как во  смутной волости,
>		 A7              Dm
		В лютой  злой губернии
>		      H7
		Выпадали молодцу
>		             E7
		Все шипы да тернии.
>		         Am
		А он обиды зачерпнул, зачерпнул
>		 A7            Dm
		Полные пригоршни.
>		                   F
		Ну а горя, что хлебнул,
>		            E7
		Не бывает горше.

>		                          Am
		       Пей отраву, хоть залейся,
>		           A7           Dm
		       Благо денег не берут.
>		                           F
		       Сколь веревочка не вейся,
>		                           E7 (Am)
		       Все равно совьешься в кнут.      } 2 раза

		Гонят неудачника
		По миру с котомкою.
		Жизнь текет меж пальчиков
		Паутинкой тонкою.
		А которых повело, повлекло
		По лихой дороге,
		Тех ветрами сволокло
		Прямиком в остроги.

		       Тут на милость не надейся -
		       Стиснуть зубы да терпеть.
		       Сколь веревочка не вейся,
		       Все равно совьешься в плеть.    } 2 раза

		Ах, лихая сторона,
		Сколье в тебе не рыскаю,
		Лобным местом ты красна
		Да веревкой склизкою.
		А повешенным сам дьявол-сатана
		Голы пятки лижет.
		Ех, досада, мать чесна,
		Не пожить, не выжить.

		       Ты не вой, не плачь, а смейся -
		       Слез-то нынче не простят.
		       Сколь веревочка не вейся,
		       Все равно укоротят.     } 2 раза

		Ночью думы муторней,
		Плотники не мешкают.
		Не успеть к заутрене -
		Больно рано вешают.
		А ты об этом не жалей, не жалей,
		Что тебе отсрочка.
		На веревочке твоей
		Нет не узелочка.

		       Лучше ляг да обогрейся,
		       Я, мол, казни не просплю.
		       Сколь веревочка не вейся,
		       А совьешься ты в петлю. } 2 раза