*А ВОТ ТАК* (1986), *РАВНОДЕНСТВИЕ* (1987)
		Аделаида

>		 Am              Em
		Ветер, туман и снег.
>		 Am               Em   Am,Em,C
		Мы - одни в этом доме.
>		    C               G            Am,G,F
		Не бойся стука в окно - это ко мне,
>		     F        Em
		Это северный ветер, мы у него в ладонях.

>		 C  G                     Am   Am,Em,C
		Но северный ветер - мой друг,
>		C/A                   Em
		Он хранит все, что скрыто.
>		C           G
		Он сделает так,
>		          Am                 Em
		Что небо будет свободным от туч
>		 F
		Там, где взойдет звезда
>		     Em
		Аделаида.

		Я помню движение губ,
		Прикосновенье руками.
		Я слышал, что время стирает все.
		Ты слышишь стук сердца - это коса нашла на камнень.
		И нет ни печали, ни зла,
		Ни горечи, ни обиды.
		Есть только северный ветер,
		И он разбудит меня
		Там, где взойдет звезда
		Аделаида.