*Треугольник* (1978)
		Козлодоев

>		Am
		Сползает по крыше старик Козлодоев,
>		Dm        E7       Am
		Пронырливый, как коростель.
>		Am
		Стремится в окошко залезть Козлодоев
>		Dm         Em        Am
		К какой-нибудь бабе в постель.

>		C         C/H     F
		Вот раньше, бывало, гулял Козлодоев,
>		G              C     C7
		Глаза его были пусты.
>		F           A7        Dm       Dm(maj)7
		И свистом всех женщин сзывал Козлодоев
>		Am       E          Am
		Заняться любовью в кусты.

		Занятие это любил Козлдоев
		И дюжину враз ублажал.
		Кумиром народным служил Козлодоев
		И всякий его уважал.
		А ныне, а ныне, попрятались, суки,
		В окошки отдельных квартир
		Ползет Козлодоев, мокры его брюки,
		Он стар, он желает в сортир.

!		где, a[b(c)]
!		a - нота
!		b - струна
!		c - лад

		e[6(0)], g[6(3)], e[6(0)], g[6(3)], h[5(2)], e[4(2)], e[4(2)]
		e[6(0)], g[6(3)], e[6(0)], g[6(3)], h[5(2)], e[4(2)], e[4(2)]
		h[5(2)], h[5(2)], c[5(3)], h[5(2)], a[5(0)]
		a[5(0)], a[5(0)], h[5(2)], a[5(0)], g[6(3)]
		g[6(3)], g[6(3)], a[5(0)], f#[6(2)], e[6(0)]

!		Все это безобразие можно сыграть и в верхних октавах,
!		но так IMHO более подходит к образу Козлодоева