*ТАБУ* (1982)
		Мне снится пепел

		                                       VI X V
!		Проигрыш до, после и между куплетов: <E A# D A>

		                  VI                 V
>		E                 A#                 A
		Я вижу провода, я жду наступленья тепла.
		Мне кажется порой, что я из стекла, и ты из стекла,
		Но часто мне кажется что-то еще:
		             VI X V
>		           E A# D A
		Мне снится пепел.

		Моя эффективность растет с каждым днем,
		Я люблю свои стены, я называю их "дом".
		Ко мне поступают сигналы с разных сторон,
		Мне снится пепел.

		Мне нравится сталь тем, что она чиста,
		Мне нравится жизнь тем, что она проста,
		Напомни мне улыбнуться, когда ты видишь меня,
		Мне снится пепел...