*РАДИО АФРИКА* (1983)
		Рок-н-ролл мертв

>		   Am          G      E    Am
		Какие нервные лица - быть беде.
>		   C           G        E        Am
		Я помню, было небо, я не помню, где.
>		       C        G         E          Am
		Мы встретимся снова, мы скажем: "Привет !".
>		    F                 G
		В этом есть что-то не то,

>		  Dm        Am      G    Am
		Рок-н-ролл мертв, а я еще нет,
>		    Dm      Am      G
		Рок-н-ролл мертв, а я ...
>		 C           G       Em           Am
		Те, что нас любят, смотрят нам вслед,
>		 F          C       G          Am
		Рок-н-ролл мертв, а я ... еще нет.

		Отныне время будет течь по прямой.
		Шаг вверх, шаг вбок, и их мир за спиной.
		Я сжег их жизнь, как ворох газет,
		Остался только грязный асфальт и то,
		Что рок-н-ролл мертв, а еще нет.
		Рок-н-ролл мертв, а еще нет.
		Те, кто нас любят, смотрят нам всед,
		Рок-н-ролл мертв, а еще нет.

		Локоть к локтю, кирпич в стене.
		Мы стояли слишком гордо, мы платим втройне:
		За тех, кто шел с нами, за тех, кто нас ждал,
		За тех, кто никогда не простит мне то,
		Что рок-н-ролл мертв, а еще нет.
		Рок-н-ролл мертв, а еще нет.
		И те, кто нас любят, смотрят нам всед,
		Рок-н-ролл мертв, а еще нет.

-

		<      Em      Hm     G      Em
		              Hm         G       D
		      G        Hm        D          Em
		 C                (G) D

		Am         Em      D      Em
		Am         Em      D
		G           Hm      D            Em
		C                  D          Em>