*РУССКИЙ АЛЬБОМ* (1991)
		Сирин, Алконост, Гамаюн

>		   C                             Am
		В жилищных конторах лесной полумрак,
>		C             G         F                 E
		На крышах домов - фонари с египетской тьмой.
>		 C       Am       C               Am
		Тронулся лед, так часто бывает весной
>		C              G                 F  E
		Живущим на льдинах никто не сказал,
>		                Am    C,[G->F->E]
		Что может быть так...

		Откуда нам знать, что такое волна?
		Полуденный фавн, трепет русалок во тьме...
		Наступает ночь - начнем подготовку к зиме;
		И может быть, следующим, кто постучит
		К нам в дверь,
		Будет война...

!		Мрачный проигрыш после второго куплета:

!		<a>[5(0)],<e>[4(2)],<a>[3(2)],<c>[2(1)] ------&gt; <Am>
!		<g>[6(3)],<d>[4(0)],<g>[3(0)],<h>[2(0)] ------&gt; <G>
!		<f>[6(1)],<c>[5(3)],<f>[4(3)],<a>[3(2)] ------&gt; <F>
!		<E> ("раскатистым" перебором)

		Я возьму на себя зеркала,
		Кто-то другой - хмель и трепетный вьюн...
		Все уже здесь: Сирин, Алконост, Гамаюн;
		Как мы условились, я буду ждать по ту
		Сторону стекла.