*БИБЛИОТЕКА ВАВИЛОНА* (1993)
		Сонет (Служенье муз)

Вступление:	<Em Am H7 Em>

>		          Em     Am         C  H7
		Служенье муз не терпит колеса,
>		        Em        Am        C    H7
		А если терпит - право, не случайно.
>		          Am     H7       Em   Em/G
		Но я вам не раскрою этой тайны,
>		          Am   C          H7
		А лучше брошу ногу в небеса.

		Ты возражаешь мне, проклятая роса;
		Ты видишь суть в объятии трамвайном;
		Но все равно не верю я комбайну -
		Ведь он не различает голоса.

>		  Am      C     Am    C       H7
		Таинственный бокал похож на крюк,
>		    Am    C     Am  C    H7
		Вокруг него рассыпаны алмазы ...
>		        Am   H7            Em  Em/G
		Не целовался я с тобой не разу,
>		         Am    C             H7
		Мой омерзительный безногий друг.

>		   Am      H7                Em  Em/G
		Упреки я приму - но лишь тогда,
>		         Am         H7         Em
		Когда в пакгаузе затеплится вода ...

>		Em Am H7 Em