*КОСТРОМА MON AMOUR* (1994)
		Ты Нужна Мне

>		       Hm       D
		Ты нужна мне -
>		     G
		Ну что еще?
>		       Hm
		Ты нужна мне -
>		      D                     G
		Это все, что мне отпущено знать.
>		                    Am
		Утро не разбудит меня,
>		                       G
		Ночь не прикажет мне спать.
>	             Em
		И разве я поверю
>		                     G
		В то, что это может кончиться
>		          F#
		Вместе с сердцем?

>		       Hm         D
		Ты нужна мне -
>		           G
		Дождь пересохшей земле;
>		       Hm
		Ты нужна мне -
>		D                G
		Утро накануне чудес;
>		                        Am
		Это вырезано в наших ладонях,
>		                         G
		Это сказано в звездах небес,
>		             Em
		Как это полагается с нами -
>		    G
		Без имени
>		            F#
		И без оправданья...

>		                Hm
		Но, если бы не ты,
!		        <D(II)>         | <D(II)> - баррэ на 2 ладу (сдвинутый <С>)|
		Ночь была    бы
>		    Em       G     Hm
		Пустой темнотой;
>		            D(II)
		Если бы не ты,
>		       Em                    G    D
		Этот прах превратился бы в прах.

		И когда наступающий день
>		     G                  Em
		Отразится в твоих вертикальных зрачках,

		Тот, кто закроет мне глаза,
>		     F#
		Прочтет в них

		Все то же:
>		       Hm
		Ты нужна мне.

Проигрыш:	<Hm G F#>
>		Hm D(II) F#
>		Em F#m G F# Em F#
>		Hm Eb G F#
>		F# Em G F#

>		Hm
		Окружила меня стеной,

		Протоптала мне
>		    G        F#
		Тропу через поле;
>		       D               G
		А над полем стоит звезда -
>		               F#     Hm
		Звезда без причины.