*ДЕТИ ДЕКАБРЯ* (1985)
		Я змея

>		Em                 Hm
		Ты улыбаешься - наверно, ты хочешь пить.
>		Em                  Em7            A7
		Я наблюдаю - я ничего не хочу говорить.
>		       Em G6/7+               H7
		Я - змея,       я сохраняю покой.
		 <Am>       </G>  </A>     </H  C>    </G      H/F#   Em>
		Сядь ко мне ближе и ты     узнаешь, кто я такой.

		Я знаю тепло камня, я знаю запах и цвет.
		Но когда поднимаются птицы, я подолгу гляжу им вслед.
		Я - змея, я сохраняю покой.
		Сядь ко мне ближе и ты узнаешь, кто я такой.

		Иногда я гоню их прочь, иногда я хочу им петь.
		Иногда я хочу забиться в угол, затихнуть и умереть.
		Но я - змея, я сохраняю покой.
		Сядь ко мне ближе и ты узнаешь, кто я такой.

		Ты улыбаешься: должно быть, ты ждешь ответа.
		Дай руки! Я покажу тебе, как живое дерево станет пеплом.
		Я - змея, я сохраняю покой,
		Смотри на свои ладони - теперь ты знаешь, кто я такой.

!		   <G6/7+> = <Em H>
		[-O-+---+---+---+
		---+---+-O-+---+
		---+---+---+-O-+
		x--+---+---+---+
		---+-O-+---+---+
		---+---+---+---+]