B-sides and Rarities
		Pen Cap Chew

Intro:		Riff A
		4: 2 2 2 2
		5: 2 2 2 2
		6: 0 0 0 0 3~~~
!		play that 3x then play
		4: 2 2 2 2  )~~~
		5: 2 2 2 2 4
		6: 0 0 0 0
!		play Riff A once again, then play
		4: 2 2 2 2  )~~~
		5: 2 2 2 2 4    4 2
		6: 0 0 0 0
!		then play riff A twice

Verse:		<E5> palm muted, then later in the verse, Riff A
Chorus:		<B5 A5 F#5 A5 E5 G5 D5 F5>(8th Fret)

!		TABULATURE DEFINITION
!		What all the little symbols in the tab mean...
!		)   = Bend
!		/   = slide
!		~~  = vibrato
!		^   = hammeron/pulloff
!		PM  = Palm mute
!		*   = uncontrolled feedback
!		x\x = pick scrape
!		NH  = Natural Harmonic
!		+   = Tremelo Pick
!		)   = Unison Bend
!		)
!		@@@@@=Smash Guitar