B-sides and Rarities
		Return Of The Rat

Verse:		<G#5 B5 F#5>

Chorus:		<Bb5 B5 G#5> } play 3x then:
>		Bb5 B5 Bb5 G#5

End Of Chorus:	<F#5 B5 C#5>

Solo:		4: 4/6~~~~~~~~~~~~~~~~~~~~~~~~~~~~~~~

		2: /12 11 11 12 12 12 12 12 11 9 9 9/11 12 11 12 12 12 11 12 11 9 9 9

		2: /14 12
		3:        12~~~ 11 11^12^11
		4:                          14
!		play that 4x, then play:
		4: 6   5
		5:       6   5 4 3

!		TABULATURE DEFINITION
!		What all the little symbols in the tab mean...
!		)   = Bend
!		/   = slide
!		~~  = vibrato
!		^   = hammeron/pulloff
!		PM  = Palm mute
!		*   = uncontrolled feedback
!		x\x = pick scrape
!		NH  = Natural Harmonic
!		+   = Tremelo Pick
!		)   = Unison Bend
!		)
!		@@@@@=Smash Guitar