Nevermind (1991)
		Stay Away

Intro/Chorus:	3: 2 2  4 4 4        5    5 6
		4: 0 0  4 4 4   3 3  5    5 6
		5: 0 0  2 2     3 3  3  0 3 4
		6:            0 1 1

Verse:		            )(
		3: 4/5 5 5 5 (5)

Bridge:		2: 3                       )(
		3: 2                  3 3 3 (3)
		4: 0   0   4   4   4
		5:     0   4     4 4
		6:       0 2

!		TABULATURE DEFINITION
!		What all the little symbols in the tab mean...
!		)   = Bend
!		/   = slide
!		~~  = vibrato
!		^   = hammeron/pulloff
!		PM  = Palm mute
!		*   = uncontrolled feedback
!		x\x = pick scrape
!		NH  = Natural Harmonic
!		+   = Tremelo Pick
!		)   = Unison Bend
!		)
!		@@@@@=Smash Guitar