
		Не тормози

		 <Am                   C>
		На контурной карте рукою
		  <F        E          G>
		Намечен тернистый маршрут.
		Устал машинист, он не знает покоя,
		Колеса по рельсам бегут.

Припев:		         <C G         C  G>
		Не тормози! Не тормози!
		     <C          G       F>
		Подбрось еще в топку угля!
		Не тормози! Не тормози!
		Подбрось еще в топку угля!

		Летит паровоз как ракета,
		Кондуктор на тормоз нажал.
		К нему подошел паренек с пистолетом
		И тихо на ухо сказал:
	
Припев:
		Забавы для.

		В клочки тишину разрывают:
		На станции в колокол бьют.
		Ревет паровоз, он предела не знает,
		Пар валит и рельсы поют:

!		Припев