
		По дороге разочарований

>		A       C#7          F#m
		По дороге разочарований
>		A         C#7        F#m
		Снова очарованный пройду.
>		A           C#7       F#m
		Разум полон светлых ожиданий
>		A           C#7       F#m
		Сердце чует новую беду.

		До чего же вновь меня тревожит
		Голос, что зовёт из темноты:
		"Путь еще  не пройден, век не прожит,
		Тою ли дорогой ходишь ты?"

>		       D                        A
		       То ли темнота глаза таращит,
>		       D                        A  C#7
		       То ли тишина скрывает крик:
>		       F#m                      C#m   C#m Cm Hm
		       "Где скажи искать тебя, пропащий,
>		       Hm         C#7           F#m
		       Оглянешься ты уже старик..."

		По дороге смутных побуждений,
		Там, где воздух яростен и свеж,
		Долог путь моих перерождений,
		В дальний край несбывшихся надежд.

		Сбросив гору сплеч, расправив плечи,
		Гордо приказав себе:"Лети!"
		Если я попался вам навстречу,
		Значит вам со мной не по пути.

		     Слышу голоса, что вечно правы,
		     И пугаюсь этой правоты:
		    "Для того роса, чтоб лечь на траву,
		     По утру с росой растаешь ты..."

		По утру, дорогой откровений,
		Мимо родника девичьих слез,
		Выйду возле кладбища сомнений
		На крутой отчаянья утес

		В лад весне и с осенью в ладу
		В забкий час назначенных свиданий,
		Снова очарованный пойду
		По дороге разочарований