
		Так бывает

>		        G        D
		Так бывает, обещает
>		      Em            C
		Утро ясный теплый день,
>		       G              D
		А к обеду дождь со снегом
>		       C        G
		Затевают канитель.
>		  D      G          D
		Я-то знаю, что скрывает
>		       Em      C
		Дождевая пелена:
>		          G             D
		Смех и горе - все проходит,
>		        C Am       G    D
		Вслед зиме глядит весна.

		Будет время для апреля
		После мартовских ветров,
		Лишь бы сбылось все, что снилось,
		Стал бы мир не так суров.
		Год за годом, повторяясь,
		Время прямо держит путь,
		Можно все начать сначала,
		Hичего нельзя вернуть.

		Помню, в детстве знал я средство
		Hеудачи избегать -
		Строил крепости из кресел
		И еще умел летать.
		Вот бы мне подняться в небо
		И усталость сбросить с плеч.
		Мир-согласье, волю-счастье
		Где найти и как сберечь?

		Счастье это только лето,
		В ожидании весны,
		Краткий миг во власти света,
		Посреди кромешной тьмы
		Цепь закатов и рассветов,
		Долгих зим, коротких лет.
		Тень вопроса, след ответа,
		Крылья есть, а счастья нет.