*На краю времени*
		Звон монет
!		(Мелисов)

Вступление:	<Am F G> (сколько раз-не помню)

>		Am                    F     G
(1)		ЖИзнь беспокойной у неГО быЛА,
>		Am                         F    G
		ВЕдь там, где войны, там егГО деЛА.
>		F
		Но, споткнувшись раз
>		G
		И не выполнив приказ,
>		Am
		Клятву позабыл!
>		F
		Он в ночи дал знак,
>		G
		Чтобы цель увидел враг
>		Am         Gm#
		И всех погубИЛ!

>		  Am      F
Припев:		ЗвОн монЕт
>		     G            E
		ЗатмеВАет белый свЕТ,
>		     F               Dm    C G
		ОслепЛЯет тех, кто слАб душО-Ю!
>		Am  F         G         E
		Я убИт, но возМЕздие спеШИт. -
>		     F            Dm   C G
		Я верНУсь из ада ЗА тобБ-Ю!

(2)		Пусть жажда мщения горит во мне,
		Скоро предатель смерть найдет в огне.
		Но не зная брода
		И не зная время года,
		Я его найду!
		Он не верит в Бога,
		Он идет своей дорогой
		Прямо в пустоту!

!		Припев.

!		соло (аккорбы походу те же)

		Но не зная брода... (куплет 2 с этой фразы)

!		Припев.