
		Королевство слез
!		(Захаров)

>		Em              C                  D
		Эй, кто видел огонь - поднимите глаза!
>		Em             C                    D
		Кто умеет молчать - пророните хоть слово!
>		Em           C                    D
		В этом мире покой, словно с неба гроза,
>		           H7             C
		Этот мир породила скупая слеза -
>		           D                H7
		Никогда и нигде не найдёте его вы!

		Равнодушие душ, бессердечность сердец.
		Поскользнуться, упасть равносильно здесь смерти
		Этот мир мне на сердце оставил рубец,
		Ведь корона здесь - это терновый венец,
		Но она так идёт новоизбранной жертве.

>		C          D
Припев:		Высоко в небесах,
>		        H7                 Em
		Где нет боли, и нет слова ?страх?,
>		        C               D                 H7
		Там сбываются сны, и находится мир наших грёз.
>		         C     D     H7               Em
		Только Ангел и Бес позабыли про силы небес
>		     C              D                  Em
		И дерутся за власть над Королевством из слёз!

		И дороги из льда от замёрзшей воды
		Нам мешали пройти и ведут от подножия к вершине.
		Здесь любой тихий смех был преддверием беды,
		Но её не найдёшь, не увидишь следы.
		И запутались мысли все, как в паутине!

		А коль разум бессилен - на троне душа.
		И разбитым сердцам вновь являются грёзы!
		Говорят, что они здесь не стоят гроша,
		Что небесные силы здесь судьбы вершат,
		Но тогда почему снова падают слёзы?

		Высоко в небесах...

!		соло Рома

		Высоко в небесах...
		И дерутся за власть над королевством,
		Час королей - другим здесь не место,
		Не место на троне Королевства из слёз!