
		Кумир
!		(музыка Р.Захаров/Р.Пулин, слова Р.Захаров)

!		(Соло - вступление)
>		Am                       C                  F                    G
		1||
		2|3--1--3-3-3-3-1--3-1|1--0--1-1-1-1-0--1-0|1-1-1-1-1--0-0-0-0-0|0-0-0-0-0--3-3-3-3-3|
		3|2--2--2-2-2-2-2--2-2|0--0--0-0-0-0-0--0-0|2-2-2-2-2--2-2-2-2-2|0-0-0-0-0--0-0-0-0-0|
		4|2--2--2-2-2-2-2--2-2|2--2--2-2-2-2-2--2-2|3-3-3-3-3--3-3-3-3-3|0-0-0-0-0--0-0-0-0-0|
		5||
		6||

>		Am            C
		Лунный свет в окно струится,
>		Am            C
		Лишь тебе одной не спится.
>		F                                 G
		Ты соткана из чувств, только молода,
>		               Am
		Но любовь пронзила сердце.

		Он постарше ненамного,
		У него своя дорога -
		Он, идол и кумир, перед ним весь мир,
		И таких, как ты, там сотни.

>		Am         C
		Кто осудит эту душу?
>		F                 G
		Смех друзей тянет вновь на дно.
		Эй, девчонка, их не слушай -
		Только ей уже всё равно.

		Он тебя в толпе заметил,
		Его взгляд был чист и светел,
		Ночь укрывала вас, страшно в первый раз...
		Вы теперь вдвоём навеки.

		Что вдруг потом случилось,
		Всё вдруг как-то изменилось
		Он обманул тебя, жалил не любя.
		Ты была его игрушкой.

		Кто осудит эту душу...

!		соло Роман Пулин

		Кто осудит эту душу...
		Кто осудит эту душу...

-

Вступление:	<Dm G F G>
>		Am G Am

>		Dm         G Am G Am
		Лунный свет в окно струится,
>		Dm           G
		Лишь тебе одной не спится.
>		 F       G
		Ты соткана из чувств, только молода,
>		               E           Am G Am
		Но любовь пронзила сердце.

		Он постарше на немного,
		У него своя дорога -
		Он, идол и кумир, перед ним весь мир,
		И таких, как ты, там сотни.

>		Dm         C
		Кто осудит    эту душу?
>		G            F        G
		Смех друзей тянет вновь на дно.
>		Dm           C
		Эй, девчонка,   их не слушай -
>		G        F     G
		Только ей уже всё равно.
>		Dm         E           Am G Am
		Он тебя в толпе заметил,
		Его взгляд был чист и светел,
		Ночь укрывала вас, страшно в первый раз...
		Вы теперь вдвоём навеки.
		Что же вдруг потом случилось,
		Всё вдруг как-то изменилось
		Он обманул тебя, жалил не любя.
		Ты была его игрушкой.
		Кто осудит эту душу?
		Смех друзей тянет вновь на дно.
		Эй, девчонка, их не слушай -
		Только ей уже всё равно.

!		Соло...

>		Dm         C
		Кто осудит    эту душу?
>		G   F        G
		Смех друзей тянет вновь на дно.
>		Dm           C
		Эй, девчонка,   их не слушай -
>		G        F     G
		Только ей уже всё равно.
>		Em         D
		Кто осудит    эту душу?
>		A   G        A
		Смех друзей тянет вновь на дно.
>		Em            D
		Эй, девчонка,   их не слушай -
>		A        G     A
		Только ей уже всё равно.
>		Em         F#

-

Вступление (там судя по всему на синтезаторе):
>		Am                       G                  F                    G
		1||
		2|3--1--3-3-3-3-1--3-1|1--0--1-1-1-1-0--1-0|1-1-1-1-1--0-0-0-0-0|0-0-0-0-0--3-3-3-3-3|
		3|2--2--2-2-2-2-2--2-2|0--0--0-0-0-0-0--0-0|2-2-2-2-2--2-2-2-2-2|0-0-0-0-0--0-0-0-0-0|
		4|2--2--2-2-2-2-2--2-2|2--2--2-2-2-2-2--2-2|3-3-3-3-3--3-3-3-3-3|0-0-0-0-0--0-0-0-0-0|
		5||
		6||

>		  Dm                  G
		Лунный свет в окно струится,  <C G C>
>		 Dm                  G
		Лишь тебе одной не спится.
>		 F              F              G
		Ты соткана из чувств, только молода,
>		             Em
		Но любовь пронзила сердце.
		Он постарше ненамного,
		У него своя дорога -
		Он, идол и кумир, перед ним весь мир,
		И таких, как ты, там сотни.
>		 Am           C
		Кто осудит эту душу?
>		  F                C         G
		Смех друзей тянет вновь на дно.
>		 Am                C
		Эй, девчонка, их не слушай -
>		  F            C    G
		Только ей уже всё равно.
		Он тебя в толпе заметил,
		Его взгляд был чист и светел,
		Ночь укрывала вас, страшно в первый раз...
		Вы теперь вдвоём навеки.
		Что вдруг потом случилось,
		Всё вдруг как-то изменилось
		Он обманул тебя, жалил не любя.
		Ты была его игрушкой.
		Кто осудит эту душу...
		Кто осудит эту душу...
		Кто осудит эту душу...

!		(Соло - вступление)