Эльфийская рукопись
		Пройди свой путь
!		(музыка и слова Юрий Мелисов)

!		Гитары у Эпидемии перестроены в ре диез
!		((<D#>) т.е. опущены на один лад).

>		Em C D

!		Dezmond:
(1)		Лу<Em>нный све<D>т
		И<H> холо<C>дный бле<D>ск плане<C>т
		На<G>м ука<D>зывают пу<C*>ть.
		Э<Em>ль в меха<D>х
		Ле<H>с в мерца<C>ющи<D>х огня<C>х
		На<G>м даю<D>т передохну<C*>ть.
		<H>Мы обречены<Em>.
		<G>Смешались реа<D>лии и сны<Em>.
		От вражеских гла<C>з
		Леса скроют на<Am>с
		И отзвуки фра<D>з!

>		C D
!		Dezmond&Torvald:
Припев:		<G>Пройди<C> свой пу<D>ть!
		О<Em>н ведь оди<C>н и с него<G> не сверну<D>ть,
		<Em>Пусть не знаешь заче<C>м, и не знаешь куда<Am> Ты идё<D>шь.
		Пройди свой путь!
		Ты не сумеешь назад всё вернуть,
		И не знаешь пока, что в конце тупика
		Ты найдёшь!

!		Dezmond:
(2)		Тень Войны,
		Боль моей чужой страны
		Нам промедлить не дадут.
		Ветер с гор,
		Свежесть ледяных озёр
		Нам усилий придадут.
		Мы обречены...
		<G>Смешались реа<D>лии и сны<Em>.
		От вражеских гла<C>з
		Леса скроют на<Am>с
		И отзвуки фра<D>з!

!		Dezmond&Torvald:
Припев:		Пройди свой путь!

!		соло Juron

!		Dezmond&Torvald:
Припев:		Пройди свой путь!

-

Проигрыш:	<D#m H C#> (аккорд <H> на 7-ом ладу. аккорд <C#> на 9-том ладу)

Соло:		H|-------------------7-6-7-7-7-9-7-6- \ несколько
		G|-8-6-8-6-8-8-8-8-8----------------- /    раз

Проигрыш:	<D#m H F# C#>

Соло:		G|-8... -4... -3... -2... - } 2 раза

>		D#m     C#  A#   H      C#      D#m
(1)		Лунный свет и холодный блеск планет
>		F#   C#       H    A#
		нам указывают путь
		Эльф в мехах, лес в мерцающих огнях
		Нам дают передохнуть

Переход:	<A#       D#m F#           C#     D#m>
		Мы обречены. Смешались реалии и сны.
>		               H               G#            A#  H C#
		От вражеских глаз леса скроют нас и отзвуки фраз.

Припев:		<D#m   H      C#    D#m         H       F#          C#>
		Пройди свой путь! Он, ведь, один и с него не свернуть.
>		D#m                 H                G#      A#  H C#
		Пусть не знаешь зачем и не знаешь куда ты идёшь.
		Пройди свой путь! Ты не сумеешь назад всё вернуть.
		И не знаешь пока что в конце тупика ты найдёшь.

!		Проигрыш и соло.

(2)		Тень войны, боль моей чужой страны
		Нам промедлить не дано
		Ветер с гор, свежесть ледяных озёр
		Нам усилий придадут!

!		Переход.
!		Припев.
!		Проигрыш и соло (соло пока не подобрал)
!		Припев.
!		Проигрыш и соло.