
		Иду, курю

>		Am           E                          Am
		Возвращаюсь раз под вечер, накурившись гашиша,
>		               E                       Am
		Жизнь становится прекрасна, и безумно хороша
>		  E     Am   E     Am D Am
		Иду, курю, иду, курю

		И в ушах звон шелестит листвою, и стоит туман над рекой Невой.
		Над рекой Невой стоит туман, над дурман травой стоит туман
		Над рекой Невой стоит туман, над дурман травой пам-парам-пам
		А я иду - а-а-а, курю - а-а-а, иду, курю

		Пройдусь по абрикосовой, сверну на виноградную
		И на тенистой улице я постою в тени.
		Иду, курю, иду, курю

-

>		  Am          E                          Am
		Возвращаюсь раз под вечер, обкурившись гашиша,
>		               E                       Am D Am
		Жизнь становится прекрасна, и безумно хороша
>		  E     Am   E     Am D Am
		Иду, курю, иду, курю
		И в ушах звон шелестит листвою, и стоит туман над рекой Невой.
		Над рекой Невой стоит туман, над дурман травой стоит туман
		Над рекой Невой стоит туман, над дурман травой пам-парам-пам
		А я иду - а-а-а, курю - а-а-а, иду, курю
		Пройду по абрикосовой, сверну на виноградную
		И на тенистой улице я постою в тени.
		Иду, курю, иду, курю