
		Мухи

!		Бас играет в таком духе:
>		     Am                              Dm              Am
		D|---|---|---|---|---|---|---|---|-2-0---|-3-0-3322--|---|---|---|
		A|---00--|-3-0---|---00--|-3-0-0033--|--03---|---|-3-0---|-3-0---|
		E|---|--03---|---|---|--03---|---|---|---|---|---|---|--03---|---|

>		         Am
		Иду я бывало
		Разину ебало
>		          Dm
		А мухи летят
>		             Am
		И летят и летят

		А после бывало
		Закрою ебало
		Они там жужжат
		И жужжат и жужжат