
		Человек и кошка

!		1 - на аккорде <Am> на второй струне палец смещается на первый лад
!		2 - на аккорде 1 вторая струна свободна

>		 Am        Am7+    Am7      D
		Человек и кошка  плачут у окошка
>		 F             Am     F           E7
		Серый дождик каплет прямо на стекло.
>		   Am         Am7+  Am7       D
		К человеку с кошкой едет неотложка,
>		 F        Am       D        E7     Am
		Человеку бедному мозг больной свело.

>		 G C           G             F           G
		  Доктор едет, едет сквозь снежную равнину.
>		   C         G      F          E7
		  Порошок целебный людям он везет.
>		   F         Am    F            A7
		  Человек и кошка порошок тот примут,
>		 Dm            Am    F  E7          Am
		  И печаль отступит, и   тоска пройдет.

		Человек и кошка дни с трудом считают,
		Вместо неба синего серый потолок.
		Человек и кошка по ночам летают,
		Только сон невещий крыльев не дает.

		Где ты, где ты, где ты, белая карета?
		В стенах туалета человек кричит.
		Но не слышат стены, трубы словно вены,
		И бачок сливной, как сердце, бешено стучит.

		<Am7+>  [x02110]
		<Am7>   [x02010]