
		Мой город
!		стихи: Булат Окуджава

>		     A        D        A
		Мой город засыпает. А мне-то что с того?
>		           E7                A
		Ну что с того, ну что с того?
>		              D          A
		Я был его ребенком, я нянькой был его...
>		            E7              A
		Ну что с того, ну что с того?
>		    A7                D
		Я был его рабочим, его солдатом был...
>		     H7                 E7
		Он слишком удивленно всегда меня любил.
>		                    A7         D       H7
		Он слишком отчужденно мне руку подавал,
>		    E7            F#m          E7         A
		по будням меня помнил, а в праздник забывал.

		И если я погибну, и если я умру,
		проснется ли мой город с тоскою поутру?
		Пошлет ли на кладбище перед заходом дня
		своих счастливых женщин оплакивать меня?..
		..Но с каждым днем все больше, все злей его люблю
		и из своей любови богов себе леплю.
		Мне ничего не надо, и сожалений нет:
		в руках моих гитара и пачка сигарет.