
		Солдат

Обозначения:	p - pull of
		D - вниз
		U - вверх

!		бой (идет на протяжении всей песни)

>		Am
		  D    U D    D   U D  D
		--0-x--0-0-x--0-x-0-0--0-x-------
		--1-x--1-1-x--1-x-1-1--1-x-------
		--2-x--2-2-x--2-x-2-2--2-x-------
		--2-x--2-2-x--2-x-2-2--2-x-------
		--0-x--0-0-x--0-x-0-0--0-x-------
		----x------x----x--------x-------

Соло в начале:	e---5-5------------------------
		b-------8p5--------------------
		g------------5-7-7--5p2--0-2---
		d------------------------------
		a------------------------------
		e------------------------------

!		fill 1
>		                F
		e---------------1-
		b---------------1-
		g------------0--2-
		d--------0-2----3-
		a--0-2-3--------x-
		e---------------x-

>		 Am
		Третьи сутки в пути, ветер, камни, дожди,
>		 Dm                   Am
		Всё вперёд и вперёд, рота прёт наша, прёт
>		 Am
		Третьи сутки в пути, слышь, браток, не грусти
>		 Dm                        Am
		Ведь приказ есть приказ, знает каждый из нас.

>		fill 1          F                   Em    Am
		Напишите письмецо, нет его дороже для бойцов,
>		fill 1          F                      E
		Напишите пару слов вы девчата для своих пацанов.

Припев:		 } 2 раза
>		 Am
		И на рассвете вперёд уходит рота солдат
		Уходит, чтоб победить и чтобы не умирать
>		 Dm
		Ты дай им там прикурить, товарищ старший сержант
>		 F                 E                    Am
		Я верю в душу твою солдат, солдат, солдат

		Третьи сутки в пути, ветер, камни, дожди
		На рассвете нам в бой, день начнётся стрельбой.
		Третьи сутки в пути, кто бы знал что нас ждёт,
		Третьи сутки в пути и рассвет настаёт.

		Напишите письмецо как живет там наш родимый дом?
		Из далёка-далека принесут его мне облака.

!		Припев } 2 раза

		e---5-5----------------------|-7-7---------------------
		b-------8p5------------------|-----10p7----------------
		g------------5-7-7--5p2--0-2-|----------7-9-9--7p4---4-
		d----------------------------|---------------------7---
		a----------------------------|-------------------------
		e----------------------------|-------------------------

>		 Hm
		Падала земля, с неба падала земля
		Разрывая крик в небе "Падла ты, война!"
>		 Em
		Плавилась броня, захлебнулся автомат
>		 F#
		Заглянул в глаза ты смерти, гвардии сержант!

-

    Соло:	1) -5-5----------------------
		2) -----8p5------------------
		3) ----------5-7-7--5p2--0-2-

		<Am>
    (1)		Третьи сутки в пути, ветер, камни, дожди,
	  	<Dm                  Am>
		Всё вперёд и вперёд, рота прёт наша, прёт
		Третьи сутки в пути, слышь, браток, не грусти
		Ведь приказ есть приказ, знает каждый из нас.

		<Fill 1         F                   Em    Am>
		Hапишите письмецо, нет его дороже для бойцов,
		<Fill 1         F                     E>
		Hапишите пару слов вы девчата для своих пацанов.

		<Am>
     Припев:	И на рассвете вперёд уходит рота солдат           \
		Уходит, чтоб победить и чтобы не умирать           \
		<Dm>                                                  \ 2 раза
		Ты дай им там прикурить, товарищ старший сержант    /
		<F                E                    Am>           /
		Я верю в душу твою солдат, солдат, солдат         /

    (2)		Третьи сутки в пути, ветер, камни, дожди
		Hа рассвете нам в бой, день начнётся стрельбой.
		Третьи сутки в пути, кто бы знал что нас ждёт,
		Третьи сутки в пути и рассвет настаёт.

		Hапишите письмецо как живет там наш родимый дом?
		Из далёка-далека принесут его мне облака.

!		Припев

    Соло:	1) -5-5----------------------|-7-7---------------------
		2) -----8p5------------------|-----10p7----------------
		3) ----------5-7-7--5p2--0-2-|----------7-9-9--7p4---4-

    (3)		<Hm>
		Падала земля, с неба падала земля
		Разрывая крик в небе "Падла ты, война!"
		<Em>
		Плавилась броня, захлебнулся автомат
		<G                             F#>
		Заглянул в глаза ты смерти, гвардии сержант!

     Припев:	<Hm>, <Em>, <G>, <F#>, <Hm>

!		Конец

Fill 1:		3) -----------0-
		4) -------0-2---
		5) -0-2-3-------

-

>		 Am
		Третьи сутки в пути,ветер камни дожди,
>		  Dm                                Am
		Все вперед и вперед,рота прет наша прет.
>		 Am
		Третьи сутки в пути,кто бы знал,что нас ждет,
>		 Dm                                Am
		Третьи сутки в пути,и рассвет настает.
>		 Am          F                  G          Am
		Напишите письмицо,нет его дороже для бойцов,
>		 Am          F                   G     E   E7
		Напишите пару слов,вы девчата для своих пацанов.

Припев:		< Am>
		И на рассвете вперед,уходит рота солдат,
>		 Dm
		Уходит чтоб победить,и чтобы не умирать.

>		 Am
		И дай им там прикурить,товарищ старший сержант,
>		  E                          Am
		Я верю в душу твою,солдат,солдат,солдат.
>		 Am
		И на рассвете вперед,уходит рота солдат,
>		    Dm
		Уходит чтоб победить,и чтобы не умирать.
>		  F
		И дай им там прикурить,товарищ старший сержант,
>		   E        Am
		Я верю в душу твою,солдат,солдат,солдат,солдат,
>		    Dm                             Am
		солдат,солдат,солдат,солдат.

		Третьи сутки в пути, ветер, камни, дожди,
		На рассвете нам в бой, день начнется стрельбой.
		Третьи сутки в пути, кто же знал, что нас ждет,
		Третьи сутки в пути, и рассвет настает.
		Напишите письмицо, как живет там наш родимый дом,
		Из далёка-далека принесут его мне облакааа.

!		Припев.

		Падала земля, с неба падала земля,
		Разрывая крик, с неба падал и десант,
		Плавилась броня, захлебнулся автомат,
		Заглянул в глаза ты смерти гвардии сержант.

!		Припев. (в последнем припеве слово"солдат" вместо 8раз поется 1раз.)