Майн Кайф (2000), Пост альбом (2000)
		Альрауне

>		Hm           G
(1)		Ты не умрёшь раньше, чем я.
>		E            G
		Ты проживёшь тысячу лет.
		Сердце моё - радость моя.
		Девочка - яд, девочка - смерть.

>		   Hm
Припев:		Но где-то там внутри себя боишься ты меня, меня,
>		  E                         G
		И любишь ты меня, меня, как я тебя, как я тебя.

(2)		Девочка - яд, девочка - смерть.
		Если бы взять и посмотреть.
		Что там внутри, с той стороны?
		С той стороны, где твои сны?

Припев:		Но где-то там внутри себя боишься ты меня, меня,
		И любишь ты меня, меня, как я тебя, как я тебя.
		Где-то там внутри себя боишься ты меня, меня,
		И любишь ты меня, меня, как я тебя, как я тебя.
		Люби меня, как я тебя.  \
		Как любит ангела змея.   \ 2 раза
		Как любит ангела змея.   /
		Как я тебя, как я тебя. /