Ураган (1996), 10 лет жизни (1998), Два корабля (1998)
		Два корабля

Проигрыш:	|<Am>:<Asus2>|<Asus>:<Am>|<C>:<Cmaj7>|<Em7+5>:<C>|

>		Am               C
(1)		Умирает капитан, и уходит в океан,
>		Dm                C
		Оставляя за собой розовую нить.
>		Am                       C
		Он раздавлен и распят, а корабли в порту стоят,
>		Dm               E7
		И движения руки хватит чтобы им поплыть.

>		     Am                  Fm         C
Припев:		Но забыли капитана два военных корабля,
>		    Am                      Fm            C
		Потеряли свой фарватер и не помнят где их цель.
!		     <G>                        (<G7>)
		Но осталась в их мозгах только сила и тоска
!		    <C>        (<Cmaj7    C            Cmaj7>)
		Непонятная свобода обручем сдавила грудь
!		     <Am>          (<Asus2       Am          Asus2>)
		И не ясно, что им делать или плыть, или тонуть
!		     <Dm>        (<Dsus2     Dm           Dsus2>)
		Корабли без капитана, капитан без корабля
>		B
		Надо заново придумать новый смысл бытия
>		     Am
		На фига.

(2)		Капитан без корабля, слева мертвая земля,
		Справа синяя змея, а прямо не пройти.
		Мертвецы в гробу лежат, а корабли в порту стоят,
		И движения руки хватит, чтобы нас спасти.

Припев:		Потеряли своё я два военных корабля,
		потеряли свой фарватер и не помнят, где их цель,
		и осталась в их мозгах только сила и тоска,
		Непонятная свобода обручем сдавила грудь
		и неясно, что им делать или плыть или тонуть,
		корабли без капитанов, капитан без корабля
		надо заново придумать некий смысл бытия...
		на фига?... на фига??? на фига???

!		Проигрыш

		 1      <Asus2>    1       <Asus>    1      <Cmaj7>    1      <Em7+5>    1      <Dsus2>
Аккорды:	|---+---+---+   |---+---+---+   |---+---+---+   |---+---+---+   |---+---+---+
		|---+---+---+   |---+---+-O-+   |---+---+---+   |---+---+-O-+   |---+---+-O-+
		|---+-O-+---+   |---+-O-+---+   |---+---+---+   |---+---+---+   |---+-O-+---+
		|---+-O-+---+   |---+-O-+---+   |---+-O-+---+   |---+-O-+---+   |---+---+---+
		|---+---+---+   |---+---+---+   |---+---+-O-+   |---+---+-O-+   |---+---+---+
		|---+---+---+   |---+---+---+   |---+---+---+   |---+---+---+   |---+---+---+
!		(Аккорды в скобках не существенны - играются для большей красоты)