
		"Hа войне"

		1)--0--0----3--3-1--0-------0--------0----------
		2)--1----1--0-------1-3-1-3-0--3-1-0-1----------
		3)--2-------0-------0-------1--------2----------
		4)--2-------0-------2-------2--------2----------
		5)--0-------0-------3-------2-------------------
		6)----------------------------------------------

		1)----0--------3-1-0----------------------------
		2)------1-0--0--------3-1-3-5\9\10--------------
		3)--2-------------------------------------------
		4)----------------------------------------------
		5)----------------------------------------------
		6)----------------------------------------------

!		Басовая партия

		[E|---------------------------------------------------------
		B|---------------------------------------------------------
		G|---------------------------------------------------------
		D|-------------------------------------------2-----2-------
		A|-----------------------------3-0-2-3-0-3-5---3-5---5-3-2-
		E|-5-0-3-5-0-5-4-3-0-2-3-0-2-3-----------------------------]

!		или

		4|-+--+--+-|-+--+--+--+--+-|-+--+--+--+--+-|-+--+--+--+--+--+--+---|
		5|-+--+--+-|-+--+--+-5-+---|-+---2-3-+-2-3-|-2-3-5-7-+-5-7-5-+--+--|
		6|-5-0-3-5-|-0-5-4-3-+-2-3-|-2-3-+---3-+---|-+--+--+-7-+--+--8-7-5-|

		4|-----------------|----------------|----------------|---------------|
		5|-----------------|----------------|3-----3---2-3-5-|7---5-7---5----|
		6|-5-0-3-5---0-5-4-|3-0-1-3---0-1-3-|--3-5-----------|--7---------8-7|