Пост альбом (2000)
		Никогда
!		Самойлов Вадим

>		 Am
		Когда взойдёт весна
>		            Dm
		И смерти вопреки
>		             F
		Сгорают от любви
>		               E
		Все призраки дворца
>		 Am
		Тысячелетний страх
>		            Dm
		Колени преклонит
>		           F
		И мёртвые уста
>		               E
		Словами жгут гранит

>		  Cm#          Hm   Fm#       A        E
Припев:		Я не забуду о тебе никогда, никогда, никогда
>		       Cm#         Hm          Fm#       E
		С тобою буду до конца, до конца, до конца.

		И мёртвый адмирал
		сойдёт со стен к свечам
		И пустотой зеркал
		Наполнит свой бокал
		И в гробовой тиши
		Провозгласит он тост
		За упокой души
		За вечную любовь