Позорная звезда (1993), 10 лет жизни (1998)
		Позорная звезда

>		Am Em Am Em Am D Am D

		Нас родила непонятная звезда.
		В нас оставил след, холодный свет.
		Ночь и Луна, потаенная война.
		Запрещенная мечта.

>		           E              Am
		Наша красота, подлая судьба
>		           E           Am
		Нас еще погубит навсегда.
>		          E             Am
		Это не беда, не твоя вина,
>		             Em          E
		Ты веди нас за собой, Позорная звезда.

		Да, мы рабы непонятной красоты.
		Одинокие воины.
		Наши мечты - это розы и шипы,
		Это пленники Луны.

		Наша красота, подлая судьба
		Нас еще погубит навсегда.
		Это не беда, не твоя вина,
		Ты веди нас за собой, Позорная звезда.