Пост альбом (2000)
		Пуля

>		Em
		Засыпает ветер в облаке,
>		         B C
		Умирает сила.
>		Em
		Тает пуля и летит во сне,
>		          B C
		Где ее носило.
>		Em
		Не буди ее, успокойся
>		      Cm
		Ты, моё горе.
>		  Em
		В этом сне она улетела
>		       C   B
		В облака, дура.

>		   Em
		Лети...
>		               Bsus4      Cm
		Лети, лети, я полечу с тобой...
>		   Em
		Летим...
>		                 Bsus4     Cm
		Летим, летим о стенку головой