
		Изгой

>		Am                         E7        Am
		Из дома старого я выйду в ночь
>		Dm                  G                   C
		И побреду во тьме от туда прочь.
>		Dm                            G
		Меня никто не станет звать,
>		C                             F
		Меня никто не будет ждать,
>		Dm              E7         Am
		Чужово всем некому искать.

>		                       Dm                 G
Припев:		Но может быть там, где всё согрето солнца лучём,
>		                    Dm                  G
		Может быть там, где люди лечатся добром,
>		                   Dm               G
		Может быть там, где не ступал человек сапогом,
>		                   E7                          Am
		Может быть там и есть РОДНОЙ ДОМ.

		И пускай мне негде уснуть,
		Я забуду обратный путь,
		Я иду в далёкий путь,
		И я дойду когда-нибудь,
		В мире я найду свой путь.

!		Припев