*ЗВЕЗДА ПО ИМЕНИ "СОЛНЦЕ"* (1988)
		Апрель

>		Em                G
		Над землей - мороз,
		Что не тронь - все лед,
>		Am             D         D7
		Лишь во сне моем поет капель.
>		Em                G
		А снег идет стеной,
		А снег идет весь день,
>		Am             D         Em
		А за той стеной стоит апрель.

>		                 Am        D        Em
		        А он придет и приведет за собой весну,
>		              Am         D      G
		        И рассеет серых туч войска.
>		              Am         D         Em
		        А когда мы все посмотрим в глаза его,
>		                    Am        D       Em
		        На нас из глаз его посмотрит тоска.
		        И откроются двери домов,
		        Да ты садись, а то в ногах правды нет.
		        А когда мы все посмотрим в глаза его,
		        То увидим в тех глазах Солнца свет.

		На теле ран не счесть,
		Нелегки шаги,
		Лишь в груди горит звезда.
		И умрет апрель,
		И родится вновь,
		И придет уже навсегда.

		        А он придет и приведет за собой весну,
		        И рассеет серых туч войска.
		        А когда мы все посмотрим в глаза его,
		        На нас из глаз его посмотрит тоска.
		        И откроются двери домов,
		        Да ты садись, а то в ногах правды нет.
		        А когда мы все посмотрим в глаза его,
		        То увидим в тех глазах Солнца свет.

-

Verse:		<Em G Am D>
Chorus:		<Am D Em Am D G Am D Em Am D Em>

Verse:		Над замлей мороз
		Что ни тронь, то лед
		Лишь во сне моем поет капель
		А снег идет стеной
		А снег идет весь день
		А за той стеной стоит апрель

Chorus:		А он придет и приведет за собой весну
		И рассеет серых туч войска
		А когда мы все посмотрим в глаза его
		На нас из глаз его посмотрит тоска
		И откроются двери домой
		Да ты садись, а то в ногах правды нет
		И когда мы все посмотрим в глаза его
		То увидим в тех глазах солнца свет

Verse:		На теле ран не счесть
		Не легки шаги
		Лишь в груди горит звезда
		И умрет апрель
		И родится вновь
		И придет уже навсегда

!		Chorus

-

		<                Em>
(1)		 Над землей - мороз,
		<G>
		 Что не тронь - все лед,
		<Am               D>
		 Лишь во сне моем поет капель.
		<Em>
		 А снег идет стеной,
		<G>
		 А снег идет весь день,
		<Am              D        Em>
		 А за той стеной стоит апрель.

		<        Am                  D      Em>
Припев:		А он придет и приведет за собой весну,
		<     Am                 D   G>
		И рассеет серых туч войска.
		<     Am                       D   Em>
		А когда мы все посмотрим в глаза его,
		<           Am         D         Em>
		На нас из глаз его посмотрит тоска.
		И откроются двери домов,
		Да ты садись, а то в ногах правды нет.
		А когда мы все посмотрим в глаза его,
		То увидим в тех глазах Солнца свет.

(2)		На теле ран не счесть,
		Нелегки шаги,
		Лишь в груди горит звезда.
		И умрет апрель,
		И родится вновь,
		И придет уже навсегда.

!		Припев