*НАЧАЛЬНИК КАМЧАТКИ* (1984)
		Гость

>		E              H
		Вечер. Я сижу дома.
>		        A        E   C
		Это зима, это декабрь.
>		 E            H
		Ночь будет холодной,
>		               A            E
		Если верить часам, она уже рядом...

>		  A       Gm# F#   E#   E
		   Эй! Кто будет моим гостем?
>		   A    Gm#   F#   E#   E
		   Эй! Кто будет моим гостем?

		Пить чай, курить папиросы,
		Думать о том, что будет завтра.
		Завидовать тем, кто знает, что хочет,
		Завидовать тем, кто что-нибудь сделал...

		   Эй! Кто будет моим гостем?

		Расскажите мне, что происходит.
		Удивите меня, расскажите мне новость.
		Убейте меня, рассмешите меня.
		Кто придет ко мне, подай голос!

		   Эй! Кто будет моим гостем?