*ЧЕРНЫЙ АЛЬБОМ* (1990)
		Кукушка

>		Am
		Песен еще ненаписанных, сколько?
>		         G    Dm    Am
		Скажи, кукушка, пропой.
>		 Am
		В городе мне жить или на выселках,
>		                            G   Dm
		Камнем лежать или гореть звездой?
>		                              Am
		                         Звездой.

>		    G      F               Am
		   Солнце мое - взгляни на меня,
>		   G      F                   Am
		   Моя ладонь превратилась в кулак,
>		    G          F             Am
		   И если есть порох - дай огня.
>		   GF   Am
		   Вот так... </Am C F/>

		Кто пойдет по следу одинокому?
		Сильные да смелые
		Головы сложили в поле в бою.
		Мало кто остался в светлой памяти,
		В трезвом уме да с твердой рукой в строю,
		                                 в строю.

		   Солнце мое - взгляни на меня,
		   Моя ладонь превратилась в кулак,
		   И если есть порох - дай огня.
		   Вот так...

		Где же ты теперь, воля вольная?
		С кем же ты сейчас
		Ласковый рассвет встречаешь? Ответь.
		Хорошо с тобой, да плохо без тебя,
		Голову да плечи терпеливые под плеть,
		                           под плеть.

		   Солнце мое - взгляни на меня,
		   Моя ладонь превратилась в кулак,
		   И если есть порох - дай огня.
		   Вот так...

INTRO SOLO:	1|--------------------------------------------------------------
		2|--------------------------------------------------------------
		3|----------9--------/9---7--9--12------------------------------
		4|--7---10-----10-------------------12---10--9----10--9--7------
		5|----------------------------------------------------------10--
		6|--------------------------------------------------------------

		1|--------------------------------------------------------------
		2|--------------------------------------------------------------
		3|----------9--------/9---7--9--12------------------------------
		4|--7---10-----10-------------------12---10--9----10--9--10--12-
		5|--------------------------------------------------------------
		6|--------------------------------------------------------------

		1|--------------------------------------------------------------
		2|--------------------------------------------------------------
		3|----------9--------/9---7--9--12------------------------------
		4|--7---10-----10-------------------12---10--9----10--9--7------
		5|----------------------------------------------------------10--
		6|--------------------------------------------------------------

		1|--------------------------------------------------------------
		2|-------------------------------------------------------10-----
		3|----------9--------/9---7--9--12--------------------9---------
		4|--7---10-----10-------------------12---10--9----10------------
		5|--------------------------------------------------------------
		6|--------------------------------------------------------------

-

Intro:		<Am C G9 Em/G>

Verse:		<Am>
		Песен еще не написенных сколько
>		         G   Dm      Am
		Скажи кукушка    пропой
		...
Chorus:		<G          F              Am>
		  Солнце мое взгляни на меня
>		G       F                     Am
		  Моя ладонь превратилась в кулак
		...

-

		<Am>
(1)		Песен еще ненаписанных, сколько?
		         <G     F   Am>
		Скажи, кукушка, пропой.
		В городе мне жить или на выселках,
		Камнем лежать или гореть звездой? Звездой.

		<G        F                Am>
Припев:		Солнце мое - взгляни на меня,
		Моя ладонь превратилась в кулак,
		И если есть порох - дай огня.
		Вот так...
		<|Am|C|G|F|>  } 2 раза.

(2)		Кто пойдет по следу одинокому?
		Сильные да смелые
		Головы сложили в поле в бою.
		Мало кто остался в светлой памяти,
		В трезвом уме да с твердой рукой в строю, в строю.

!		Припев

(3)		Где же ты теперь, воля вольная?
		С кем же ты сейчас
		Ласковый рассвет встречаешь? Ответь.
		Хорошо с тобой, да плохо без тебя,
		Голову да плечи терпеливые под плеть, под плеть.

!		Припев

Соло:		3) --------9----/9---7-9--12--------------------------
		4) -7---10---10---------------12---10-9-----10-9-7-5--

-

		<Am>
(1)		Песен, ещё не написанных, сколько,
		        <G      Dm>
		Скажи кукушка,
		   <Am>
		Пропой?
		В городе мне жить или на выселках?
		Камнем лежать
		Или гореть звездой,
		Звездой?
		<С        F               Am>
Припев:		Солнце моё, взгляни на меня:
		Моя ладонь превратилась в кулmак
		                               <F>
		И если есть порох, дай огня
		    <Am>
		Вот так

(2)		Кто пойдёт по следу одинокому?
		Сильные да смелые головы сложили в поле,
		В бою
		Мало кто остался в светлой памяти,
		В трезвом уме да с твёрдой рукой в строю
		В строю

Припев:		Солнце моё, взгляни на меня:
		Моя ладонь превратилась в кулак
		И если есть порох, дай огня
		Вот так

(3)		Где же, где теперь, воля вольная,
		С кем же ты сейчас ласковый рассвет встречаешь?
		Ответь!
		Хорошо с тобой да плохо без тебя
		Голову да плечи терпеливые под плеть
		Под плеть

Припев:		Солнце моё, взгляни на меня:
		Моя ладонь превратилась в кулак
		И если есть порох, дай огня
		Вот так

-

!		(Исполнение Би-2 "КИНОпробы")

		e||------------------------------------------------------------------|
		b||-0--3-7-5-7-5-7-10-5--3-2--2/3-2-0-3-0----------------------------|
		g||------------------------------------------------------------------|
		d||------------------------------------------------------------------|
		a||------------------------------------------------------------------|
		e||------------------------------------------------------------------|

>		Hm
		Песен еще ненаписанных, сколько?
>		         A    Em    Hm
		Скажи, кукушка, пропой.
>		   Hm
		В городе мне жить или на выселках,
>		                             A   Em    Hm
		Камнем лежать или гореть звездой? Звездой.

Chorus:		(лучше квинтами)
>		  A         G                Hm
		   Солнце мое - взгляни на меня,        (ход)

		e||---------------------------|
		b||---------------------------|
		g||---------------------------| басы
		d||---------4-5-4-2-0---------|
		a||---2-2-2-------------------|
		e||---------------------------|
!		               ИЛИ
		e||---------3-2-0-------------|
		b||---0-0-0-------3-(2)-------|
		g||---------------------------| соляк
		d||---------------------------|
		a||---------------------------|
		e||---------------------------| 
>		      A       G                    Hm
		        Моя ладонь превратилась в кулак,
>		      A             G            Hm
		        И если есть порох - дай огня.
>		      A   G       Hm   D  Em  F#m
		               Вот так...

		Кто пойдет по следу одинокому?
		Сильные да смелые головы сложили в поле, в бою.
		Мало кто остался в светлой памяти,
		В трезвом уме да с твердой рукой в строю, в строю.

		Где же ты теперь, воля вольная?
		С кем же ты сейчас ласковый рассвет встречаешь? Ответь.
		Хорошо с тобой, да плохо без тебя,
		Голову да плечи терпеливые под плеть, под плеть.

-

Соло:		e||---------0----0-----0--3------------------------0----0-----0--3--|
		b||-------1---1------3-------3--1-0-1-0----------1---1------3-------|
		g||---2-----------------------------------2-0-2----------------------|
		d||------------------------------------------------------------------|
		a||-----------------------------------------------------------------|
		e||-----------------------------------------------------------------|

		e|---------------3------------------------------------------------|
		b|---3--1-0--1-3------------------------------------------------|
		g|----------------------------------------------------------------|
		d|----------------------------------------------------------------|
		a|----------------------------------------------------------------|
		E|----------------------------------------------------------------|

Под припев:	e|----------2-0-----------0-------------2-0-----------2-0----------|
		b|------0-------0-----------3-------1-------1-----1-------1--------|
		g|--0-----0-----------2-------2--2----2--------2----2--------------|
		d|-----------------2----2------------------------------------------|
		a|-----------------------------------------------------------------|
		e|-----------------------------------------------------------------|