*ГРУППА КРОВИ* (1987)
		Легенда

		<        Hm>
		В сети связок
		<                        Fm#>
		В горле комом теснится крик,
		<      Hm>
		Но настала пора,
		<                      A>
		И тут уж кричи, не кричи.
		<       D>
		Лишь потом
		<                         A>
		Кто-то долго не сможет забыть,
		<       Hm>
		Как, шатаясь, бойцы
		<                    Fm#>
		Об траву вытирали мечи.

		И как хлопало крыльями
		Черное племя ворон,
		Как смеялось небо,
		А потом прикусило язык.
		И дрожала рука
		У того, кто остался жив,
		И внезапно в вечность
		Вдруг превратился миг.

		И горел
		Погребальным костром закат,
		И волками смотрели
		Звезды из облаков.
		Как, раскинув руки,
		Лежали ушедшие в ночь,
		И как спали вповалку
		Живые, не видя снов...

		А "жизнь" - только слово,
		Есть лишь любовь и есть смерть...
		Эй! А кто будет петь,
		Если все будут спать?
		Смерть стоит того, чтобы жить,
		А любовь стоит того, чтобы ждать...
