*НОЧЬ* (1985)
		Мы хотим танцевать

>		 Em            D                  G
		Наше сердце работает, как новый мотор,
>		 Em                          D                 G
		Мы в четырнадцать лет знаем все, что нам надо знать,
>		  Em              Am               G
		И мы будем делать все, что мы захотим,
>		    Em       D                G
		Пока вы не угробили весь этот Мир.

>		  Em            D             G
		В нас еще до рождения наделали дыр,
>		    Em                    D          G
		И где тот портной, что сможет их залатать?
>		       Em      D         G
		Что с того, что мы немного того,
>		        Em       Am        G
		Что с того, что мы хотим танцевать?

>		       Em        Am               G
		Наше сердце работает, как новый мотор,
>		    Em     Am             G
		Почему и чего мы еще должны ждать,
>		  Em        Am                  G
		И мы будем делать все, что мы захотим,
>		    Em       Am              G
		А сейчас, сейчас мы хотим танцевать.

>		Em D          G
		Мы хотим танцевать.