*ПЕСНИ, НЕ ВОШЕДШИЕ В АЛЬБОМЫ*
		Песня кочегарам

>		 E
		Надело ходить на работу,
		Каждый день к девяти на работу.
>		 H
		Я нашел выход:
>		                E
		Я хочу быть кочегаром } 3 раза
>		                       A
		Работать сутки через трое.

>		    E
		    Эта песня кочегарам.
>		    A
		    Эта песня кочегарам.
>		    E
		    Эта песня кочегарам.
>		    H
		    Эта песня кочегарам.