*45* (1982)
		Солнечные дни

>		 Fm#            Hm          Cm#
		Белая гадость лежит под окном,
>		Fm#                 Hm      Cm#
		Я ношу шапку и шерстяные носки.
>		       Fm#          Hm           Cm#
		Мне везде неуютно, и пиво пить в лом.
>		 E                   D          Cm#
		Как мне избавиться от этой тоски
>		              Fm#    Hm Cm#
		По вам, солнечные дни?
>		 Fm#        Hm Cm#
		Солнечные дни.
>		 Fm#        Hm Cm#
		Солнечные дни. </E D C#/>

		Мерзнут руки и ноги, и негде сесть.
		Это время похоже на сплошную ночь.
		Хочется в теплую ванну залезть,
		Может быть, это избавит меня от тоски
		По вам, солнечные дни?
		Солнечные дни.
		Солнечные дни.

		Я раздавлен зимой, я болею и сплю,
		И порой я уверен, что зима навсегда,
		Еще так долго до лета, а я еле терплю,
		Но, может быть, эта песня избавит меня от тоски
		По вам, солнечные дни?
		Солнечные дни.
		Солнечные дни.