Домой (1989)
		Домой!
!		(Я. Дягилева)

>		Hm Em

>		Hm        Em       Hm     Em
		Hелепая гармония пустого шара
>		Hm          Em         Hm     Em
		Заполнит промежутки мертвой водой,
>		          Hm        Em      Hm  Em
		Через заснеженные комнаты и дым
>		          Hm      Em            Hm
		Протянет палец и покажет нам на двери,
>		  Em      Hm     Em  Hm
		Отсюда - домой...

>		          Am       F         Am      F
		От этих каменных систем в распухших головах,
>		      Am         F         Am         F
		Теоретических пророков, напечатанных богов,
>		    Am      F         Am        F       Am    F
		От всей сверкающей, звенящей и пылающей х..ни -
>		Hm   Em
		Домой...

		По этажам, по коридорам лишь бумажный ветер
		Забывает по карманам смятые рубли,
		Сметает в кучу пыль и тряпки, смех и слезы, горе, радость,
		Плюс на минус дает освобождение - домой...

		От холода и ветра, от холодного ума,
		От электрического смеха, безусловного рефлекса,
		От всех рождений и смертей - перерождений и смертей -
		Перерождений - домой...

		За какие такие грехи задаваться вопросом -
		Зачем и зачем, и зачем, и зачем, и зачем, и зачем, и зачем?..
		Домой...

-

>		   Hm       Em       Hm   Em
		Hелепая гармония пустого шара
>		   Hm          Em    Hm        Em
		Заполнит промежутки мертвой водой,
>		          Hm       Em        Hm  Em
		Через заснеженные комнаты и дым
>		          Hm        Em            Hm
		Протянет палец и покажет нам на двери,
>		   Em       Hm  Em Hm Em Hm
		Отсюда - домой...

>		         Am          F        Am         F
		От этих каменных систем в распухших головах,
>		      Am          F          Am         F
		Теоретических пророков, напечатанных богов,
>		     Am      F         Am        F         Am F
		От всей сверкающей звенящей и пылающей хуйни
>		   Hm  Em Hm Em
		Домой!

		По этажам, по коридорам лишь бумажный ветер
		Забивает по карманам смятые рубли
		Сметает в кучи пыль и тряпки, смех и слезы, горе - радость
		Плюс на минус дает освобождение
		Домой!

		От голода и ветра, от холодного ума
		От электрического смеха, безусловного рефлекса
		От всех рождений смертей перерождений
		Смертей перерождений
		Домой!

		За какие такие грехи задаваться вопросом зачем
		И зачем, и зачем, и зачем, и зачем...
		Домой!