Не положено (1987)
		Только дождь вселенский
!		(Я.Дягилева)

>		 C      F        D
		Только дождь вселенский нас утешит
>		 C        F    D
		Только страх реальный нам поможет
>		 C   F   D
		Душезаменитель нам спасенье
>		 C       F        D
		Мы не вспомним - нас забудут тоже

>		 Hm           E
		Наши слёзы - камни по макушкам
>		Hm               E
		Акт любви в большой холодной бане
>		 Hm             E
		Только ветер в рукавах и шапках

		Только дом, в котором очень тихо
		Жёлтый мир, которого всё больше

		Вечный путь от края и не дальше
		Сонный страх проститься со слезами

		Очень просто в море тонет остров
		Очень верно, если безответно

>		Hm       E     Hm         E    C F D
		Очень в точку, если в одиночку