(2002 г.)
		Halls Of The Blind.

Музыка:		Дрейк
Текст:		from Diablo I.

		<Dmaj> [123456]  <Dm> [123456]  <C> [123456]  <Gsus> [123456]
		     [000000     000000    000000       000000]
		     [000x00     000x00    00x000       0x0x00]
		     [0000x0     00x0x0    0x00x0       x000x0]

!		(перебором)
>		D maj     Dm            D7    Gsus
		I can see, what you see not,
		Vision milky, when eyes rot.
		When you turn, they will be gone
		Whispering their hidden song.

		Then you see that cannot be -
		Shadows move, where light should be.
		Out of darkness, out of mind
		Cast down into the Halls Of the Blind.