
		Yesterday

!		Каждый, я думаю, сочиняет что-либо.
!		У меня неплохо получаются пародии.
!		Вот одна из них...
!		(На мотивчик Yersterday)

>		  F                Em7  A7            Dm
		 За окном ....   снова ночь и в темноте ночной
>		B     C7        F                                 B[13331x]
		 Постоянно вижу облик твой.
>		  C  Dm7 G7     B  F
		 Ну почему     ты не со мной

		Знаю я.. что любовь ещё живет в тебе,
		И не знаю что же делать мне
		Но я хочу  сказать тебе:                     <C7>[013230]
		 <A11   A7     Dm C B   Dm    Gm6             Gm6>[333203]

Припев:		Знай   я    все  ещё люблю тебя
>		  C7           F
		М-м-м      люблю-ю

		I  sad something wrong, but I want to be

		With you-u-u-u-u-u

		Снова ночь...  у окна тихонечко пою
		Но тебя забыть я не могу
		Ведь я тебя люблю, люблю

!		Припев

>		              F     G7    B  F
		и в конце     Мм Мм Мм Мм Мм МмМм