
		Ария

		1|-3-----3--2-----2--0-----0--2-----2-*
		2|---0--------0--------1--------3-----*
		3|-----0--------0--------0--------2---*
		4|-2-----2--0-----0-----------0-----0-*
		5|-------------------3-----3----------*

		1|-3-----3--7-5-3-5-3--2-----2--5-3-2-3-2--0-----0--0-----0--2-----2-*
		2|---0-------------------0-------------------1--------1--------3-----*
		3|-----0-------------------0-------------------0--------0--------2---*
		4|-2-----2-------------0-----0-------------------------------0-----0-*
		5|-----------------------------------------3-----3--3-----3----------*