
		В лесу родилась елочка

		1|--------------------------9-7--7-5-5------------------------
		2|-0-9-9-7-7-5-0-0--0-9-9-7------------9-9-7-7-7--0-9-9-7-7-5-

-

		1|----5-5-3-5---------5-5-6---8--8-----6-6-5-3
		2|------------6-------------------------------
		3|--5-----------5-5-5-------5------7-7--------
		4|--------------------------------------------
		5|--------------------------------------------
		6|--------------------------------------------

		-----5-5-3-5----8-----6-6-5-3------5-5-3-5--|
		-6------------6---------------6-----------6-|
		---5--------------7-7-----------5-----------|
		--------------------------------------------|
		--------------------------------------------|
		--------------------------------------------|