
		Он не вернулся из чата.

>		    Am                    E
(1)		Почему всё не так? Вроде всё как всегда.
>		       E                Am
		Те же кнопочки, время и дата.
>		      Dm                  Am
		Та же мышь, та же клава и та же Винда,       \
>		       E                 Am                   } 2 раза
		Только он не вернулся из чата.               /

(2)		Он ругался, как чмо! И не в такт отвечал,
		Он залазил в чужие приваты!
		Он мне жить не давал, он ваш сервер сломал,  \ 2 раза
		А вчера не вернулся из чата.                 /

(3)		Нынче вырвалось вдруг, как модем из Сети,
		По ошибке ругнулся я матом -
		Друг, иди-ка ты на... А в ответ - тишина...  \ 2 раза
		Он вчера не вернулся из чата.                /

(4)		Нам и места на главной хватало вполне,
		Нам и весело было когда-то.
		Всё теперь одному... Только кажется мне,     \ 2 раза
		Будто я не вернулся из чата.                 /

(5)		И давно уж, наверно, свихнулся совсем,
		Тот, кто видел здесь нашего брата.
		Для меня будто гиря легла на модем,          \ 2 раза
		Когда он не вернулся из чата.                /

