
		Черный ворон

>		  Am       E       Am
		Черный ворон, черный ворон
>		  Am  Dm      Am
		Что ты вьешься надо мной
>		C      G      Am
		Ты добычи не дождешься
>		 Dm     E       Am
		Черный ворон, я не твой
	        Что ты когти запускаешь
		       Над моею головой
		       Иль добычу чаешь
		       Черный ворон я не твой
		Завяжу смертельну рану
		Подаренным мне платком
		А потом с тобой я буду
		Говорить лишь об одном
		       Полети в мою сторонку
		       Скажи матушке моей
		       Ты скажи моей любезной
		       Что за Родину я пал
		Отнеси платок кровавый
		Милой любушке моей
		Ты скажи она свободна
		Я женился на другой
		       Взял невесту тиху, скромну
		       В чистом поле под кустом
		       Обвенчальна была сваха
		       Сабля острая моя
		Калена стрела венчала
		Среди битвы роковой
		Вижу смерть моя приходит
		Черный ворон весь я твой
>		    Hm Em Hm
		Черный ворон, черный ворон
>		 Em
		Что ты вьешься надо мной
>		D      Em Hm
		Ты добычи не дождешься
>		 Em      F#     Hm
		Черный ворон, я не твой