
		Письмо от Мери Джейн

>		D#          A#           Cm  G# D#         A#         Cm    G#
		 Что видишь ты в моих глазах,    Когда с лица  спадают маски,
>		A#        Cm           G#    D#        A#     Cm     G#  A#
		  Когда туманом стелет мрак,   Съедает ночь дневные краски.
		  Когда луна глядит в окно, и ветер что-то тихо шепчет,
>		                                               Cm
		  и от усталости излечит, Подарит сны, покой и все,
>		       G#   A#
		  что нужно для того...

Припев:		<  D# A#             Cm         G#          D#  A#>
		       Чтоб жить спокойно и не думать о плохом.
>		              Cm               G#             D#
		       Письмо от Мери Джейн как в ясном небе гром.
>		 A#         Cm             G#              D#  A#
		   В душе покой, на сердце радость, в дом - тепло.
>		             Cm            G#
		   Письмо от Мери Джейн...

		И сразу цепи бытия, как лед под весенним солнцем,
		тают, рушатся, звеня, одним лишь словом из письма.
		Так нужным для меня...