
		Два белых снега
!		Юрий Саульский

>		           Am               C            G7                    C
		Ломилась в окна звездная сирень, висела ночь на тонкой нитке звука.
>		     Am                      C                 G7                   F
		Мне выпало две песни в этот день - в одной свидание, а в другой разлука.
>		            C     G              Am         F   C G7  Am    F   C G7  Am
		В одной свидание, а в другой разлука.

		Венок луны, надетый набекрень, и млечный путь, наброшенный на плечи.
		Мне выпало два ветра в этот день - один попутный, а другой на всеречу.

		И ночь ушла, и канула, как тень, горел рассвет, неповторимо летний.
		И выпало два снега в этот день, два белых снега - первый и последний.