1993 - Внештатный командир Земли, 1994 - Unplugged
		Мой друг лучше всех играет блюз
!		(Муз. обр. Е. Маргулиса, лит. обр. А. Макаревича)

>		Dbm
		Поднят ворот, пуст карман.
		Он не молод и вечно пьян.
		Он на взводе - не подходи.
		Он уходит всегда один.

>		    A            A7                    Dbm
    Припев:	Hо зато мой друг   лучше всех играет блюз.
>		    A             A7                 Dbm
		Круче всех вокруг   он один играет блюз.

		Он не знает умных слов.
		Он считает вас за козлов.
		Даже в морге он будет играть
		-Hа восторги ему плевать.

!		Припев

		Hочь на выдох - день на вдох.
		Кто не выжил - тот и сдох.
		Обреченно летит душа.
		От саксафона до ножа.

!		Припев
!		Соляк на электрухе by Макаревич.
!		Припев

		Поднят ворот, пуст карман.
		Он не молод и вечно пьян.
		Обреченно летит душа
		От саксафона до ножа.

!		Припев