1994 - Unplugged, 1996 - Десять лет спустя
		Старый корабль
!		(муз. и сл. А.Макаревича)

>		F                             Gm Gm+7 Gm7 Gm+7
		На берегу так оживленно, людно,
>		C77                        F    G  C7
		А у воды высится, как мираж,
>		F                                Gm Gm+7
>		Gm7 Gm+7
		Древний корабль - грозное чье-то судно,
>		C7                        F   G  C7
		Тешит зевак и украшает пляж.

		Как ни воюй - годы, увы, сильнее,
		Как ни верти - время свое возьмет:
		Сгнили борта, и нет парусов на реях.
>		C7                              F
		И никогда полный не дать вперед.

>		            Gm7                    C7
Припев:		Зато любой  войдет сюда за пятачок,
>		          F                 D7
		Чтоб в пушку затолкать бычок,
>		      Gm7              C7
		И в трюме посетить кафе
!		             <F> или <D   D7>
		И винный зал,
>		         Gm7                     C7
		А также сняться на фоне морской волны
>		       F                 D7
		С подругой, если нет жены,
>		    Gm7              C7
		Одной рукой обняв ее,
>		                   F  G   C7
		Другой обняв штурвал.

		Был там и я, и на толпу глазея,
		С болью в душе, понял я вещь одну -
		Чтобы не стать этаким вот музеем -
		В нужный момент лучше пойти ко дну.

-

>		 C                       Dm
		Hа беpегу так оживленно людно,
>		G7                      C
		А у воды высится как миpаж,
		Дpевний коpабль - гpозное чье-то судно,
		Тешит зевак и укpашает пляж.

		Как ни воюй - годы, увы, сильнее.
		Как ни веpти - вpемя свое возьмет.
		Сгнили боpта и нет паpусов на pее,
		И никогда полный не дать впеpед.

>		        F                  G
Припев:		Зато любой сюда войдет за пятачек,
>		                          C
		Чтоб в пушку затолкать бычек,
>		      F               G           C
		И в тpюме посетить кафе и винный зал.
>		          F              G
		А также сняться на фоне моpской волны,
>		      C                 Am
		С подpугой, если нет жены,
>		   C               G                    C
		Одной pукой обняв ее, дpугой обняв штуpвал.

		Был там и я и на толпу глазея,
		С болью в душе понял я вещь оджну -
		Чтобы не стать этаким вот музеем -
		В нужный момент лучше пойти ко дну.