1979-1985 - Лучшие песни
		Я сюда ещё вернусь

>		C           Am
		Кто может знать?
>		F          G         C
		Может там, а может тут,
>		C            Am
		Нас будут ждать
>		F          G              C
		Так, как нас нигде не ждут.
>		      F   C   G       Dm  G          C   C7
		Но зовет нас путь, подгоняя ночи тень,
>		F  E           Am    F         G            C
		Я сюда еще вернусь, мне бы только выбрать день.

		Пусть ты не хотел,
		Но все промчалось, как в кино -
		Там ты не допел,
		А тут не выпито вино.
		Но зовет нас путь, подгоняя ночи тень,
		Я сюда еще вернусь, мне бы только выбрать день.

		И как, как будет жаль,
		Если мне не хватит вдруг
		Мест, где я побывал,
		И ваших глаз, и ваших рук.
		Но зовет нас путь, подгоняя ночи тень,
		Я сюда еще вернусь, мне бы только выбрать день.