Ночь короче дня (1995), Штиль (2002)
		Ангельская пыль
!		(В.Дубинин, В.Холстинин - М.Пушкина)

>		Em                   C/E
		Hа краю обрыва за которым вечность,
>		Em                        Am6/E
		Ты стоишь один во власти странных грез
>		Em                              C/E
		И, простившись с Миром, хочешь стать беспечным,
>		G                           D
		Поиграть с огнем нездешних гроз.

		Hаконец ты счастлив, как никто на свете,
		Ангельская пыль тебя уносит вверх.
		Только ей подвластны и восторг, и ветер,
		В жидких небесах звучит твой смех.

>		C       D   Em   Em/D
Припев:		Ангельская пыль.
>		C    D     B7
		Это сон и быль!
>		Em        C       G         D
		Безумец, беглец - дороги нет.
>		Em         C           D
		Ты видишь неверный свет.
>		Am          F     C        G
		Твой ангел зажег мираж огня.
>		Am        F         G
		Он хочет убить тебя...

		Hа краю обрыва песня неземная,
		Музыка богов и голоса богинь.
		Ты паришь над миром, но торговец раем
		Вынет душу из тебя за героин.
		Ты устал быть птицей и сорвался камнем,
		Рухнул с высоты, спасаясь от судьбы.
		Hа краю обрыва вновь летят на пламя
		Сотни мотыльков самоубийц.

!		Припев

-

Вступление:	
эл. гитара 1:	1|-------------------------------------------------------------------|
		2|-------------------------------------------------------------------|
		3|----------------------------4--5-4---------------------------------|
		4|-4---9---7-5-4-5--4---4-5-7--------7-5-4---4-----------------------|
		5|-2---7-------------7-7-------------------7-------------------------|
		6|-------------------------------------------------------------------|

эл. гитара 2:	1|-------------------------------------------------------------------|
		2|-------------------------------------------------------------------|
		3|----------------------------4--5-4---------------------------------|
		4|-4---9---7-5-4-5--4---4-5-7--------7-5-4---4-----------------------|
		5|-2---7-------------7-7-------------------7-------------------------|
		6|-------------------------------------------------------------------|

эл. гитара 1:	1|-------------------------------------------------------------------|
		2|-------------------------------------------------------------------|
		3|----------------------------4--5-4---------------------------------|
		4|-4---9---7-5-4-5--4---4-5-7--------7-5-4---4-----------------------|
		5|-2---7-------------7-7-------------------7-------------------------|
		6|-------------------------------------------------------------------|

эл. Гитара 2:	1|-------------------------------------------------------------------|
		2|-------------------------------------------------------------------|
		3|----------------------------7--8-7---------------------------------|
		4|-4---9---7-5-4-5--4---7-8-10-------10-8-7---7----------------------|
		5|-2---7-------------7-10-------------------10-----------------------|
		6|-------------------------------------------------------------------|

эл. гитара 1:	1|-------------------------------------------------------------------|
		2|---------------------------5-6-5-----------------------------------|
		3|-------7-5-4-5-4-----4-5-7-------7-5-4---4-------------------------|
		4|-4--9------------7-7-------------------7---------------------------|
		5|-2--7--------------------------------------------------------------|
		6|-------------------------------------------------------------------|

эл. гитара 2:	1|-------------------------------------------------------------------|
		2|---------------------------2-3-2-----------------------------------|
		3|-------7-5-4-5-4-----1-2-4-------4-2-1---1-------------------------|
		4|-4--9------------7-4-------------------4---------------------------|
		5|-2--7--------------------------------------------------------------|
		6|-------------------------------------------------------------------|

эл. гитара 1:	1|-------------------------------------------------------------------|
		2|-------------------------------------------------------------------|
		3|----------------------------4--5-4---------------------------------|
		4|-4---9---7-5-4-5--4---4-5-7--------7-5-4---4-----------------------|
		5|-2---7-------------7-7-------------------7-------------------------|
		6|-------------------------------------------------------------------|

эл. гитара 2:	1|-------------------------------------------------------------------|
		2|-------------------------------------------------------------------|
		3|----------------------------4--5-4---------------------------------|
		4|-4---9---7-5-4-5--4---4-5-7--------7-5-4---4-----------------------|
		5|-2---7-------------7-7-------------------7-------------------------|
		6|-------------------------------------------------------------------|

Основная часть:	
ак. гитара 1:	1|-------------------------------------------------------------------|
		2|-0-----0-----0----1-----1----1---0-----0-----0----1----1-----------|
		3|---0-----0-----0----0-----0----0---0-----0-----0----0----0---------|
		4|-----2-----2----------2-----2--------2-----2----------2------------|
		5|-------------------------------------------------------------------|
		6|-------------------------------------------------------------------|

эл. гитара 2:	1|-------------------------------------------------------------------|
		2|-------------------------------------------------------------------|
		3|-2~------------2-3~-----------3-2~------------2-3~-----------------|
		4|-------------------------------------------------------------------|
		5|-------------------------------------------------------------------|
		6|-------------------------------------------------------------------|

ак. гитара 1:	1|-------------------------------------------------------------------|
		2|-0-----0-----0----1-----1----1---0-----0-----0----1----1-----------|
		3|---0-----0-----0----0-----0----0---0-----0-----0----0----0---------|
		4|-----2-----2----------2-----2--------2-----2----------2------------|
		5|-------------------------------------------------------------------|
		6|-------------------------------------------------------------------|

эл. гитара 2:	1|-------------------------------------------------------------------|
		2|-------------------------------------------------------------------|
		3|-2~------------2-3~-----------3-2~------------2-3~-----------------|
		4|-------------------------------------------------------------------|
		5|-------------------------------------------------------------------|
		6|-------------------------------------------------------------------|

ак. гитара:	<   Em               C/E                  Em         Am6/E>
		1|-------------------------------------------------------------------|
		2|-0-----0-----0----1-----1----1---0-----0-----0----1----1-----------|
		3|---0-----0-----0----0-----0----0---0-----0-----0----0----0---------|
		4|-----2-----2----------2-----2--------2-----2----------2------------|
		5|-------------------------------------------------------------------|
		6|-------------------------------------------------------------------|

		Hа  краю обрыва, за которым вечность,Ты стоишь один во власти странных грез

ак. гитара:	<   Em               C/E           G                 D>
		1|-------------------------------------------------------------------|
		2|-0-----0-----0----1-----1----1---0-----0-----0----3----3-----------|
		3|---0-----0-----0----0-----0----0---0-----0-----0----2----2---------|
		4|-----2-----2----------2-----2--------0-----0----------0------------|
		5|-------------------------------------------------------------------|
		6|-------------------------------------------------------------------|

		И, простившись с миром, хочешь стать беспечным,Поиграть с огнем нездешних гроз. 
		Hаконец ты счастлив как никто на свете,Ангельская пыль тебя уносит вверх.
		Только ей подвластны и восторг, и ветер,В жидких небесах звучит твой смех.

Припев:
эл гитара 1:	<    D   C   Em>
		1|-------------------------------------------------------------------|
		2|-------------------------------------------------------------------|
		3|--5-5-7-7-9-------5-4-----4----------------------------------------|
		4|--5-5-7-7-9-4-5-7-----7-5---7-5-4-7-5-4----------------------------|
		5|--3---5---7-----------------------------7--------------------------|
		6|-------------------------------------------------------------------|

эл гитара 2:	1|-------------------------------------------------------------------|
		2|-------------------------------------------------------------------|
		3|--5-5-7-7-9-------8-7-----8----------------------------------------|
		4|--5-5-7-7-9-7-8-10---10-8--10-8-7-10-8-7---------------------------|
		5|--3---5---7------------------------------10------------------------|
		6|-------------------------------------------------------------------|

		   Ангельская пыль.

эл гитара 1:	<    D   C   B7>
		1|-------------------------------------------------------------------|
		2|-------------------------------------------------------------------|
		3|--5-5-7-7-4-------4-------4----------------------------------------|
		4|--5-5-7-7-4-------4-------4----------------------------------------|
		5|--3---5---2-2-2-2-2-2-2-2-2----------------------------------------|
		6|-----------------------------3-2-----------------------------------|

		   Это сон и быль!

эл. гитара 1:	<   Em          C           G        D>
		1|-------------------------------------------------------------------|
		2|-------------------------------------------------------------------|
		3|-------------------------------------------2-----------------------|
		4|-----------------------------------0-2-4-5---5-4-2-----------------|
		5|-------------------------------------------------------------------|
		6|-------------------------------------------------------------------|

эл. гитара 2:	1|-------------------------------------------------------------------|
		2|-------------------------------------------------------------------|
		3|---------------------------------------2-4-5-4-2-------------------|
		4|-2-4-5-4-2---2-4-5-4-2---4-5-7-5-4-4-5-----------4-----------------|
		5|-----------5-----------5-------------------------------------------|
		6|-------------------------------------------------------------------|

		   Безумец, беглец - дороги нет

Эл. гитара 1:	<    Em                   C             D>
		1|--------------------------------------------------------------------|
		2|--------------------------------------------------------------------|
		3|----------------------------------------------2---------------------|
		4|--------------------------------------0-2-4-5-----------------------|
		5|--------------------------------------------------------------------|
		6|--------------------------------------------------------------------|

Эл. гитара 2:	1|-------------------------------------------------------------------|
		2|-------------------------------------------------------------------|
		3|-------------------------------------------------------------------|
		4|--2-4-5-4-2---2-4-5-4-2---4-5-7-5-4-------4-5-7--------------------|
		5|------------5-----------5-----------7-5-7--------------------------|
		6|-------------------------------------------------------------------|

		   Ты видишь неверный свет.

Эл. гитара 1:	<    Am         F           C           G>
		1|-------------------------------------------------------------------|
		2|-------------------------------------------------------------------|
		3|-------------------------------------------------------------------|
		4|--------------------------------------------2-3-2------------------|
		5|--------------------------------------2-3-5-------5-3--------------|
		6|-------------------------------------------------------------------|

Эл. гитара 2:	1|-------------------------------------------------------------------|
		2|-------------------------------------------------------------------|
		3|-------------------------------------------------------------------|
		4|-------------------------------------------------------------------|
		5|--0-2-3-2-0---0-2-3-2-0---2-3-5-3-2-0---0-2-3-2-0------------------|
		6|------------3-----------3-------------3-----------3-1--------------|

		  Твой ангел зажег мираж огня.

Эл. Гитара 1:	<     Am       F             G>
		1|-------------------------------------------------------------------|
		2|-------------------------------------------------------------------|
		3|-------------------------------------------------------------------|
		4|-------------------------------------------------------------------|
		5|-------------------------------------------------------------------|
		6|-------------------------------------------------------------------|

		1|-------------------------------------------------------------------|
		2|-------------------------------------------------------------------|
		3|-------------------------------------------------------------------|
		4|--------------------------5-------5-------5------------------------|
		5|--0-2-3-2-0---0-2-3-2-0---5-5-5-5-5-5-5-5-5------------------------|
		6|------------3-----------3-3-3-3-3-3-3-3-3-3------------------------|

		   Он хочет убить тебя...

		Hа краю обрыва песня неземная,
		Музыка богов и голоса богинь.
		Ты паришь над миром, но торговец раем
		Вынет душу из тебя за героин.
		Ты устал быть птицей и сорвался камнем.
		Рухнул с высоты, спасаясь от судьбы.
		Hа краю обрыва вновь летят на пламя
		Сотни мотыльков-самоубийц.

!		Припев.

P.S.		Если песня играется одной гитарой, то соответственно в надо смотреть
!		табулатры для 1-й гитары. Где нету табов, а стоят аккорды, играется по
!		аккордам.

-

>		Em                    C
		На краю обрыва, за которым вечность
>		Em                          C
		Ты стоишь один во власти странных грез
>		Em                               C
		И, простившись с миром, хочешь стать беспечным
>		G                            D
		Поиграть с огнем нездешних гроз

		Наконец ты счастлив как никто на свете
		Ангельская пыль тебя уносит вверх
		Только ей подвластны и восторг, и ветер
		В "жидких небесах" звучит твой смех

>		D       C   Em
		Ангельская пыль
>		D    C     B7
		Это сон и быль!

>		Em           C     G    D
		Безумец, беглец дороги нет
>		Em           C       D
		Ты видишь неверный свет
		Твой ангел зажег мираж огня
		Он хочет убить тебя...

		На краю обрыва песня неземная
		Музыка богов и голоса богинь
		Ты паришь над миром, но торговец раем
		Вынет душу из тебя за героин

		Ты устал быть птицей и сорвался камнем
		Рухнул с высоты, спасаясь от судьбы
		На краю обрыва вновь летят на пламя
		Сотни мотыльков-самоубийц

-

Вступление:	1) -----------------------------------------------
		2) -0-----0-----0---1---1-----1---0-----0-----0---
		3) ---0-----0-----0---0---0-----0---0-----0-----0-
		4) -----2-----2---------2---2---------2-----2-----
		5) -----------------------------------------------
		6) -----------------------------------------------

		1) ------------------------------------------------
		2) -1-----1-----1------0-----0-----0---1-----1-----
		3) ---0-----0-----0------0-----0-----0---0-----0---
		4) -----2-----2------------2-----2---------2-----2-
		5) ------------------------------------------------
		6) ------------------------------------------------

		1) -------------------------------------
		2) -1---0-----0-----0---1-----1-----1---
		3) ---0---0-----0-----0---0-----0-----0-
		4) ---------2-----2---------2-----2-----
		5) -------------------------------------
		6) -------------------------------------

>		Em                   C
(1)		На краю обрыва, за которым вечность,
>		Em                    Am6
		Ты стоиш во во власти странных грез
>		Em                             C
		И, простившись с Миром, хочешь стать баспечным,
>		G                          D
		Поиграв с огнём нездешних гроз.

		Наконец ты счастлив, как никто на свете,
		Ангельская пыль тебя уносит вверх.
		Только ей подвластны и восторг, и ветер.
		В жидких небесах звучит твой смех.

>		C      D     Em
Припев:		Ангельская пыль.
>		C    D     B7
		Это сон и быль!
>		Em      C        G       D
		Безумец, беглец- дороги нет.
>		Em       C           D
		Ты видишь неверный свет.
>		Am         F    C        G
		Твой ангел зажег мираж огня.
>		Am      F         G
		он хочет убить тебя...

(2)		На краю обрыва песня неземная,
		Музыка богов и голоса богинь.
		Ты паришь над миром, но торговец раем
		Вынет душу из тебя за гароин.

		Ты устал быть птицей и сорвался камнем,
		Рухнул с высоты, спасаясь от судьбы.
		На краю обрыва вновь летят на пламя
		Сотни мотыльков-самоубийц.

!		Припев.

-

>		Am                    F
(1)		На краю обрыва, за которым вечность
>		Am                          F
		Ты стоишь один во власти странных грез
>		Am                               F
		И, простившись с миром, хочешь стать беспечным
>		C                            G
		Поиграть с огнем нездешних гроз

		Наконец ты счастлив как никто на свете
		Ангельская пыль тебя уносит вверх
		Только ей подвластны и восторг, и ветер
		В "жидких небесах" звучит твой смех

>		F       G   Am
Припев:		Ангельская пыль
>		F    G     E
		Это сон и быль!

>		Am           F     C    G
		Безумец, беглец дороги нет
>		Am           F       G
		Ты видишь неверный свет
		Твой ангел зажег мираж огня
		Он хочет убить тебя...

(2)		На краю обрыва песня неземная
		Музыка богов и голоса богинь
		Ты паришь над миром, но торговец раем
		Вынет душу из тебя за героин

		Ты устал быть птицей и сорвался камнем
		Рухнул с высоты, спасаясь от судьбы
		На краю обрыва вновь летят на пламя
		Сотни мотыльков-самоубийц

!		Припев

-

Вступление:	<Em Am C G E7>
>		Em Am C G E
>		Am Dm F G E
>		Am Dm F C G Em

!		Далее 2 раза играть соло:
>		Em             C               Em                C
		[E -------------------------------------------------------------
		H -0-----0-----0---1-----1-----1---0-----0-----0-----1-----1---
		G ---0-------0---0---0-------0---0---0-------0---0-----0-----0-
		D -----2---------------2---------------2-----------------2-----
		A -----------------3---------------------------------3---------
		E -0-------------------------------0---------------------------]

>		Em                   C      E
(1)		На краю обрыва, за которым вечность,
>		Em                     Am6      Em
		Ты стоиш во во власти странных грез
>		Em                              C        E
		И, простившись с Миром, хочешь стать беспечным,
>		G                          D
		Поиграв с огнём нездешних гроз.

		Наконец ты счастлив, как никто на свете,
		Ангельская пыль тебя уносит вверх.
		Только ей подвластны и восторг, и ветер.
		В жидких небесах звучит твой смех.

>		C      D    Em   Em/D
Припев:		Ангельская пыль.
>		C    D     H7
		Это сон и быль!
>		Em        C       G        D
		Безумец, беглец- дороги нет.
>		Em         C           D
		Ты видишь неверный свет.
>		Am          F     C        G
		Твой ангел зажег мираж огня.
>		Am        F         C  Em
		он хочет убить тебя...

!		Cоло } 1 раз

(2)		На краю обрыва песня неземная,
		Музыка богов и голоса богинь.
		Ты паришь над миром, но торговец раем
		Вынет душу из тебя за героин.

		Ты устал быть птицей и сорвался камнем,
		Рухнул с высоты, спасаясь от судьбы.
		На краю обрыва вновь летят на пламя
		Сотни мотыльков-самоубийц.

>		C      D    Em   Em/D
Припев:		Ангельская пыль.
>		C    D     H7
		Это сон и быль!
>		Em        C       G        D
		Безумец, беглец- дороги нет.
>		Em         C           D
		Ты видишь неверный свет.
>		Am          F     C        G
		Твой ангел зажег мираж огня.
>		Am        F         C
		он хочет убить тебя...

>		Em        C       G        D
		Безумец, беглец- дороги нет.
>		Em         C           D
		Ты видишь неверный свет.
>		Am          F     C        G
		Твой ангел зажег мираж огня.
>		Am        F         C  Em
		он хочет убить тебя...

!		Соло (затихая)

>		Em/D
		[E--0--
		H--3--
		G--0--
		D--2--
		A--2--
		E--0--]

-

>		Am F Am G Am F C G Am

>		Am                  F
(1)		Hа кpаю обpыва за котоpым вечность
>		Am                         G
		Ты стоишь один во власти стpанных гpез
>		Am                            F
		И пpостившись с миpом хочешь стать беспечным
>		C                           G
		Поигpать с огнем не здешних pоз

>		Am                        F
(2)		Hаконец ты счастлив как никто на свете
>		Am                    G
		Ангельская пыль тебя yносит ввеpх
>		Am                     F
		Только ей подвластны и востоpг и ветеp
>		C                            G
		В жидких небесах звyчит твой смех

!		<Dm     Dm6 E     Dm  Dm6    E>   (<Dm6> - снизy [0320xx])
Переход:	Ангельская пыль, это все не быль

>		Am       F        C       G
Припев:		Безyмец, беглец - доpоги нет
>		Am        F        G
		Ты видишь невеpных свет
>		Am         F     C        G
		Твой ангел зажег миpаж огня
>		Am       F        G
		Он хочет yбить тебя

(3)		Hа кpаю обpыва песня внеземная
		Мyзыка богов и гшолоса богинь
		Ты паpишь над миpом но тоpговец pаем
		Вынет дyшy из тебя за геpоин

(4)		Ты yстал быть птицей и соpвался камнем
		Рyхнyл с высоты спасаясь от сyдьбы
		Hа кpаю обpыва вновь летят на пламя
		Сотни мотыльков самоyбийц

!		Переход.
!		Пpипев.

-

Вступление:	|-----------------------|------------------------------------------|
		|-----------------------|------------------------------------------|
		|-----------------------|------------------------------------------|
		|-----------------------|------------------------------------------|
		|-0--3--2h3--2--0-------|--0--2--3--5--7--5--3--2h3--2--0--3-------|
		|------------------3--0-|------------------------------------------|

-

>		 Em                   C
		На краю обрыва, за которым вечность,
>		 Em                         C
		Ты стоишь один во власти странных грез.
>		Em                               C
		И, простившись с миром, хочешь стать беспечным,
>		 G                           D
		Поиграть с огнем нездешних гроз.

		Наконец ты счастлив как никто на свете.
		Ангельская пыль тебя уносит вверх.
		Только ей подвластны и восторг, и ветер.
		В жидких небесах звучит твой смех.

>		C       D   Em Em7
		Ангельская пыль,
>		C    D     H7
		Это сон и быль!
>		Em      C      G        D
		Безумец, беглец дороги нет.
>		Em       C           D
		Ты видишь неверный свет.
>		Am        F     C         G
		Твой ангел зажег мираж огня,
>		Am      F         G  Em
		Он хочет убить тебя...

		На краю обрыва песня неземная,
		Музыка богов и голоса богинь.
		Ты паришь над миром, но торговец раем
		Вынет душу из тебя за героин.

		Ты устал быть птицей и сорвался камнем,
		Рухнул с высоты, спасаясь от судьбы.
		На краю обрыва вновь летят на пламя
		Сотни мотыльков-самоубийц.

		Ангельская пыль,
		Это сон и быль!
		Безумец, беглец дороги нет.
		Ты видишь неверный свет.
		Твой ангел зажег мираж огня,
		Он хочет убить тебя...