Герой асфальта (1987), Штиль (2002)
		Герой асфальта
!		(С.Маврин, В.Дубинин - М.Пушкина)

>		Am
		Твой дом стал для тебя тюрьмой
>		G  F
		Для тех, кто в доме, ты - чужой
>		G                        Am
		Ты был наивен и ждал перемен

>		Am
		Ты ждал, что друг тебя поймет
>		G  F
		Поймет и скажет: "Жми вперед!"
>		  G                                Am
		Hо друг блуждал среди собственных стен...

>		F        E
		Горел асфальт
>		F         E
		От солнца и от звезд
>		F        E
		Горел асфальт
>		F    G     E F
		Под шум колес
>		F        E
		Горел асфальт
>		F              E
		Ты чувствовал тепло
>		F        E
		Горел асфальт
>		F   G      E F
		Снегам назло

		Ты сам решил пойти на риск
		Hикто не крикнул: "Берегись!"
		И ты покрасил свой шлем в черный цвет

		Как зверь мотор в ночи ревет
		Пустырь, разъезд и разворот...
		Ты мстил за груз нелюбви прошлых лет

		Запел асфальт
		Tы слышал каждый звук
		Запел асфальт
		Как сердца стук
		Запел асфальт
		Ты был его герой
		Так пел асфальт
		Пел за спиной!

		Был миг - ты верил в знак удач
		Ведь ты был молод и горяч
		Hо твой двойник мчал навстречу тебе

		Он был свободен как и ты
		Hикто не крикнул: "Тормози!"
		Такой приказ неизвестен судьбе

		Горел асфальт
		От сбитых с неба звезд
		Горел асфальт
		Под шум колес
		Кричал асфальт
		Ты был его герой
		Кричал асфальт
		Кричала боль...

-

>		Am                             G
(1)		Твой дом стал для тебя тюрьмой
>		F
		Для тех, кто в доме, ты - чужой
>		G                        Am
		Ты был наивен и ждал перемен

		6) -5-7-8-10-8-7-8-5-

		Ты ждал, что друг тебя поймет
		Поймет и скажет: "Жми вперед!"
		Hо друг блуждал среди собственных стен...

>		F       E
Припев:		Горел асфальт
>		F        E
		От солнца и от звезд
>		F       E
		Горел асфальт
>		F   G   F E
		Под шум колес
		Горел асфальт
		Ты чувствовал тепло
		Горел асфальт
		Снегам назло

(2)		Ты сам решил пойти на риск
		Hикто не крикнул: "Берегись!"
		И ты покрасил свой шлем в черный цвет
		Как зверь мотор в ночи ревет
		Пустырь, разъезд и разворот...
		Ты мстил за груз нелюбви прошлых лет

Припев:		Запел асфальт
		Tы слышал каждый звук
		Запел асфальт
		Как сердца стук
		Запел асфальт
		Ты был его герой
		Так пел асфальт
		Пел за спиной!

(3)		Был миг - ты верил в знак удач
		Ведь ты был молод и горяч
		Hо твой двойник мчал навстречу тебе
		Он был свободен как и ты
		Hикто не крикнул: "Тормози!"
		Такой приказ неизвестен судьбе

Припев:		Горел асфальт
		От сбитых с неба звезд
		Горел асфальт
		Под шум колес
		Кричал асфальт
		Ты был его герой
		Кричал асфальт
		Кричала боль...

-

>		Em
(1)		Твой дом стал для тебя тюрьмой.
>		C
		Для тех, кто в доме, ты чужой.
>		D                        Em
		Ты был наивен и ждал перемен.
>		Em
		Ты ждал, что друг тебя поймет.
>		C
		Поймет и скажет:"Жми вперед!"
>		D                                Em
		Но друг блуждал среди собственных стен...

>		Am       G
Припев:		Горел асфальт
>		F         G
		От солнца и от звезд,
>		Am       G
		Горел асфальт
>		F    E7
		Под шум колес,
>		Am       G
		Горел асфальт,
>		F         G
		Ты чувствовал тепло,
>		Am       G
		Горел асфальт
>		F   E7     Am
		Снегам назло.

(2)		Ты сам решил пойти на риск.
		Никто не крикнул:"Берегись!"
		И ты покрасил свой шлем в черный цвет.
		Как зверь мотор в ночи ревет,
		Пустырь, разъезд и разворот...
		Ты мстил за груз не любви прошлых лет.

Припев:		Запел асфальт -
		Ты слышал каждый звук,
		Запел асфальт,
		Как сердца стук,
		Запел асфальт,
		Ты был его герой,
		Так пел асфальт,
		Пел за спиной!

(3)		Был миг - ты верил в знак удач.
		Ведь ты был молод и горяч.
		Но твой двойник мчал на встречу тебе.
		Он был свободен как и ты.
		Никто не крикнул:"Тормози!"
		Такой приказ неизвестен судьбе.

Припев:		Горел асфальт
		От сбитых с неба звезд,
		Горел асфальт
		Под шум колес,
		Кричал асфальт,
		Ты был его герой.
		Кричал асфальт,
		Кричала боль...