Ночь короче дня (1995)
		Король дороги
!		(В.Дубинин, В.Холстинин - М.Пушкина)

>		Am                    Asus4
		Я о ней мечтал всю жизнь
>		Am                       C
		Наконец мои желанья сбылись
>		G        Am
		Вот она. Вот она!

		Вся блестит и манит взгляд
		На такой не грех отправиться в ад
		Вот она. Вот она!

>		F
		Чем дальше - тем больше
>		                   G
		Чем больше - тем сильней
>		F
		Друзей душит зависть
>		                  G
		Плевать мне на друзей
>		F                           G
		И днем, и ночью я буду мчаться
		По черной полосе
>		F
		Слились воедино
>		                G
		Два призрака шоссе!

>		Am
		Я - король дороги
>		     F
		Я - король от Бога
>		G
		В ад или рай
>		      E
		Сама выбирай!

		Жить как все мне скучно
		Мне и смерть игрушка
		Скорость в крови
		Удачу лови!

		Я о ней мечтал всю жизнь
		И с небес она спускается вниз
		Вот она
		Вот она!

		Золотой волоной волос
		Закружила и накрыла всерьез
		Вот она
		Вот она!

		Чем дальше - тем больше
		Чем больше - тем сильней
		Нас двое в машине
		А ночь все горячей
		И днем, и ночью мы будем мчаться
		По черной полосе
		Слились воедино
		Два призрака шоссе!

>		F                       G
		Мы на лету срывали вечность
>		      Dm             E
		А дорога шипела змеей
>		F                    G
		Тела светились словно свечи
>		  Dm              E
		В этой гонке такой неземной
		Неземной...

		Я очнулся ото сна
		И увидел свою жизнь из окна
		Вот она
		Вот она!

		Старый кузов без колес
		И подруга, что целует взасос
		Вот она
		Вот она!

		Чем дальше - тем больше
		Чем больше - тем сильней
		Все те же, все то же
		А ночь все холодней
		И днем, и ночью я пил не мало
		За призраков шоссе...
		Их больше не стало
		На черной полосе

>		   Asus4
		|----|----|----|
		|----|----|--*-|
		|----|--*-|----|
		|----|--*-|----|
		|----|----|----|
		|----|----|----|

		<Asus4> [x02230]

-

>		D
		Я о ней мечтал всю жизнь.
		Наконец мои желанья сбылись.
>		 Em
		Вот она. Вот она!

		Вся блестит и манит взгляд.
		На такой не грех отправиться в ад.
		Вот она. Вот она!

>		     B
		Чем дальше - тем больше,
		Чем больше - тем сильней.
>		    C
		Друзей душит зависть,
		Плевать мне на друзей.
>		           B
		И днем, и ночью я буду мчаться
		По черной полосе.
>		    C
		Слились воедино
>		                   D
		Два призрака шоссе!

>		Em
		Я - король дороги.
>		C/E
		Я - король от Бога.
>		  D
		В ад или рай,
>		   H7     C D
		Сама выбирай!

		Жить как все мне скушно,
		Мне и смерть игрушка.
		Скорость в крови,
		Удачу лови!

		Я о ней мечтал всю жизнь.
		И с небес она спускается вниз.
		Вот она. Вот она!

		Золотой волной волос
		Закружила и накрыла всерьез.
		Вот она. Вот она!

		Чем дальше - тем больше.
		Чем больше - тем сильней.
		Нас двое в машине,
		А ночь все горячей.
		И днем, и ночью мы будем мчаться
		По черной полосе.
		Слились воедино
		Два призрака шоссе!

		Я - король дороги.
		Я - король от Бога.
		В ад или рай,
		Сама выбирай!

		Жить как все мне скушно,
		Мне и смерть игрушка.
		Скорость в крови,
		Удачу лови!

>		 H                  C
		Мы на лету срывали вечность,
>		     Am7           H
		А дорога шипела змеей.
>		                         C
		Тела светились, словно свечи,
>		        Am7              H
		В этой гонке такой неземной,
		Неземной...

		Я очнулся ото сна,
		И увидел свою жизнь из окна.
		Вот она. Вот она!

		Старый кузов без колес,
		И подруга, что целует взасос.
		Вот она. Вот она!

		Чем дальше - тем больше.
		Чем больше - тем сильней.
		Все те же, все то же,
		А ночь все холодней.

		И днем, и ночью я пил не мало
		За призраков шоссе...
		Их больше не стало
		На черной полосе.

		Я - король дороги.
		Я - король от Бога.
		В ад или рай,
		Сама выбирай!

		Жить как все мне скушно,
		Мне и смерть игрушка.
		Скорость в крови,
		Удачу лови!