Химера (2001)
		Осколок льда
!		Музыка - В. Дубинин.
!		Слова - М. Пушкина.

>		Am       C          F
(1)		Hочь унесла тяжелые тучи,
>		    Dm         G           Am
		Hо дни горьким сумраком полны
>		Am       C                F
		Мы расстаемся - так будет лучше
>		    Dm        G              Am
		Вдвоем нам не выбраться из тьмы...

>		F   G         Am
Припев:		Я любил и ненавидел
>		F    G            Am
		Hо теперь душа пуста
>		F     G           C     Em   Am
		Все исчезло, не оставив и следа
>		           F         G            D
		И не знает боли в груди осколок льда...
>		           F         G            Am
		И не знает боли в груди осколок льда...

(2)		Я помню все, о чем мы мечтали
		Hо жизнь не для тех, кто любит сны
		Мы слишком долго выход искали
		Hо шли бесконечно вдоль стены...

!		Припев

(3)		Пусть каждый сам находит дорогу -
		Мой путь будет в сотню раз длинней
		Hо не виню ни черта, ни Бога
		За все заплатить придется мне!

!		Припев

-

>		Am       C          F
		Hочь унесла тяжелые тучи,
>		     Dm         G           Am
		Hо дни горьким сумраком полны
>		Am       C                 F
		Мы расстаемся - так будет лучше
>		    Dm         G              Am
		Вдвоем нам не выбраться из тьмы...

>		F     G         Am
Припев:		Я любил и ненавидел
>		F     G            Am
		Hо теперь душа пуста
>		F      G           C Em       Am
		Все исчезло, не оставив и следа
>		           F         G            D
		И не знает боли в груди осколок льда...

		Я помню все, о чем мы мечтали
		Hо жизнь не для тех, кто любит сны
		Мы слишком долго выход искали
		Hо шли бесконечно вдоль стены...
		Пусть каждый сам находит дорогу -
		Мой путь будет в сотню раз длинней
		Hо не виню ни черта, ни Бога
		За все заплатить придется мне!

!		Припев

-

>		 Am       C          G
		Hочь унесла тяжелые тучи,
>		     F         G           Am
		Hо дни горьким сумраком полны
>		 Am      C                 G
		Мы расстаемся - так будет лучше
>		    F          G              Am
		Вдвоем нам не выбраться из тьмы...

>		F     G         Am
Припев:		Я любил и ненавидел
>		F     G            Am
		Hо теперь душа пуста
>		F      G           C          Am
		Все исчезло, не оставив и следа
>		            F         G            Am
		И не знает боли в груди осколок льда...

		Я помню все, о чем мы мечтали
		Hо жизнь не для тех, кто любит сны
		Мы слишком долго выход искали
		Hо шли бесконечно вдоль стены...

!		Припев

		Пусть каждый сам находит дорогу -
		Мой путь будет в сотню раз длинней
		Hо не виню ни черта, ни Бога
		За все заплатить придется мне!

!		Припев

-

ИНТРА:		1|---------0-------------------------0----------| \
		2|---0-1-3-----3---1-0--1p0-----0-1-3----3---1-0|  \
		3|-2---------2---2----------2-2--------2---2----|   } два раза
		4|-------------------0--------0-----------------|  /
		5|-0-------------------------------------------0| /

		A---0-2-3-5-7-0-5-0-3-0-2-2-0
		A---0-2-3-5-7-0-5-0-3-0-2-0

Перебор:	бас,3,2,3,1,3,2,3

>		 Am                  C
		Ночь унесла тяжелые тучи
>		     F          G           Am
		Но дни горьким сумраком полны
>		 Am                        C
		Мы расстаемся - так будет лучше
>		    F          G              Am
		Вдвоем нам не выбраться из тьмы...

>		F    G         Am
Припев:		Я любил и ненавидел
>		F     G            Am
		Но теперь душа пуста
>		F      G           C G        Am
		Все исчезло, не оставив и следа
>		            F         G            D  Dm  Am
		И не знает боли в груди осколок льда... 

		Я помню все, о чем мы мечтали
		Но жизнь не для тех, кто любит сны
		Мы слишком долго выход искали
		Но шли бесконечно вдоль стены...

!		ПРИПЕВ

		Пусть каждый сам находит дорогу -
		Мой путь будет в сотню раз длинней
		Но не виню ни черта, ни Бога
		За все заплатить придется мне!

>		F    G         Am
Припев:		Я любил и ненавидел
>		F     G            Am
		Но теперь душа пуста
>		F      G           C G        Am
		Все исчезло, не оставив и следа
>		            F         G            D
		И не знает боли в груди осколок льда...
>		            F         G            Am
		И не знает боли в груди осколок льда...

-

ИНТРА:		1|---------0-------------------------0----------|
		2|---0-1-3-----3---1-0--1p0-----0-1-3----3---1-0|
		3|-2---------2---2----------2-2--------2---2----| } играть два раза
		4|-------------------0--------0-----------------|
		5|-0-------------------------------------------0|

Перебор:	бас, 3, 2, 3, 1, 3, 2, 3

Вступление:	<Am F Dm Am>

>		Am                   C
(1)		Ночь унесла тяжелые тучи,
>		F               G        Am
		Но дни горьким сумраком полны.
		Мы расстаемся - так будет лучше,
		Вдвоем нам не выбраться из тьмы.

>		F     G    Am
Припев:		Я любил и ненавидел,
>		F        G     Am
		Но теперь душа пуста.
>		F       G     C  B/Am5bb
		Все исчезло, не оставив и следа,
>		F                  G             Am
		И не знает боли в груди осколок льда.

(2)		Я помню все, о чем мы мечтали,
		Но жизнь не для тех, кто любит сны.
		Мы слишком долго выход искали,
		Но шли бесконечно вдоль стены.

!		Припев.

(3)		Пусть каждый сам находит дорогу,
		Мой путь будет в сотню раз длинней.
		Но не виню ни черта, ни Бога,
		За все платить придется мне!

!		Припев.

Транскрипции:	<B/Am5bb>
		|---|---|---|
		|-1-|---|---|
		|---|-3-|---|
		|---|---|---|
		|---|-2-|---|
		|---|---|---|

-

Встyпление:	|--------------0-----------------------------|
		|-----0--1--3---------3---1---1--0--0p1------|
		|--2----------------2---2---2------------2---|
		|--------------------------------------------|
		|--0-----------------------------0-----------|
		|--------------------------------------------|

		|--------------0---------------------|
		|-----0--1--3---------3---1---0--2---|
		|--2----------------2---2---2--------| } 2 pаза.
		|--0-----------------------------0---|
		|------------------------------------|
		|------------------------------------|

!		Основной пеpебоp (Только для 1, 2 кyплета и 1 пpипева):

!		      <Am> - 2 pаза                     <C> - 2 pаза

		[E||---------------------------|---------------------------|
		B||--------1-----0-----1------|--------1-----0-----1------|
		G||-----2-----2-----2-----2---|-----0-----0-----0-----0---|
		D||---------------------------|---------------------------|
		A||--0------------------------|--3------------------------|
		E||---------------------------|---------------------------|]

!		           <F> - 1 pаз                 <G> - 1 pаз

		|----------------------------|----------------------------|
		|---------1-----0-----1------|---------3-----5-----3------|
		|------2-----2-----2-----2---|------4-----4-----4-----4---|
		|----------------------------|----------------------------|
		|---3------------------------|---3------------------------|
		|----------------------------|----------------------------|

!		        <Am*> - 1 pаз

		|---------------------------------------------------|
		|---------1-----0-----1-----3-----1----0-----1------|
		|------2-----2-----2-----2-----2-----2----2-----2---|
		|---------------------------------------------------|
		|---0-----------------------------------------------|
		|---------------------------------------------------|

!		  <С*> - 1 pаз         <G*> - 1 pаз         <D*>  - 2 pаза

		|----------------|----------------|---------2-----3-----2------|
		|---------2------|---------3------|------3-----3-----3-----3---|
		|------0-----0---|------4-----4---|----------------------------|
		|----------------|----------------|---0------------------------|
		|---3------------|---3------------|----------------------------|
		|----------------|----------------|----------------------------|

!		     <Dm*> - 1 pаза                 <X> - 1 pаз

		|---------1-----0-----1------|------------------|
		|------3-----3-----3-----3---|------------------|
		|----------------------------|------------------|
		|---0------------------------|------------------|
		|----------------------------|---3^5--3--2--3---|
		|----------------------------|------------------|

>		Am                  C
(1)		Hочь yнесла тяжелые тyчи
>		     F          G           Am*
		Hо дни гоpьким сyмpаком полны
>		 Am                        C
		Мы pасстаемся - так бyдет лyчше
>		    F          G              Am*
		Вдвоем нам не выбpаться из тьмы...


Припев 1:	(Пеpебоpом)
>		F      G         Am
		Я любил и ненавидел
>		F      G            Am
		Hо тепеpь дyша пyста
>		F       G           C* G*        Am - 1 pаз
		Все исчезло, не оставив и следа
>		            F         G            D*   Dm*   X
		И не знает боли в гpyди осколок льда...

(2)		Я помню все, о чем мы мечтали
		Hо жизнь не для тех, кто любит сны
		Мы слишком долго выход искали
		Hо шли бесконечно вдоль стены...

Припев 2:	(Боем)
!		      <Y> - 1 pаз             <Z>  - 1 pаз

		|-----------------------|----------------|
		|-----------------------|----------------|
		|-----------------------|----------------|
		|-----------------------|----------------|
		|---5--3--2---3--2--0---|---5--3--2--3---|
		|-----------------------|----------------|

>		F      G         Am   Y
		Я любил и ненавидел
>		F      G            Am
		Hо тепеpь дyша пyста
>		Z F     G           C  G       Am
		Все исчезло, не оставив и следа
!		            <F         G            D   Dm>(<D>-игpать дольше, чем обычно)
		И не знает боли в гpyди осколок льда...  (<Dm>-1 pаз пpовети по стpyнам)

		|----------------------------|
		|---3-----1-----0-----1------|
		|------2-----2-----2-----2---|
		|----------------------------|
		|----------------------------|
		|----------------------------|

!		(Эта таблатypа только для 3 кyплета!)
>		  Am                 C                   F       G
		|---0---|---0---------------0---------|---1---|---3---|
		|---1---|---1------------------1------|---1---|---3---|
		|---2---|---0---Hемного-----------0---|---2---|---4---|
		|---2---|---2---подождать-------------|---3---|---5---|
		|---0---|---3-------------------------|---3---|---5---|
		|---0---|---0-------------------------|---1---|---3---|

>		Am*                                          Am$
		|-0----------------------------------------|---5------------------------|
		|-1---------------3-----1-----0-----1------|---5------------------------|
		|-2---Hемного--------2-----2-----2-----2---|---5-Hемного----------------|
		|-2---подождать----------------------------|---7-подождать--------------|
		|-0----------------------------------------|---7-------------5--3--2--3-|
		|-0----------------------------------------|---5------------------------|

>		  Am                        C
(3)		Пyсть каждый сам находит доpогy -
>		    F             G             Am*
		Мой пyть бyдет в сотню pаз длинней
>		 Am                      C
		Hо не виню ни чеpта, ни Бога
>		   F        G            Am$
		За все платить пpидется мне!

Припев 3:	(Боем)
>		F     G         Am   Y
		Я любил и ненавидел
>		F      G            Am
		Hо тепеpь дyша пyста
>		Z F     G           C  G       Am
		Все исчезло, не оставив и следа
!		                 <F         G            D>(<D>-игpать дольше,чем обычно)
		И не знает боли в гpyди осколок льда...
!		            <F         G            Am>    (<Am>-1 pаз пpовети по стpyнам)
		И не знает боли в гpyди осколок льда...

		|-----0--1--3---------3---1---1--0--0p1------|
		|--2----------------2---2---2------------2---|
		|--------------------------------------------|
		|--0-----------------------------0-----------|
		|--------------------------------------------|

		|--------------0---------------------|
		|-----0--1--3---------3---1---0--2---|
		|--2----------------2---2---2--------|
		|--0-----------------------------0---|
		|------------------------------------|
		|------------------------------------|

-

Вступление:	1|---------0---------------------------0---------------|
		2|---0-1-3-----3---1---1-0-------0-1-3-----3---1---0---|
		3|-2---------2---2---2-----2---2---------2---2---2---2-| } X 2
		4|-----------------------------------------------------|
		5|-0---------------------2-0---0---------------------0-|

Бас:		4|-------0-2----0-------------|-------0-2----0-----------| \/ 2
		5|-0-2-3------0---0-3-0-3-2-0-|-0-2-3------0---0-3-0-2-0-| /\

!		Перебор играется в такой последовательности:
>		  Am C F           G
		2|------O----|   2|------O----|
		3|---------O-|   3|---------O-|
		4|----O---O--|   4|----O---O--|
		5|-O---------|   5|-----------|
		6|-----------|   6|-O---------|

>		 Am x2               C x2
(1)		Ночь унесла тяжелые тучи
>		     F x1       G x1        Am x1(A*[032200])x1
		Но дни горьким сумраком полны
>		 Am x2                     C x2
		Мы расстаемся - так будет лучше
>		    F x1       G x1           Am x1(A*)x1
		Вдвоем нам не выбраться из тьмы...

>		F    G         Am
Припев:		Я любил и ненавидел
>		F     G            Am
		Но теперь душа пуста
>		F      G           C G        Am
		Все исчезло, не оставив и следа
>		            F         G            D  Dm  Am
		И не знает боли в груди осколок льда...

(2)		Я помню все, о чем мы мечтали
		Но жизнь не для тех, кто любит сны
		Мы слишком долго выход искали
		Но шли бесконечно вдоль стены...

!		Припев.

(3)		Пусть каждый сам находит дорогу -
		Мой путь будет в сотню раз длинней
		Но не виню ни черта, ни Бога
		За все заплатить придется мне!

>		F    G         Am
Припев:		Я любил и ненавидел
>		F     G            Am
		Но теперь душа пуста
>		F      G           C G        Am
		Все исчезло, не оставив и следа
>		            F         G            D
		И не знает боли в груди осколок льда...
>		            F         G            Am
		И не знает боли в груди осколок льда...

-

		|----------------0-----------0---|--------0-----------0-----------|
		|----0---1---3---5---1---1---3---|----0---1---1-------1-----------|
		|2-------2---5-----------2-------|5---2-----------2-------5---2---|
		|----2---------------------------|----------------7---------------|
		|0-------------------------------|----------------0---3-----------|
		|5-------------------------------|--------------------------------|

		|----------------1-----------1---|--------1-----------1-----------|
		|0-----------1-0-----1-----------|1-----------1-----------1-------|
		|--------2---5---2-------2-------|----2-----------2-----------2---|
		|----3---------------------------|--------------------------------|
		|--------------------------------|--------------------------------|
		|1-------------------------------|--------------------------------|

		|----------------0-----------0---|--------0-----------0-----------|
		|----0---1---3---5---3---1---3---|----0---1---3-------0-----------|
		|2-------2---7-----------2-------|7---2-----------2-------7---2---|
		|0---2---------------------------|----------------7---------------|
		|0-------------------------------|----------------0---2-----------|
		|--------------------------------|--------------------------------|

		|----------------0-----------0---|--------0-----------0-----------|
		|------------1-------1-----------|0-----------0-----------0-------|
		|2-------2---------------2-------|----2-----------2-----------2---|
		|----2---------------------------|--------------------------------|
		|0-------------------------------|--------------------------------|
		|5-------------------------------|--------------------------------|

		|----------------0-----------0---|--------0-----------0-----------|
		|----0---1---3---5---1---1---3---|----0---1---1-------1-----------|
		|2-------2---5-----------2-------|5---2-----------2-------5---2---|
		|----2---------------------------|----------------7---------------|
		|0-------------------------------|----------------0---3-----------|
		|5-------------------------------|--------------------------------|

		|----------------1-----------1---|--------1-----------1-----------|
		|0-----------1-0-----1-----------|1-----------1-----------1-------|
		|--------2---5---2-------2-------|----2-----------2-----------2---|
		|----3---------------------------|--------------------------------|
		|--------------------------------|--------------------------------|
		|1-------------------------------|--------------------------------|

		|----------------0-----------0---|--------0-----------0-----------|
		|----0---1---3---5---3---1---3---|----0---1---3-------0-----------|
		|2-------2---7-----------2-------|7---2-----------2-------7---2---|
		|0---2---------------------------|----------------7---------------|
		|0-------------------------------|----------------0---2-----------|
		|--------------------------------|--------------------------------|

		|----------------0-----------0---|--------0-----------0-----------|
		|------------1-------1-----------|0-----------0-----------0-------|
		|2-------2---------------2-------|----2-----------2-----------2---|
		|----2---------------------------|--------------------------------|
		|0-------------------------------|--------------------------------|
		|5-------------------------------|--------------------------------|

		|8-----------------------8---10--|0-------10--8-------7---8-------|
		|--------1-------0-------1-------|17------1-------0-------1-------|
		|----2-------2-------2-------2---|----2-------2-------2-------2---|
		|2-------------------------------|--------------------------------|
		|0-------------------------------|--------------------------------|
		|5-------------------------------|--------------------------------|

		|10----------8-------------------|------------------------3-------|
		|--------1-------0-------1-------|3-------1-------0-------1-------|
		|0---0-------0-------0-------0---|----0-------0-------0-------0---|
		|--------------------------------|--------------------------------|
		|3-------------------------------|--------------------------------|
		|8-------------------------------|--------------------------------|

		|5-------------------5---8-------|12------10--7---3-------7-------|
		|--------1-------0-------1-------|--------0---------------0-------|
		|----2-------2-------2-------2---|0---0-------0-------0-------0---|
		|3-------------------------------|--------------------------------|
		|--------------------------------|--------------------------------|
		|1-------------------------------|3-------------------------------|

		|8-------------------------------|--------------------------------|
		|--------1-------0-------1-------|3-------1-------0-------1-------|
		|2---2-------2-------2-------2---|----2-------2-------2-------2---|
		|--------------------------------|--------------------------------|
		|0-------------------------------|--------------------------------|
		|5-------------------------------|--------------------------------|

		|8-----------------------8---10--|0-------10--8-------7---8-------|
		|--------1-------0-------1-------|17------1-------0-------1-------|
		|----2-------2-------2-------2---|----2-------2-------2-------2---|
		|2-------------------------------|--------------------------------|
		|0-------------------------------|--------------------------------|
		|5-------------------------------|--------------------------------|

		|10----------8-------------------|----------------------------3---|
		|--------1-------0-------1-------|3-------1-------0-------1-------|
		|0---0-------0-------0-------0---|----0-------0-------0-------0---|
		|--------------------------------|--------------------------------|
		|3-------------------------------|--------------------------------|
		|8-------------------------------|--------------------------------|

		|5-----------------------5---8---|7-------8---7---3-------3-------|
		|--------1-------0-------1-------|--------0---------------0-------|
		|----2-------2-------2-------2---|0---0-------0-------0-------0---|
		|3-------------------------------|--------------------------------|
		|--------------------------------|--------------------------------|
		|1-------------------------------|3-------------------------------|

		|5-------------------------------|----------------0---------------|
		|1-------1-------0-------1-------|3-------1-------0-------1-------|
		|----2-------2-------2-------2---|7---2-------2-------2-------2---|
		|--------------------------------|--------------------------------|
		|0-------------------------------|----------------3---2---0-------|
		|5-------------------------------|------------3-------------------|

		|----------------1-------13------|12------10------3-------7-------|
		|--------1-------18------1-------|--------0-------13------0-------|
		|----2-------2-------2-------2---|0---0-------0-------0-------0---|
		|3-------------------------------|--------------------------------|
		|--------------------------------|--------------------------------|
		|1-------------------------------|3-------------------------------|

		|8-------12----------------------|----------------0---------------|
		|1-------1-------0-------1-------|3-------1-------0-------1-------|
		|----2-------2-------2-------2---|7---2-------2-------2-------2---|
		|--------------------------------|--------------------------------|
		|0-------------------------------|3---2---0-------3---2-----------|
		|5-------------------------------|------------------------3-------|

		|----------------1-------13------|12------10------3-------8-------|
		|--------1-------18------1-------|--------0-------15------0-------|
		|----2-------2-------2-------2---|0---0-------0-------0-------0---|
		|3-------------------------------|--------------------------------|
		|--------------------------------|--------------------------------|
		|1-------------------------------|3-------------------------------|

		|12------------------------------|----------------0---------------|
		|1-------1-------0-------1-------|3-------1-------0-------1-------|
		|----2-------2-------2-------2---|7---2-------2-------2-------2---|
		|--------------------------------|--------------------------------|
		|0-------------------------------|----------------3---2---0-------|
		|5-------------------------------|--------------------------------|

		|----------------1-------13------|12------10------3-------10--8---|
		|--------1-------18------1-------|--------3---------------3-------|
		|----2-------2-------2-------2---|0---0-------0-------0-------0---|
		|3-------------------------------|--------------------------------|
		|--------------------------------|--------------------------------|
		|1-------------------------------|3-------------------------------|

		|0-------0---10------10--12------|----------------0---12--10--8---|
		|17--1---17--3---0---3---1-------|1-------1-------17------1-------|
		|5-----------7-----------9---2---|----2-------2-------2-------2---|
		|--------------------------------|--------------------------------|
		|3-----------2-----------0-------|--------------------------------|
		|--------------------------------|--------------------------------|

		|5-------8-------------------8---|7-------8-------3-------3-------|
		|--------1-------0-------1-------|--------0-------12------0-------|
		|----2-------2-------2-------2---|0---0-------0-------0-------0---|
		|3-------------------------------|--------------------------------|
		|--------------------------------|--------------------------------|
		|1-------------------------------|3-------------------------------|

		|5---------------2---------------|----8---3-------10--8---3-------|
		|10------3---------------3-------|15------3-------3---1---0-------|
		|2---2-------2-------2-------2---|----2-------2---------------0---|
		|0-------------------------------|0-------------------------------|
		|5-------------------------------|--------------------0---3-------|
		|--------------------------------|----------------3---------------|

		|5---------------2---------------|10------8-------7-------8-------|
		|--------3---------------3-------|3-------1-------0-------1-------|
		|----2-------2-------2-------2---|----2-------2-------2-------2---|
		|0-------------------------------|0-------------------------------|
		|5---------------------------3---|--------3-------2-------3-------|
		|--------------------------------|--------------------------------|

		|8-----------------------8---10--|0-------10--8-------7---8-------|
		|--------1-------0-------1-------|17------1-------0-------1-------|
		|----2-------2-------2-------2---|----2-------2-------2-------2---|
		|2-------------------------------|--------------------------------|
		|0-----------------------3---2---|0-------0---------------2-------|
		|5-------------------------------|--------------------------------|

		|10----------8-------------------|----------------------------3---|
		|--------1-------0-------1-------|3-------1-------0-------1-------|
		|0---0-------0-------0-------0---|----0-------0-------0-------0---|
		|--------------------------------|--------------------------------|
		|3-------------------------------|3-------3-----------------------|
		|8---------------------------3---|----3---------------------------|

		|5-------------------5---8-------|12------10--7---3-------7-------|
		|--------1-------0-------1-------|--------0---------------0-------|
		|----2-------2-------2-------2---|0---0-------0-------0-------0---|
		|3-------------------------------|--------------------------------|
		|--------------------------------|--------------------------------|
		|1-------------------------------|3-------------------------------|

		|8-------------------------------|10------8-------7-------8-------|
		|--------1-------0-------1-------|3-------1-------0-------1-------|
		|2---2-------2-------2-------2---|----2-------2-------2-------2---|
		|--------------------------------|0-------------------------------|
		|0---------------------------2---|--------3-------2-------3-------|
		|5-------------------------------|--------------------------------|

		|8-----------------------8---10--|0-------10--8-------7---8-------|
		|--------1-------0-------1-------|17------1-------0-------1-------|
		|----2-------2-------2-------2---|----2-------2-------2-------2---|
		|2-------------------------------|--------------------------------|
		|0-----------------------2---2---|0-------0---------------2-------|
		|5-------------------------------|--------------------------------|

		|10----------8-------------------|------------------------3-------|
		|--------1-------0-------1-------|3-------1-------0-------1-------|
		|0---0-------0-------0-------0---|----0-------0-------0-------0---|
		|--------------------------------|--------------------------------|
		|3-------------------------------|3-------3-----------------------|
		|8---------------------------3---|----3-------------------3-------|

		|5-----------------------5---8---|7-------8---7---3-------7-------|
		|--------1-------0-------1-------|--------0---------------0-------|
		|----2-------2-------2-------2---|0---0-------0-------0-------0---|
		|3-------------------------------|--------------------------------|
		|--------------------------------|--------------------------------|
		|1-------------------------------|3-------------------------------|

		|8-------------------------------|10--------------0---------------|
		|1-------1-------0-------1-------|3-------1-------0-------1-------|
		|----2-------2-------2-------2---|7---2-------2---21--2-------2---|
		|--------------------------------|----------------2---------------|
		|0---------------------------2---|0---------------3---2---0-------|
		|5-------------------------------|----------------5---------------|

		|5---------------1-------13------|12------10------3-------7-------|
		|--------1-------18------1-------|--------0-------13------0-------|
		|----2-------2-------2-------2---|----0-------0-------0-------0---|
		|--------------------------------|0-------------------------------|
		|3-------------------------------|--------------------------------|
		|1-------------------------------|3-------------------------------|

		|8-------12----------------------|--------------------------------|
		|--------1-------0-------1-------|3-------1-------0-------1-------|
		|----2-------2-------2-------2---|----2-------2-------2-------2---|
		|2-------------------------------|--------2---------------0-------|
		|0-------------------------------|3---2---0-------3---2-----------|
		|5-------------------------------|8---7---5-------8---7---3-------|

		|----------------1-------13------|12------10------3-------8-------|
		|--------1-------18------1-------|--------0-------15------0-------|
		|----2-------2-------2-------2---|----0-------0-------0-------0---|
		|--------------------------------|0-------------------------------|
		|3-------------------------------|--------------------------------|
		|1-------------------------------|3-------------------------------|

		|12------------------------------|--------------------------------|
		|--------1-------0-------1-------|3-------1-------0-------1-------|
		|----2-------2-------2-------2---|----2-------2-------2-------2---|
		|2-------------------------------|------------------------2-------|
		|0-------------------------------|----------------3---2---0-------|
		|5-------------------------------|----------------8---7---5-------|

		|----------------1-------13------|12------10------3-------10--8---|
		|--------1-------18------1-------|--------3---------------3-------|
		|----2-------2-------2-------2---|----0-------0-------0-------0---|
		|--------------------------------|0-------------------------------|
		|3-------------------------------|--------------------------------|
		|1-------------------------------|3-------------------------------|

		|0-------0---10------10--12------|----------------0---12--10--8---|
		|17--1---17--3---0---3---1-------|1-------1-------17------1-------|
		|0---------------------------2---|----2-------2-------2-------2---|
		|------------4-----------2-------|--------------------------------|
		|3-----------2-----------0-------|--------------------------------|
		|8-----------7-----------5-------|--------------------------------|

		|5-------8-------------------8---|7-------8-------3-------3-------|
		|--------1-------0-------1-------|--------0-------12------0-------|
		|----2-------2-------2-------2---|----0-------0-------0---12--0---|
		|--------------------------------|0-------------------------------|
		|3-------------------------------|--------------------------------|
		|1-------------------------------|3-------------------------------|

		|5---------------2---------------|----------------3---------------|
		|10------3---------------3-------|--------3-------3---1---0-------|
		|2---2-------2-------2-------2---|----2-------2---------------0---|
		|0-------------------------------|0-------------------------------|
		|5-------------------------------|--------------------0---3-------|
		|10------------------------------|----------------3---------------|

		|5---------------2---------------|----------------3---------------|
		|--------3---------------3-------|3-------1-------0-------1-------|
		|----2-------2-------2-------2---|----2-------2-------2-------2---|
		|0-------------------------------|0-------------------------------|
		|5---------------------------3---|--------3-------2-------3-------|
		|--------------------------------|--------------------------------|

		|5---------------0---------------|----------------0---------------|
		|--------1---------------1-------|--------1---------------1-------|
		|----2-------2-------2-------2---|----2-------2-------2-------2---|
		|2-------------------------------|2-------------------------------|
		|0-------------------------------|0-------0-----------------------|
		|5---------------------------1---|--------------------------------|

		|7---------------0---------------|0---------------0---------------|
		|--------0---------------0-------|--------0---------------0-------|
		|----0-------0-------0-------0---|----0-------0-------0-------0---|
		|--------------------------------|2-------------------------------|
		|0---------------------------2---|----2---------------------------|
		|0-------------------------------|0-------0-----------------------|

		|8---------------1---------------|3---------------3---------------|
		|--------1---------------1-------|--------0---------------0-------|
		|----2-------2-------2-------2---|----0-------0-------0-------0---|
		|--------------------------------|0-------------------------------|
		|3-------------------------------|--------------------------------|
		|1-------------------------------|3-------------------------------|

		|5-------------------------------|10--------------10--------------|
		|--------1-------0-------1-------|3-------1-------0-------1-------|
		|----2-------2-------2-------2---|----2-------2-------2-------2---|
		|2-------------------------------|0-------------------------------|
		|0-------------------------------|--------3-------2-------3-------|
		|5---------------------------1---|--------------------------------|

		|5---------------0---------------|----------------0---------------|
		|--------1---------------1-------|--------1---------------1-------|
		|----2-------2-------2-------2---|----2-------2-------2-------2---|
		|2-------------------------------|2-------------------------------|
		|0-------------------------------|0-------0-----------------------|
		|5---------------------------1---|--------------------------------|

		|7---------------0---------------|0---------------0---------------|
		|--------0---------------0-------|--------0---------------0-------|
		|----0-------0-------0-------0---|----0-------0-------0-------0---|
		|--------------------------------|2-------------------------------|
		|0---------------------------2---|----2---------------------------|
		|0-------------------------------|0-------0-----------------------|

		|8---------------1---------------|10--------------3---------------|
		|--------1-------6-------1-------|--------0-------8-------0-------|
		|----2-------2-------2-------2---|----0-------0-------0-------0---|
		|--------------------------------|0-------------------------------|
		|3-------------------------------|------------------------2-------|
		|1-------------------------------|3-------------------------------|

		|17------------------------------|--------------------------------|
		|--------------------------------|--------------------------------|
		|--------------------------------|--------------------------------|
		|2---2---2---2---2---2---2---2---|2---2---2---2---2---2---2---2---|
		|0---0---0---0---0---0---0---0---|0---0---0---0---0---0---0---0---|
		|5---5---5---5---5---5---5---5---|5---5---5---5---5---5---5---5---|

		|8---7---5---3---5-------8---7---|8---7---5---3---8---7---5---3---|
		|--------------------------------|--------------------------------|
		|--------------------------------|--------------------------------|
		|--------------------------------|0---0---0-------0---0---0-------|
		|3---3---3-------3-------3---3---|--------------------------------|
		|1---1---1-------1-------1---1---|3---3---3-------3---3---3-------|

		|8---7---5---3---5-------8---7---|8---7---5---3---8---7---5---3---|
		|--------------------------------|--------------------------------|
		|--------------------------------|--------------------------------|
		|2---2---2-------2-------2---2---|0---0---0-------0---0---0-------|
		|0---0---0-------0-------0---0---|----------------3---2---0-------|
		|5---5---5-------5-------5---5---|3---3---3-------3---3---3---3---|

		|8---7---5---3---5-------8---7---|8---7---5---3---8---7---5---3---|
		|--------------------------------|--------------------------------|
		|--------------------------------|--------------------------------|
		|--------------------------------|0---0---0-------0---0---0-------|
		|3---3---3-------3-------3---3---|--------------------------------|
		|1---1---1-------1-------1---1---|3---3---3-------3---3---3-------|

		|5-------12----------------------|--------------------------------|
		|--------------------------------|--------------------------------|
		|--------2-----------------------|--------------------------------|
		|2-------2-----------------------|--------------------------------|
		|0-------------------------------|--------------------------------|
		|5-------0-----------------------|--------------------------------|

		|8---7---5---3---5-------8---7---|8---7---5---3---8---7---5---3---|
		|--------------------------------|--------------------------------|
		|--------------------------------|--------------------------------|
		|--------------------------------|0---0---0-------0---0---0-------|
		|3---3---3-------3-------3---3---|--------------------------------|
		|1---1---1-------1-------1---1---|3---3---3-------3---3---3-------|

		|8---7---5---3---5-------8---7---|8---7---5---3---8---7---5---3---|
		|--------------------------------|--------------------------------|
		|--------------------------------|--------------------------------|
		|2---2---2-------2-------2---2---|0---0---0-------0---0---0-------|
		|0---0---0-------0-------0---0---|----------------3---2---0-------|
		|5---5---5-------5-------5---5---|3---3---3-------3---3---3---3---|

		|8---7---5---3---5-------8---7---|8---7---5---3---8---7---5---3---|
		|--------------------------------|--------------------------------|
		|--------------------------------|--------------------------------|
		|--------------------------------|0---0---0-------0---0---0-------|
		|3---3---3-------3-------3---3---|--------------------------------|
		|1---1---1-------1-------1---1---|3---3---3-------3---3---3-------|

		|5-------------------------------|--------------------------------|
		|--------------------------------|--------------------------------|
		|2-------------------------------|--------------------------------|
		|0-------------------------------|--------------------------------|
		|5-------------------------------|--------------------0---3-------|
		|--------------------------------|----------------3---------------|

		|5-------------------------------|--------------------------------|
		|1-------------------------------|3-------1-------0-------1-------|
		|2-------------------------------|----2-------2-------2-------2---|
		|2-------------------------------|--------------------------------|
		|0-------------------------------|--------------------------------|
		|5-------------------------------|--------------------------------|

		|5-----------------------7---8---|--------10--8-------7---8-------|
		|--------------------------------|--------------------------------|
		|--------------------------------|--------------------------------|
		|--------------------------------|--------------------------------|
		|0-------------------------------|--------------------------------|
		|--------------------------------|--------------------------------|

		|10----------8-------------------|--------------------3---0---3---|
		|--------------------------------|--------------------------------|
		|--------------------------------|----------------------------0---|
		|--------------------------------|--------------------------------|
		|3-------------------------------|--------------------------------|
		|8-------------------------------|--------------------------------|

		|5-------------------7---8-------|------------7-----------7-------|
		|--------------------------------|--------------------------------|
		|--------------------------------|--------------------------------|
		|--------------------------------|--------------------------------|
		|--------------------------------|--------------------------------|
		|1-------------------------------|3-------------------------------|

		|--------------------------------|--------------------------------|
		|--------------------------------|3-------1-------0-------1-------|
		|--------------------------------|----2-------2-------2-------2---|
		|--------------------------------|--------------------------------|
		|0-------------------------------|5-------3-------2-------3-------|
		|5-------------------------------|--------------------------------|

		|5-----------------------7---8---|--------10--8-------7---8-------|
		|--------------------------------|--------------------------------|
		|--------------------------------|--------------------------------|
		|--------------------------------|--------------------------------|
		|0-------------------------------|--------------------------------|
		|--------------------------------|--------------------------------|

		|10----------8-------------------|--------------------3---0---3---|
		|--------------------------------|--------------------------------|
		|--------------------------------|----------------------------0---|
		|--------------------------------|--------------------------------|
		|3-------------------------------|--------------------------------|
		|8-------------------------------|--------------------------------|

		|5-----------------------17------|------------15----------17------|
		|--------------------------------|--------------------------------|
		|--------------------------------|--------------------------------|
		|--------------------------------|--------------------------------|
		|--------------------------------|--------------------------------|
		|1-------------------------------|3-------------------------------|

		|--------------------------------|--------------------------------|
		|--------------------------------|--------------------------------|
		|--------------------------------|--------------------------------|
		|--------------------------------|------------------------2-------|
		|0-------------------------------|----------------3---2---0-------|
		|5-------------------------------|----------------8---7---5-------|

		|----------------1-------13------|12------10------3-------7-------|
		|--------1-------18------1-------|--------0-------13------0-------|
		|----2-------2-------2-------2---|----0-------0-------0-------0---|
		|--------------------------------|0-------------------------------|
		|3-------------------------------|--------------------------------|
		|1-------------------------------|3-------------------------------|

		|8-------12----------------------|--------------------------------|
		|--------1-------0-------1-------|3-------1-------0-------1-------|
		|----2-------2-------2-------2---|----2-------2-------2-------2---|
		|2-------------------------------|--------2---------------0-------|
		|0-------------------------------|3---2---0-------3---2-----------|
		|5-------------------------------|8---7---5-------8---7---3-------|

		|----------------1-------13------|12------10------3-------8-------|
		|--------1-------18------1-------|--------0-------15------0-------|
		|----2-------2-------2-------2---|----0-------0-------0-------0---|
		|--------------------------------|0-------------------------------|
		|3-------------------------------|--------------------------------|
		|1-------------------------------|3-------------------------------|

		|12------------------------------|--------------------------------|
		|--------1-------0-------1-------|3-------1-------0-------1-------|
		|----2-------2-------2-------2---|----2-------2-------2-------2---|
		|2-------------------------------|------------------------2-------|
		|0-------------------------------|----------------3---2---0-------|
		|5-------------------------------|----------------8---7---5-------|

		|----------------1-------13------|12------10------3-------10--8---|
		|--------1-------18------1-------|--------3---------------3-------|
		|----2-------2-------2-------2---|----0-------0-------0-------0---|
		|--------------------------------|0-------------------------------|
		|3-------------------------------|--------------------------------|
		|1-------------------------------|3-------------------------------|

		|0-------0---10------10--12------|----------------0---12--10--8---|
		|17--1---17--3---0---3---1-------|1-------1-------17------1-------|
		|0---0---0-------------------2---|----2-------2-------2-------2---|
		|------------4---4-------2-------|--------------------------------|
		|3---3---3---2-----------0-------|--------------------------------|
		|8-----------7---7-------5-------|--------------------------------|

		|5-------8-------------------8---|7-------8-------3-------3-------|
		|--------1-------0-------1-------|--------0-------12------0-------|
		|----2-------2-------2-------2---|----0-------0-------0-------0---|
		|--------------------------------|0-------------------------------|
		|3-------------------------------|--------------------------------|
		|1-------------------------------|3-------------------------------|

		|5-------------------------------|----------------12--12--10--8---|
		|--------------------------------|--------------------------------|
		|2-------------------------------|--------------------------------|
		|0-------------------------------|------------------------0-------|
		|5-------------------------------|----------------0-----------3---|
		|--------------------------------|--------------------0-----------|

		|5-------8-------------------8---|7-------8-------3-------3-------|
		|--------1-------0-------1-------|--------0-------12------0-------|
		|----2-------2-------2-------2---|----0-------0-------0-------0---|
		|--------------------------------|0-------------------------------|
		|3-------------------------------|--------------------------------|
		|1-------------------------------|3-------------------------------|

		|5-------------------------------|--------------------------------|
		|--------------------------------|--------------------------------|
		|2-------------------------------|--------------------------------|
		|0-------------------------------|--------------------------------|
		|5-------------------------------|--------------------------------|
		|--------------------------------|--------------------------------|

		|----------------0---------------|--------------------------------|
		|----0---1---3---5-------1---3---|----0---1-----------1-----------|
		|2---4---5---7-----------5---7---|----4---5-------2---5-----------|
		|7-------------------------------|----------------7---------------|
		|--------------------------------|--------------------------------|
		|--------------------------------|--------------------------------|

		|--------------------------------|--------------------------------|
		|0-----------1-0-----------------|--------------------------------|
		|4-----------5-4-2---------------|--------------------------------|
		|----------------7---------------|--------------------------------|
		|--------------------------------|--------------------------------|
		|--------------------------------|--------------------------------|

		|----------------0---------------|--------------------------------|
		|----0---1---3---5-------1---3---|----0---1-----------0-----------|
		|2---4---5---7-----------5---7---|----4---5-------2---4-----------|
		|--------------------------------|----------------7---------------|
		|--------------------------------|--------------------------------|
		|--------------------------------|--------------------------------|

		|--------------------------------|--------------------------------|
		|--------------------------------|--------------------------------|
		|2-------------------------------|--------------------------------|
		|7-------------------------------|--------------------------------|
		|--------------------------------|--------------------------------|
		|--------------------------------|--------------------------------|

		|----------------0---------------|--------------------------------|
		|----0---1---3---5-------1---3---|----0---1-----------1-----------|
		|2---4---5---7-----------5---7---|----4---5-------2---5-----------|
		|7-------------------------------|----------------7---------------|
		|--------------------------------|--------------------------------|
		|--------------------------------|--------------------------------|

		|--------------------------------|--------------------------------|
		|0-----------1-0-----------------|--------------------------------|
		|4-----------5-4-2---------------|--------------------------------|
		|----------------7---------------|--------------------------------|
		|--------------------------------|--------------------------------|
		|--------------------------------|--------------------------------|

		|----------------0---------------|--------------------------------|
		|----0---1---3---5-------1---3---|----0---1-----------0-----------|
		|2---4---5---7-----------5---7---|----4---5-------2---4-----------|
		|7-------------------------------|----------------7---------------|
		|--------------------------------|--------------------------------|
		|--------------------------------|--------------------------------|

		|--------------------------------|--------------------------------|
		|--------------------------------|--------------------------------|
		|2-------------------------------|--------------------------------|
		|7-------------------------------|--------------------------------|
		|--------------------------------|--------------------------------|
		|--------------------------------|--------------------------------|

		|----------------0---------------|--------------------------------|
		|----0---1---3---5-------1---3---|----0---1-----------1-----------|
		|2---4---5---7-----------5---7---|----4---5-------2---5-----------|
		|0-------------------------------|----------------7---------------|
		|7---------------0---------------|----------------0---3-----------|
		|5---0---1---3-------------------|--------------------------------|

		|--------------------------------|--------------------------------|
		|0-----------1-0-----------------|--------------------------------|
		|4-----------5-4-2---------------|--------------------------------|
		|----------------7---------------|--------------------------------|
		|3-------------------------------|--------------------------------|
		|1-------------------------------|--------------------------------|

		|----------------0---------------|--------------------------------|
		|----0---1---3---5-------1---3---|----0---1-----------0-----------|
		|2---4---5---7-----------5---7---|----4---5-------2---4-----------|
		|0-------------------------------|----------------7---------------|
		|0-------------------------------|----------------0---2-----------|
		|10------------------------------|--------------------------------|

		|--------------------------------|--------------------------------|
		|--------------------------------|--------------------------------|
		|2-------------------------------|--------------------------------|
		|2-------------------------------|--------------------------------|
		|0-------------------------------|--------------------------------|
		|5-------------------------------|--------------------------------|

		|----------------0---------------|--------------------------------|
		|----0---1---3---5-------1---3---|----0---1-----------1-----------|
		|2---4---5---7-----------5---7---|----4---5-------2---5-----------|
		|0-------------------------------|----------------7---------------|
		|7---------------0---------------|----------------0---3-----------|
		|5---0---1---3-------------------|--------------------------------|

		|--------------------------------|--------------------------------|
		|0-----------1-0-----------------|--------------------------------|
		|4-----------5-4-2---------------|--------------------------------|
		|----------------7---------------|--------------------------------|
		|3-------------------------------|--------------------------------|
		|1-------------------------------|--------------------------------|

		|--------------------------------|--------------------------------|
		|----0---1---3---5-------1---3---|----0---1-----------0-----------|
		|2---4---5---7---9-------5---7---|----4---5-------2---4-----------|
		|0-------------------------------|----------------7---------------|
		|0-------------------------------|----------------0---2-----------|
		|10------------------------------|--------------------------------|

		|--------------------------------|--------------------------------|
		|--------------------------------|--------------------------------|
		|2-------------------------------|--------------------------------|
		|2-------------------------------|--------------------------------|
		|0-------------------------------|--------------------------------|
		|5-------------------------------|--------------------------------|

-

>		 Am                  C
		Ночь унесла тяжелые тучи,
>		     F          G           Am
		Но дни горьким сумраком полны.
		Мы расстаемся - так будет лучше,
		Вдвоем нам не выбраться из тьмы.

>		F    G         Am
		Я любил и ненавидел,
>		F     G            Am
		Но теперь душа пуста.
>		F      G           C    G     Am
		Все исчезло, не оставив и следа,
>		            F         G            D Dm
		И не знает боли в груди осколок льда.

		Я помню все, о чем мы мечтали,
		Но жизнь не для тех, кто любит сны.
		Мы слишком долго выход искали,
		Но шли бесконечно вдоль стены.

		Я любил и ненавидел,
		Но теперь душа пуста.
		Все исчезло, не оставив и следа,
		И не знает боли в груди осколок льда.

		Пусть каждый сам находит дорогу -
		Мой путь будет в сотню раз длинней.
		Но не виню ни черта, ни Бога
		За все заплатить придется мне.

		Я любил и ненавидел,
		Но теперь душа пуста.
		Все исчезло, не оставив и следа,
		И не знает боли в груди осколок льда.