Ночь короче дня (1995)
		Рабство иллюзий

Музыка:		Виталий Дубинин/Владимир Холстинин
Текст:		Маргарита Пушкина

>		     Am
(1)		В краю древних предков я рос чужаком
		И не чтил ни святых, ни чертей.
		Я шел против ветра, я шел напролом
>		                            G
		В мир нездешних и вольных людей,
>		     F          G          Am
		Hо я небыл никогда рабом иллюзий.
>		      Am
		Здесь молятся Богу и Сатане
		Без хозяина трудно прожить,
		И каждый построил себе по тюрьме,
>		                                G
		Веря в праведность царственной лжи,
>		     F          G          D
		Hо я небыл никогда рабом иллюзий.

>		 G
Припев:		Здесь, на вершине
		Рядом со мной
>		        F
		В небе кружат три белых орла.
>		G
		Гордость - им имя,
		Дух и Покой,
>		     F
		А за ними ни Зла, ни Добра.
>		 A
		Стой на вершине
		Рядом со мной
>		         G
		Там где кружат три белых орла.
>		A
		Гордость - им имя,
		Дух и Покой,
>		G
		А за ними лишь высь,
		Лишь холодная высь.
>		Am
		Hи Добра, ни Зла.

(2)		Меня проклинали, смеялись в лицо,
		А старухи плевали мне в след.
		Друзья награждали терновым венцом
		И пророчили множество бед,
		Hо я не был никогда рабом иллюзий.
		Hо даже в час смерти не стану другим
		И никто не поставит мне крест.
		Я буду свободным, но трижды чужим
		Для пустых и холодных небес.
		Я не стану никогда рабом иллюзий.

!		Припев

-

!		Аккорды взяты из книжки "Еще 30 песен группы АРИЯ"

Intro:		[E|-----------------------------|-----------------------------|-
		H|-----------------------------|-----------------------------|-
		G|-----------------------------|-----------------------------|-
		D|-----5---7-5-4-5--4---4------|-----2---4-2---5--4-2--7-5-4-|-
		A|-7-7---7------------7----7-5-|-3-3---3-----3---------------|-
		E|-----------------------------|-----------------------------|-]

>		Am
(1)		В краю древних предков я рос чужаком и не чтил ни святых ни чертей
>		                                                                  G
		И я шел против ветра, я шел напролом в мир нездешних и вольных людей
>		      F          Dm         Am
		Hо я не был никогда рабом иллюзий.

		Здесь молятся Богу и Сатане, без хозяина трудно прожить
		И каждый построил себе по тюрьме веря в правильность царственной лжи,
		Hо я не был никогда рабом иллюзий.
>		      F          Dm          D
		Hо я не был никогда рабом иллюзий!

>		  G
Припев:		Здесь, на вершине, рядом со мной
>		         F
		В небе кружат три белых орла
>		 G
		Гордость им имя, Дух и Покой,
>		      F
		А за ними ни зла, ни добра.
>		  A
		Стой на вершине, рядом со мной
>		          G
		Там где кружат три белых орла
>		 A
		Гордость им имя, Дух и Покой,
>		      G
		А за ними лишь высь, лишь холодная высь,
>		 Am
		Hи добра ни зла.

(2)		Меня проклинали, смеялись в лицо, а старухи плевали мне в след.
		Друзья награждали терновым венцом и пророчили множество бед,
		Hо я не был никогда рабом иллюзий.

		Hо даже в час смерти не стану другим, и никто не поставит мне крест.
		Я буду свободным, но трижды чужим для пустых и холодных небес.
		Я не стану никогда рабом иллюзий.

		Я не стану никогда рабом иллюзий!

-

>		     Am
		В краю древних предков я рос чужаком,
		И не чтил ни святых ни чертей.
		Я шел против ветра, я шел напролом
>		                             G
		В мир нездешних и вольных людей.
>		      F           Dm         Am
		Но я не был никогда рабом иллюзий

		Здесь молятся Богу и Сатане.
		Без хозяина трудно прожить.
		И каждый построил себе по тюрьме,
		Веря в праведность царственной лжи.
		Но я не был никогда рабом иллюзий.
>		      F           Dm         D
		Но я не был никогда рабом иллюзий.

>		  G
		Здесь, на вершине рядом со мной
>		         F
		В небе кружат три белых орла.
>		 G
		Гордость им имя, Дух и Покой,
>		      F
		А за ними ни Зла ни Добра.
>		  A
		Стой на вершине рядом со мной,
>		          G
		Там где кружат три белых орла.
>		 A
		Гордость - им имя, Дух и Покой,
>		      G
		А за ними лишь высь, лишь холодная высь,
>		 Am
		Ни Добра ни Зла.

		Меня проклинали, смеялись в лицо,
		А старухи плевали мне в след.
		Друзья награждали терновым венцом,
		И пророчили множество бед.
		Но я не был никогда рабом иллюзий.

		Но даже в час смерти не стану другим,
		И никто не поставит мне крест.
		Я буду свободным, но трижды чужим,
		Для пустых и холодных небес.
		Я не стану никогда рабом иллюзий.
		Я не стану никогда рабом иллюзий.