Ночь короче дня (1995)
		Уходи, и не возвращайсся
!		(В.Дубинин - М.Пушкина)

>		E7
		Ты хотела быть всех круче,
>		Cmaj7
		Красотой своей замучить,
>		H
		И заставить самых лучших
>		  A7
		Дружно платить тебе дань.

		Ты решила в свет пробиться,
		И нашла себе двух принцев,
		И банкира, и убийцу,
		Ты просто хитрая дрянь.

>		    C#m E7         A   G#
		Уходи, и не возвращайся,
>		    C#m E7         A
		Уходи, и не возвращайся,
>		H                     C#m
		И не возвращайся ко мне!

		Ты звонишь и просишь встречи
		Обязательно под вечер.
		Там где музыка и свечи.
		Думаешь я идиот?

		Вон из сердца, дочь вампира,
		Я дарю тебе полмира,
		Лишь бы ты меня забыла,
		И не дала задний ход!

		Уходи, и не возвращайся,
		Уходи, и не возвращайся,
		И не возвращайся ко мне!

>		 C#m          C
		Не надейся, что сыграем
>		    E       F#7
		В старую любовь.
>		 A7
		Бай-бай, детка,
>		   H7                   E
		В мире много старых козлов!

		Уходи, и не возвращайся,
		Уходи, и не возвращайся,
		И не возвращайся ко мне!