Химера (2001)
		"Я не сошел с ума"
!		(С.Терентьев - М.Пушкина)

>		Em                    C
		Дай мне жить так, как я хочу.
>		      Am          D
		Если нет - убей, мне здесь тесно.
>		Em             C
		Знаю я - я всего лишь гость,
>		      Am        D       H
		На твоей земле мне нет места.
>		Em            C         Am           Em
		Здесь бродят тени, ими движет запах денег.
>		Em             C          Em
		Боль других и холод греют им сердца.
>		Em               C          Am           Em
		Связь времен распалась и злодей и нежный гений
>		C                  Am      C                 D
		Тесно сплелись в обьятиях, им просвещить нельзя.

!		Припев

>		Em             C                  D
		Я не сошел с ума, мир так стар и мал,
>		          Am
		Что его делить нет больше смысла.
>		Em                C                D
		Нет, ты возьми себе все, что на земле
>		               Am
		Мне оставь простор небесной выси.

!		Куплет

		Лучше быть одному всю жизнь,
		Чем найти свой дом и жить в нем с кем попало.
		Ты молчишь, ты не против лжи, 
		Если в ней есть звон, звон металла.
		Здесь бродят тени, ими движет запах денег.
		Боль других и холод греют им сердца.
		Связь времен распалась и злодей и нежный гений
		Тесно сплелись в обьятиях, им просвещить нельзя.

!		Припев

-

>		 Em                    C
		Дай мне жить, так, как я хочу.
>		      Am           C        D
		Если нет - убей, мне здесь тесно.
>		  Em           C
		Знаю я - я всего лишь гость,
>		      Am         C      H7
		На твоей Земле мне нет места.

>		  Am          Am/F       Am/F#       F
		Здесь бродят тени, ими движет запах денег,
>		 Am            Am/F       Am/F#   F
		Боль других и холод греют им сердца.
>		  Am             Am/F         Am/F#          F
		Связь времен распалась, и Злодей, и Светлый Гений,
>		 C                  Em     C                 H
		Тесно сплелись в объятьях, их различить нельзя.

>		Em             C                  C#m
		Я не сошел с ума, мир так стар и мал,
>		           A        H       C
		Что его делить нет больше смысла.
>		 Em               C                  С#m
		Нет, ты возьми себе, всё, что на Земле,
>		                A     H      C
		Мне оставь простор небесной выси!

		Лучше быть одному всю жизнь,
		Чем найти свой дом, и жить в нем, с кем попало!
		Ты молчишь - ты не против лжи,
		Если в ней есть звон, звон металла.

		Здесь бродят тени, ими движет запах денег,
		Боль других и холод греют им сердца.
		Связь времен распалась, и Злодей, и Светлый Гений,
		Тесно сплелись в объятьях, их различить нельзя.

		Я не сошел с ума, мир так стар и мал,
		Что его делить нет больше смысла.
		Нет, ты возьми себе, всё, что на Земле,
		Мне оставь простор небесной выси!