
		365 дней в году

		<  B	      E                 G#m>
(1)		Триста шестьдесят пять дней в году
		<  B          E       F#>
		Трачу на сплошную ерунду
		< B                    C#>
		Каждый день - одно и то же,
		<  D#         E>
		Скучен мир и обезвожен,
		< B              F#        G#m>
		День прошел - я новый одолжу

(2)		Триста шестьдесят пять раз в году
		Просыпаюсь и движенья жду
		Сутки прочь, число сменилось,
		Ничего не изменилось,
		День прошел - я новый одолжу

Припев:		<E    G#m>
		Я сойду...
		< C#	    A		    F#>
		Медленно и верно я иду ко дну
		<  E       G#m>
		Здесь, сейчас
		< C#           A               F#>
		Каждый день живу в последний раз

(3)		Триста шестьдесят пять дней в году
		Триста шестьдесят пять раз в году
		Каждый день одно и то же,
		Друг на друга дни похожи,
		День прошел - я новый одолжу

!		Припев

Solo:		<B  G#m	E  E
		B  G#m	E  G A
		B  G#m	E  E
		B  G#m	E  G A>

		    <B          G#m        E        E>
		1) -----7-9-7------4-6-4------0-2------0-2-0--
		2) ---7----------4----------0--------0--------
		3) -8----------4----------1--------1----------

!		Припев
