
		Дурная башка

		<C(III)              E(VII)>
(1)		Солнцезащитные очки
		<                           F(VIII)>
		А вместо глаз - одни зрачки
		<                     G(X)>
		За нахождение в крови
		<      G(X) F(VIII) C(III)>
		"От ноля   до    пяти"
		Рубашка с длинным рукавом
		Один прозвон - опять облом
		Подальше спрячся от мечты
		Вместо "грамма" - ноль-три

		<                Am(V)>
Припев:		      Дурная башка
		<   F(VIII)    G(X)    E(VII)>
		      Ногам покоя не даёт
		      Сегодня, вчера
		      И завтра - целый скучный год

		      Больная среда
		      До добра не доведёт
		      Случится беда
		      И вряд ли кто-нибудь поймёт

		<G(X) F(VIII) C(III)>

(2)		Вот кто-то гонится за мной
		Двойной прозвон - опять отбой
		С утра я не могу порой
		Вспомнить кто я такой

		Стою на стрелке два часа
		Сырой подъезд и темнота
		От грязной ложки...
		Мой шанс...

!		Припев

$solo:		<    F     F     Am          F     F     Am>
		1) --------------------------------------------------
		2) --------------------------------------------------
		3) --------------------------------------------------
		4) -------------------3-2-0--------------------------
		5) ---2-3---2-3-0-2-3---------2-3---2-3-0-2-3-2-0----
		6) -1-----1-----------------1-----1---------------3--

		<    F     F     Am          F     F     E>
		1) --------------------------------------------------
		2) --------------------------------------------------
		3) --------------------------------------------------
		4) -------------------3-2-0--------------------------
		5) ---2-3---2-3-0-2-3---------2-3---2-3--------------
		6) -1-----1-----------------1-----1------------------

!		Припев  } 2 раза

		<                Am>
		      Дурная башка...

-

!		\ - slide
!		+ - let chord ring
!		* - repeat 5 times
!		h - hammer on
!		p - pull off

!		Soft Distortion

Intro/Riff:	1) ------------------------------------------------
		2) ------------------------------------------------
		3) -5+----------------9+-------------------------10+
		4) -5+----------------9+-------------------------10+
		5) -3+----------------7+--------------------------8+
		6) -------------------------------------------------
		    Солнцезащитные очки, а вместо глаз одни зрачки

		1) ----------------------------------------
		2) ----------------------------------------
		3) ---------------------12+------10+9+---5+
		4) ---------------------12+------10+9+---5+
		5) ---------------------10+-------8+7+---3+
		6) ----------------------------------------
		    За нахождение в крови от ноля до пяти

!		И т.д.

Main Riff:	1) -------------------------
		2) -------------------------
		3) -----------14*-10*-12*-9*
		4) -----------14*-10*-12*-9*
		5) -----------12*--8*-10*-7*
		6) -------------------------
		    Дурная башка ногам покоя не дает

Solo:		5)-----------------------8--7-5  \ 2 раза
		6)-5--7-8--5--7-8--5--7-8------  /

Lyrics:		Солцезащитные очки
		А вместо глаз - одни зрачки
		За нахождение в крови
		От "ноля до пяти"

		Рубашка с длинным рукавом
		Один прозвон - опять облом
		Осколки сбывшейся мечты
		Вместо "грамма" - ноль-три

Припев:		Дурная башка
		Hогам покоя не дает
		Сегодня, вчера
		И завтра - целый скучный год

		Больная среда
		До добра не доведет
		Случиться беда
		И врядли кто-нибудь поймет