
		Поезд в сторону Арбатской

		<G>
(1)		  Она ушла в шесть вечера с работы,
		  Села в свой автобус и поехала домой.
		<Em>
		  Она ждала всю неделю субботы,
		<    C                    D>
		  Каждый новый день ждала свой выходной.
		<G>
		  Она хотела пойти с кем-нибудь куда-нибудь,
		  Может быть кого-то пригласить к себе домой,
		<Em                     D>
		  Но старые друзья давно другими стали,
		<     C                D>
		  А новые, похоже, обходят стороной.
		<Am                  D>
		  И так порою трудно ей одной,
		<Am                   D               C>
		  Что иногда не хочется идти в свой дом пустой.

		<G              D        C     D          G>
Припев:		  На поезд в сторону Арбатской посадки нет,
		<               D        C           D>
		  На поезд в сторону Арбатской е-е-е.

(2)		  Она любила прогулятся по Арбату,
		  Ей нравилось смотреть на панков расписных,
		  Ей нравились такие странные ребята,
		  А может даже..., но как к ним подойти.
		  Она хотела пойти с кем-нибудь куда-нибудь,
		  Может быть кого-то пригласить к себе домой,
		  Но старые друзья давно другими стали,
		  А новые, похоже, обходят стороной.
		  И так порою трудно ей одной,
		  Что иногда не хочется идти в свой дом пустой.
