
		Моя Ямайка

>		      Gm
		Я не помню, как я родился на свет
>		        Cm                              Gm
		Был он белым, *ля, или зеленым - это неважно
>		Gm
		Я не помню, сколько мне лет
>		      Cm                              Gm
		Фотографии нету на паспорт, где мой первый год

Припев:		<  Gm>
		Ямайка, я, наверно, родился в майке
>		      Cm             Gm
		На твоих руках, на моих ногах -
>		  Gm
		песок, я хожу без носок, босиком
>		     Cm                            Gm
		мои волосы ниже стандарта, мне нужна твоя карта
>		 A#              Dm              Cm
		Мама, мама-мая-мая-мая-мая-мая-моя Ямайка
		Мам-мая-мая-мая-мая-мая-моя Ямайка

		Я не помню моего имени-ни
		у меня было много фамилий
		их меняли, но меня не спросили
		я не помню, кто купил мне билет -
		     я очнулся - никого рядом нет
		но я чую, человек был не левый -
		это был кто-то из наших, спасибо ему

!		Припев

		Я не помню, как открылись глаза за легализа(цию)
		но в любую да люди воюют
		все зигзагообразно

		я не знаю, что еще вам сказать
		                     или показать
		я смотрю назад на зад и он - черный
		я дома, мама

!		Припев