*ДОРОГА В ОБЛАКА*
		Аэроплан

>		     A                     C#m
		Далеко, но не дальше, чем север;
>		     F#m                  D
		Высоко, но не выше, чем снег,
>		     Hm                G
		Я лечу, и поет мне пропеллер
>		                           E
		Эту песню про дальний рассвет.

		Пять часов до него еще лету,
		Пять задумчиво долгих часов,
		Но люблю я такую работу
		И люблю эту песню без слов:

припев:		< A             Hm>
		По утрам пролетает тут и там
>		        D               F#m E
		Старый мой аэроплан по свету.
		По утрам из чужих далеких стран
		Он приносит солнце вам к рассвету.

		И всю ночь напевает пропеллер
		Эту песню про дальний рассвет.
		Далеко, но не дальше, чем север;
		Высоко, но не выше, чем снег.

!		припев } 3 раза