*НА ПЕРЕКРЕСТКАХ ВЕСНЫ* (1996)
		Небо

!		со 2 лада
Вступление:	<Hm A Hm A Hm A G F#m E>

>		           Hm      E             Hm   E
		Останься еще на час и может быть я
>		             Hm      A               Hm
		Напомню в который раз о том, что Земля
>		  G       D      A      D   A   Hm
		Проснулась на руках у тишины
>		  G       D     Em            G          A    E
		Что самый лучший день - день до весны

		Что все чем жила зима не больше чем сон
		Не больше чем суета дождя за окном
		А мы пойдем с тобой встречать весну
		И лишь тебе одной я подарю

>		 D         F#m            G         Gm7       A     D A
		Небо белые облака тысячи теплых дней после ненастья
>		Hm F#m G Gm7 A E

		Останься и все пройдет пройдет стороной
		Как несколько грустных нот, как дым над рекой
		А мы пойдем с тобой встречать весну
		И лишь тебе одной я подарю

!		Припев

		< D         F#m            G         Gm7       A     D A>
		Небо белые облака тысячи теплых дней после ненастья
>		 D    Hm           F#m                   G        Gm7
		Солнце  самый большой секрет, самый большой секрет
>		          A
		Вечного счастья.