
		В дизайне Божьем

>		Em         Am                C
		В дизайне Божьем нету заблуждения
>		D         Em
		И ошибок нет.
>		       Am      C
		Все продумано тонко
>		  D                Em  C   G  Am         Em
		Цвет волос и кожи цвет. И там радость и свет
>		 Am            Em
		Нет голодных и бедных,
>		 Hm             C   D  Em
		Нет больных и слабых нет,

		В дизайне Божьем нету одиночества,
		Нет ненужных тайн.
		Никогда там не плачут
		От бессилья по ночам.
		Там всех любят и ждут,
		Не солгут, не изменят,
		И друзей не предадут.

>		         G    Am             G       Am
		        Там красок много, в дизайне Бога,
>		        Em        Hm          Am   D
		        Там нету боли, нету слёз и одиночества.
>		         G    Am         G  Am
		        Там много света, и лишних нет там.
>		        Em       Hm            C
		        Там для тебя найдется место,
>		        D           Em
		        Если хочешь ты.

		В дизайне Божьем место есть для каждого,
		Очень ценен ты.
		Человек - это Божье воплощенье красоты.
		Ведь ты - тот для кого,
		Бог отдал на распятье,
		Сына Своего.
