
		Великий Бог

>		         A                      D
		Великий Бог! Когда на мир смотрю я,
>		A           E       A           E
		На все, что Ты создал рукой Творца,
>		A                                   D
		На всех существ, кого, Свой свет даруя,
>		A        E    A      E
		Питаешь Ты любовию Отца, –

>		A     		D              A
		Тогда поет мой дух, Господь к Тебе:
>		E         A            E
		Как Ты велик, как Ты велик!
		Когда весной природа расцветает,
		И слышно в дальней роще соловья,
		И аромат долины грудь вдыхает,
		И слух ласкает звонкий шум ручья, –

		Когда смотрю я к небу, к звездам млечным,
		Где дивно светлые миры текут,
		Где солнце и луна в эфире вечном,
		Как в океане корабли, плывут, –

		Когда Господь меня Сам призывает,
		И светит луч сияния Его,
		Тогда мой дух в смирении смолкает,
		Признав величье Бога Своего.