
		Где нет угроз, не мучит страх

>		Cm
		Где нет угроз, не мучит страх,
>		   Fm             G7
		Превыше звезд на небесах
>		   Fm          G7
		Желанный дом и мир красот
>		    Ab      B             Eb
		В краю родном спасенных ждёт.

>		         Ab    Eb        Fm        Cm
		     О, вечный дом, где радость и свет,
>		         Fm     Cm        G7     Cm
		     О, вечный день, где вечера нет.
>		         Fm     Cm     G7
		     Господь зовёт - и мы идем,
>		        Ab     B             Eb(Cm)
		     Любовь ведёт в небесный дом.

		Там неземной ликует хор,
		Течет река живой воды
		Там чистотой сияет взор,
		Награда там за все труды.

		Уставший день взойдёт светлей,
		Наполнит Бог хвалой уста,
		Своих родных, своих друзей
		Увижу я у ног Христа.
