
		Дай мне подойти

>		Em       Am        D      Em
		Дай мне подойти к Тебе поближе
		Ноги пригвожденные обнять.
		Дай склониться пред Тобой пониже
		Раны от гвоздей поцеловать.

>		          C                    D   Em
		        Ты висишь, висишь, стекая кровью
		        Так свое созданье возлюбя.
>		         C     D           G     Em
		        Что готов обнять Своей любовью
>		        Am    D                  Em
		        Даже тех, кто распинал Тебя.

		Но напрасны все мои стремленья,
		Чтоб Твои страданья облегчить.
		Дай Господь, чтоб каждое мгновенье
		Жизни сей Тебе мог посвятить.

		        Я виновник Твоего страданья,
		        Я виновник всех тяжелых мук.
		        Как бы я хотел своим признаньем
		        Вырвать гвозди из пронзенных рук.
