
		Мы каждый день встречаемся вновь

>		          Em
		Мы каждый день встречаемся вновь
>		              Am7
		С прекрасным словом, словом "любовь",
>		           H7                           Em-H7
		Мы каждый день за ней летим в мечтах своих,
>		        Em                         Am
		Но настоящей любви, увы, мы в этом мире не нашли,
>		           H7                       Em
		На наш вопрос один ответ: любви без Бога нет.

>		                  Em                       Am
		       Любовь Христа верна и чиста, она и ласкова, и нежна,
>		              D                       C
		       Она объемлет всех людей и покорит силой своей.
>		                 Em                       Am
		       Держитесь этой вы любви, она вас к небу приведет,
>		              H7             Em
		       Где Иисус спасенных ждет.

		Но настоящая любовь приходит с синих облаков.
		Её дарует вечный Бог, Творец миров.
		Она несется и парит, и каждый может получить
		Без денег, злата, серебра любовь Христа.
