
		Небеса ожидают меня

>		    Em            Am
		Небеса ожидают меня,
>		          H7             Em
		Радость ждёт неземная меня,
>		                            Am
		Будет встреча с Иисусом Христом,
>		        H7                Em
		Святым Духом, Небесным Отцом.

>		   D G(Em)              D(Am)
		И венец, ну конечно, венец,
>		         Am(H7)    H7    Em(Em)
		Тот, что мне приготовил Отец!
>		   D G           D       Am   H7     Em
		Аллилуйя! Аллилуйя! Аллилуйя! Аллилуйя!
>		     Em          Am      H7         Em
		Аллилуйя! Аллилуйя! Аллилуйя! Аллилуйя!

		Город ждёт неземной красоты.
		Всюду ангелы, всюду цветы,
		Лица милых родных мне друзей,
		И Спаситель стоит у дверей.

		Будет встреча с Иоанном, Петром,
		И святых без числа целый сонм.
		Подойдут и обнимут меня,
		Радость будет моя без конца.
