
		Склоняю колени

>		    Em     C   D             Em
		Склоняю колени, закрываю глаза
>		    Em     C   D             Em
		У Бога прощенья просить буду я

>		  C          G   D        Em
		  Он - мой Отец, я - Его сын
>		   C      G   D       Em
		  Ранил Его грехом своим.

		И сил больше нет - на душе темнота.
		Когда же рассвет прийдет от Отца

		И вдруг солнца луч упал на меня
		И сквозь толщу туч пришла теплота

		  Он - мой Отец, я - Его сын,
		  Он все простил, что я творил
