
		Ты запомни

>		       Hm     G            Hm                A
		        Ты запомни, через жертву Иисуса Христа
>		               F#                 Hm
		        Ты свободен от любого греха.
>		               Em              Hm
		        Твоя вина искуплена давно.
>		                G      Hm                     A
		        Милый друг, Иисус так сильно любит тебя,
>		              F#                   Hm
		        Все твои болезни взял на себя
>		                  Em                      A
		        Ты лишь поверь - открой для Бога сердце,
>		                       F#                 Hm
		                         открой для Бога дверь.

>		Hm ...
		Если что-нибудь случится страшное с тобой,
		Если дьявол в дом стучится с горем и бедой,
		Никогда не падай духом: в небо посмотри,
		Обратись к Живому Богу правды и любви.

		        И запомни: через жертву Иисуса Христа...

		Если в жизни ты не можешь путь найти прямой,
		Если ты увяз в болоте прямо с головой.
		Чтоб разбить твои оковы рабства и греха
		Обратись скорее к Богу он поймет тебя

		        И запомни: через жертву Иисуса Христа...
