
		Христос є скеля

>		 Dm                              A
		Христос є скеля, фонтан з якої б"ється
>		                               Dm
		Води цілющої, що дасть життя нове.
>		                    D          Gm
		Христос є скеля, вода з якої ллється
>		        Dm             A          Dm
		Вода жива, що дасть тобі життя нове.

>		                  Gm                         Dm
		       Коли хто прагне, хай приходить з неї п"є
>		                 A7           Dm
		       Освіжить душу і все єство своє.
>		                   D                 Gm
		       Христос є скеля, вода з якої ллється
>		               Dm             A          Dm
		       Вода жива, що дасть тобі життя нове.

		Христос лілея на ланах квітучих
		Троянда свіжа, біла із саду Сарон.
		Христос життя й любов понад любов"ю
		Він той, що нам своє спасіння подає.
