
		Потому что нельзя...

>		             Dm
		Отшумела листва
>		     E      Am
		у природы своё обновленье
>		        Dm
		В свете лампы ночной
>		      E               Am
		Твои волосы сводят с ума
>		        Dm           E
		Твои волосы руки и плечи
>		  Am         F
		Твои преступленья
>		     Dm
		Потому что нельзя быть
>		    E              Am
		На свете красивой такой

>		              Dm   G7
Припев:		Потому что нельзя
>		              C    Am
		Потому что нельзя
>		              Dm
		Потому что нельзя
>		                  E      Am
		Быть на свете красивой такой
>		              Dm   G7
		Потому что нельзя
>		              C    Am
		Потому что нельзя
>		              Dm
		Потому что нельзя
>		                  E      Am
		Быть на свете красивой такой

!		И так далее
!		Куплет играть перебором, а припев боем :-)

-

>		             Am        H7      Em     C
(1)		Облетела листва - у природы свое обновленье.
>		    Am             H7               Em
		И туманы ночами стоят и стоят над рекой.
>		             Am      H7      Em         C
		Твои волосы, руки и плечи твои - преступленье.
>		    Am                      H7              Em Am Em
		Потому, что нельзя быть на свете красивой такой.

>		                Am D                G Em
Припев:		Потому, что нельзя, потому, что нельзя,          \
>		                Am                  H7      Em7   } 2 раза
		Потому, что нельзя быть на свете красивой такой. /

(2)		Эти желтые листья в ладони свои собираю.
		Отсверкали они и лежат на холодном лугу.
		И ты сердцем моим, словно листьями теми играешь.
		И бросаешь в костер - не сжигай только нашу мечту.

!		Припев

(3)		Я боюсь твоих губ - для меня это просто погибель.
		В свете лампы ночной твои волосы сводят с ума.
		И все это хочу навсегда, навсегда я покинуть,
		Только как это сделать - ведь жить не могу без тебя.

!		Припев