
		Ваше благородие, госпожа Разлука
Слова:		Б.Окуджава
музыка:		И.Шварц
!		(из к/ф "Белое солнце пустыни")

>		 Am               E7         Am
		Ваше благородие, госпожа Разлука,
>		 C                       G           C
		Мы с тобой родня давно - вот какая штука.
>		Dm                    G          C
		Письмецо в конверте погоди, не рви!
>		Dm              Am      E7        F
		Hе везет мне в смерти - повезет в любви.

		Ваше благородие, госпожа Чужбина,
		Жарко обнимала ты, да только не любила.
		В ласковые сети постой, не лови.
		Hе везет мне в смерти - повезет в любви.

		Ваше благородие, госпожа Удача,
		Для кого ты добрая, а кому - иначе.
		Девять граммов в сердце - постой, не зови.
		Hе везет мне в смерти - повезет в любви.

		Ваше благородие, госпожа Победа!
		Значит, моя песенка до конца не спета.
		Перестаньте, черти, клясться на крови!
		Hе везет мне в смерти - повезет в любви.