1967
		Грузинская песня
!		М.Квливидзе

>		 Am                                  Dm
		Виноградную косточку в тёплую землю зарою,
>		 G7                               C
		И лозу поцелую, и спелые гроздья сорву,
>		 Am
		И друзей созову,
>		                        Dm
		На любовь своё сердце настрою...
>		 E7
		А иначе зачем
>		                      Am
		На земле этой вечной живу!

>		 C
		Собирайтесь-ка, гости мои, на моё угощенье
		Говорите мне прямо в лицо,
		Кем пред вами слыву,
		Царь небесный пошлёт
		Мне прощенье
		За прогрешенья...
		А иначе зачем
		На земле этой вечной живу?

		В тёмно-красном своём будет петь для меня моя Дали,
		В чёрно-белом своём преклоню перед нею главу,
		И заслушаюсь я,
		И умру от любви и печали...
		А иначе зачем
		На земле этой вечной живу!

		И когда заклубится закат,
		По углам залетая,
		Пусть опять и опять предо мной проплывут наяву
		Белый буйвол,
		И синий орёл,
		И форель золотая...
		А иначе зачем
		На земле этой вечной живу?