1959
		Живописцы
!		Ю.Васильеву

>		     Am        E7        Am
		Живописцы, окуните ваши кисти
>		      Am          E7            Am
		В суету дворов арбатских и в зарю,
>		       Dm        E7            Am
		Чтобы были ваши кисти, словно листья,  \
>		        H7             E7           Am  \
		Словно листья, словно листья к ноябрю.   \ 2 раза

		Окуните ваши кисти в голубое,
		По традиции забытой городской,
		Нарисуйте и прилежно и с любовью,      \
		как с любовью мы проходим по Тверской.  \ 2 раза

		Мостовая пусть качнется, как очнется!
		Пусть начнется, что еще не началось.
		Вы рисуйте, вы рисуйте, вам зачтется... \
		Что гадать нам: удалось - не удалось?    \ 2 раза

		Вы, как судьи, нарисуйте наши судьбы,
		Наше лето, нашу зиму и весну...
		Ничего, что мы чужие, вы рисуйте!      \
		Я потом, что непонятно, объясню.        \ 2 раза