
		По Смоленской дороге
!		Ж.Болотовой

>		       Hm                 Em    F#7   Hm
		По Смоленской дороге - леса, леса, леса.
>		                            D       A7      D
		По Смоленской дороге - столбы, столбы, столбы.
>		           D             C#7   F#7   G
		Над Смоленской дорогою, как твои глаза, -
>		                           Em   F#7     Hm
		две вечерних звезды - голубых моих судьбы.

		По Смоленской дороге - метель в лицо, в лицо,
		всё нас из дому гонят дела, дела, дела.
		Может, будь понадежнее рук твоих кольцо -
		покороче б, наверно, дорога мне легла.

		По Смоленской дороге - леса, леса, леса.
		По Смоленской дороге - столбы гудят, гудят.
		На дорогу Смоленскую, как твои глаза,
		две холодных звезды голубых глядят, глядят.