Angels Fall First (1997), Over The Hills And Far Away (2001)
		Astral Romance

!		Lead Guitar

		[E||-------------------|-----------------------|-------------------|
		B||-------------------|-----------------------|-------------------|
		G||-------------------|-----------------------|-------------------|
		D||--2----------------|------2--2--2--4--5----|-------------------|
		A||-------------------|-----------------------|--5----------------|
		E||-------------------|-----------------------|-------------------|

		-----------------------|---------------------|----------------------|
		-----------------------|---------------------|----------------------|
		-----------------------|---------------------|----------------------|
		---------------4--5----|---------------5--4--|--2-------------------|
		------5--5--5----------|--3------------3--2--|--0--------0--2--3----|
		-----------------------|---------------------|----------------------|

		-------------------|------------------|-------------------|
		-------------------|------------------|-------------------|
		-------------------|------------------|-------------------|
		-------------------|------------------|--5----------------|
		--2----------------|------------------|--7----------------|
		-------------------|------------------|-------------------|

		------------------------|-------------------|-----------------------|
		------------------------|-------------------|-----------------------|
		------------------------|-------------------|---------------4--7----|
		------5--5--5--7--9-----|--7----------------|------7--7--7--4--5----|
		------7--7--7--9--10----|--5----------------|------5--5--5----------|
		------------------------|-------------------|-----------------------|

		---------------------|-----------------------|-------------------|
		---------------------|-----------------------|-------------------|
		--5------------5--4--|-----------------------|-------------------|
		---------------------|--7--------7--9--10----|--9----------------|
		--3------------------|-----------------------|-------------------|
		---------------8--7--|--5--------5--7--8-----|--7----------------|

		------------------|-------------------|------------------------|
		------------------|-------------------|------------------------|
		------------------|-------------------|------------------------|
		------------------|--5----------------|------5--5--5--7--9-----|
		------------------|--7----------------|------7--7--7--9--10----|
		------------------|-------------------|------------------------|

		-------------------|-----------------------|---------------------|
		-------------------|-----------------------|---------------------|
		-------------------|---------------4--7----|--5------------5--4--|
		--7----------------|------7--7--7--4--5----|---------------------|
		--5----------------|------5--5--5----------|--3------------------|
		-------------------|-----------------------|---------------8--7--|

		-----------------------|-------------------------|--------------------------|
		-----------------------|-------------------------|--------------------------|
		-----------------------|-------------------------|--------------------------|
		--7--------7--9--10----|-------------------------|--------------------------|
		-----------------------|-------------3--------3--|--------3--------3--------|
		--5--------5--7--8-----|--0----0--0--1--0--0--1--|--0--0--1--0--0--1--0--0--|

		-------------------------|-------------------------|-------------------------|
		-------------------------|-------------------------|-------------------------|
		-------------------------|-------------------------|-------------------------|
		--2~---------------------|--------------4--5--7----|--5----------------------|
		-------------3--------3--|--------3-----2--3--5----|--3----------3--------3--|
		-------0--0--1--0--0--1--|--0--0--1--0-------------|-------0--0--1--0--0--1--|

		--------------------------|-------------------------|------------------------|
		--------------------------|-------------------------|------------------------|
		--------------------------|-------------------------|------------------------|
		--------------------------|--2~---------------------|--------4--5--7----5----|
		--------3--------3--------|-------------3--------3--|--------2--3--5----3----|
		--0--0--1--0--0--1--0--0--|-------0--0--1--0--0--1--|--0--0------------------|

		--------------------------|--------------------------|
		--------1--------0--------|--3--------1--------0--1--|
		--------2--------2--------|--2--------2--------2--2--|
		--------2--------2--------|--2--------2--------2--2--|
		--0--0--0--0--0--0--0--0--|--0--0--0--0--0--0--0--0--|
		--------------------------|--------------------------|

		--------------------------|--------------------------|
		--------1--------0--------|--3--------1--------0--1--|
		--------2--------2--------|--2--------2--------2--2--|
		--------2--------2--------|--2--------2--------2--2--|
		--0--0--0--0--0--0--0--0--|--0--0--0--0--0--0--0--0--|
		--------------------------|--------------------------|

		--------------------------|--------------------------|
		--------6--------8--------|--6--------8--------6--6--|
		--------7--------7--------|--7--------7--------7--7--|
		--------7--------7--------|--7--------7--------7--7--|
		--5--5--5--5--5--5--5--5--|--5--5--5--5--5--5--5--5--|
		--------------------------|--------------------------|

		--------------------------|--------------------------|
		--------6--------8--------|--6--------8--------6--6--|
		--------7--------7--------|--7--------7--------7--7--|
		--------7--------7--------|--7--------7--------7--7--|
		--5--5--5--5--5--5--5--5--|--5--5--5--5--5--5--5--5--|
		--------------------------|--------------------------|

		--------------------------|--------------------------|
		--------1--------0--------|--3--------1--------0--1--|
		--------2--------2--------|--2--------2--------2--2--|
		--------2--------2--------|--2--------2--------2--2--|
		--0--0--0--0--0--0--0--0--|--0--0--0--0--0--0--0--0--|
		--------------------------|--------------------------|

		--------------------------|--------------------------|
		--------1--------0--------|--3--------1--------0--1--|
		--------2--------2--------|--2--------2--------2--2--|
		--------2--------2--------|--2--------2--------2--2--|
		--0--0--0--0--0--0--0--0--|--0--0--0--0--0--0--0--0--|
		--------------------------|--------------------------|

		--------------------------|--------------------------|
		--------6--------8--------|--6--------8--------6--6--|
		--------7--------7--------|--7--------7--------7--7--|
		--------7--------7--------|--7--------7--------7--7--|
		--5--5--5--5--5--5--5--5--|--5--5--5--5--5--5--5--5--|
		--------------------------|--------------------------|

		--------------------------|--------------------------|
		--------6--------8--------|--6--------8--------6--6--|
		--------7--------7--------|--7--------7--------7--7--|
		--------7--------7--------|--7--------7--------7--7--|
		--5--5--5--5--5--5--5--5--|--5--5--5--5--5--5--5--5--|
		--------------------------|--------------------------|

		--------------------------|--------------------------|
		--------------------------|--------1--------0--------|
		--------------------------|--------2--------2--------|
		--------------------------|--------2--------2--------|
		--------3--------3-----3--|--0--0--0--0--0--0--0--0--|
		--0--0--1--0--0--1--0--1--|--------------------------|

		--------------------------|--------------------------|
		--3--------1--------0--1--|--------1--------0--------|
		--2--------2--------2--2--|--------2--------2--------|
		--2--------2--------2--2--|--------2--------2--------|
		--0--0--0--0--0--0--0--0--|--0--0--0--0--0--0--0--0--|
		--------------------------|--------------------------|

		--------------------------|--------------------------|
		--3--------1--------0--1--|--------6--------8--------|
		--2--------2--------2--2--|--------7--------7--------|
		--2--------2--------2--2--|--------7--------7--------|
		--0--0--0--0--0--0--0--0--|--5--5--5--5--5--5--5--5--|
		--------------------------|--------------------------|

		--------------------------|--------------------------|
		--6--------8--------6--6--|--------6--------8--------|
		--7--------7--------7--7--|--------7--------7--------|
		--7--------7--------7--7--|--------7--------7--------|
		--5--5--5--5--5--5--5--5--|--5--5--5--5--5--5--5--5--|
		--------------------------|--------------------------|

		--------------------------|--------------------------|
		--6--------8--------6--6--|--------1--------0--------|
		--7--------7--------7--7--|--------2--------2--------|
		--7--------7--------7--7--|--------2--------2--------|
		--5--5--5--5--5--5--5--5--|--0--0--0--0--0--0--0--0--|
		--------------------------|--------------------------|

		--------------------------|--------------------------|
		--3--------1--------0--1--|--------1--------0--------|
		--2--------2--------2--2--|--------2--------2--------|
		--2--------2--------2--2--|--------2--------2--------|
		--0--0--0--0--0--0--0--0--|--0--0--0--0--0--0--0--0--|
		--------------------------|--------------------------|

		--------------------------|--------------------------|
		--3--------1--------0--1--|--------6--------8--------|
		--2--------2--------2--2--|--------7--------7--------|
		--2--------2--------2--2--|--------7--------7--------|
		--0--0--0--0--0--0--0--0--|--5--5--5--5--5--5--5--5--|
		--------------------------|--------------------------|

		--------------------------|--------------------------|
		--6--------8--------6--6--|--------6--------8--------|
		--7--------7--------7--7--|--------7--------7--------|
		--7--------7--------7--7--|--------7--------7--------|
		--5--5--5--5--5--5--5--5--|--5--5--5--5--5--5--5--5--|
		--------------------------|--------------------------|

		--------------------------|--------------------------|--------------------|
		--6--------8--------6--6--|--------------------------|--------------------|
		--7--------7--------7--7--|--------------------------|--------------------|
		--7--------7--------7--7--|--------------------------|--------------------|
		--5--5--5--5--5--5--5--5--|--------3--------3-----3--|--5--5--------------|
		--------------------------|--0--0--1--0--0--1--0--1--|--3--3--------------|

		------------------|------------------|---------------------|-------------------|
		------------------|------------------|---------------------|-------------------|
		------------------|------------------|---------------------|-------------------|
		------------------|------------------|---------------------|-------------------|
		------------------|------------------|-------------3----3--|--5----------------|
		------------------|------------------|----------1--1----1--|--3----------------|

		------------------|--------------------------|
		------------------|--------------------------|
		------------------|--------------------------|
		------------------|--------------8--8--8--8--|
		------------------|--6--6--6--6--6--6--6--6--|
		------------------|--------------------------|

		----------------------------------|--------------------------|
		----------------------------------|--------------------------|
		----------------------------------|--------------------------|
		--10--10--10--10--10--10--10--10--|--------------------------|
		--8---8---8---8---8---8---8---8---|--------1--------1--------|
		----------------------------------|--3--3-----3--3-----3--3--|

		--------------------------|-------------------------|---------------------|
		--------------------------|-------------------------|---------------------|
		--------------------------|-------------------------|---------------------|
		--------------------------|-------------------------|---------------------|
		--0--------0--------0--0--|--------1--------1-------|--3------3------3----|
		-----3--3-----3--3--------|--3--3-----3--3-----3----|--1------1------1----|

		--------------------------|--------------------------|
		--------------------------|--------------------------|
		--------------------------|--------------------------|
		--------------------------|--------------------------|
		--------1--------1--------|--0--------0--------0--0--|
		--3--3-----3--3-----3--3--|-----3--3-----3--3--------|

		--------------------------|----------------------------------|
		--------------------------|----------------------------------|
		--------------------------|----------------------------------|
		--------------8--8--8--8--|--10--10--10--10--10--10--10--10--|
		--6--6--6--6--6--6--6--6--|--8---8---8---8---8---8---8---8---|
		--------------------------|----------------------------------|

		--------------------------|--------------------------|-------------------------|
		--------------------------|--------------------------|-------------------------|
		--------------------------|--------------------------|-------------------------|
		--------------------------|--------------------------|-------------------------|
		--------1--------1--------|--0--------0--------0--0--|--------1--------1-------|
		--3--3-----3--3-----3--3--|-----3--3-----3--3--------|--3--3-----3--3-----3----|

		---------------------|--------------------------|--------------------------|
		---------------------|--------------------------|--------------------------|
		---------------------|--------------------------|--------------------------|
		---------------------|--------------------------|--------------------------|
		--3------3------3----|--------1--------1--------|--0--------0--------0--0--|
		--1------1------1----|--3--3-----3--3-----3--3--|-----3--3-----3--3--------|

		--------------------------|----------------------------------|
		--------------------------|----------------------------------|
		--------------------------|----------------------------------|
		--------------8--8--8--8--|--10--10--10--10--10--10--10--10--|
		--6--6--6--6--6--6--6--6--|--8---8---8---8---8---8---8---8---|
		--------------------------|----------------------------------|

		--------------------------|----------------------------|
		--------------------------|----------------------------|
		--------------------------|----------------------------|
		--------5-----------5-----|--------3-------------------|
		-----5-----5-----6-----6--|-----3-----3--5h6h5h3-------|
		--3-----------3-----------|--3-------------------6--5~-|

		--------------------------|----------------------------|
		--------------------------|----------------------------|
		--------------------------|----------------------------|
		--------5-----------5-----|--------3-------------------|
		-----5-----5-----6-----6--|-----3-----3--5h6h5h3-------|
		--3-----------3-----------|--3-------------------6--5~-|

		--------------------------|--------------------------|
		--------------------------|--------------------------|
		--------------------------|--------------------------|
		--------------------------|--------------------------|
		--2--2--2--2--2--2--2--2--|--2--2--2--2--2--2--2--2--|
		--0--0--0--0--0--0--0--0--|--0--0--0--0--0--0--0--0--|

		--------------------------|--------------------------|
		--------------------------|--------------------------|
		--------------------------|--------------------------|
		--------------------------|--------------------------|
		--2--2--2--2--2--2--2--2--|--2--2--2--2--2--2--2--2--|
		--0--0--0--0--0--0--0--0--|--0--0--0--0--0--0--0--0--|

		--------------------------|----------------------------|
		--------------------------|----------------------------|
		--------------------------|----------------------------|
		--------6-----------6-----|--------4-------------------|
		-----6-----6-----7-----7--|-----4-----4--6h7h6h4-------|
		--4-----------4-----------|--4-------------------7--6~-|

		--------------------------|----------------------------|
		--------------------------|----------------------------|
		--------------------------|----------------------------|
		--------6-----------6-----|--------4-------------------|
		-----6-----6-----7-----7--|-----4-----4--6h7h6h4-------|
		--4-----------4-----------|--4-------------------7--6~-|

		--------------------------|--------------------------|
		--------------------------|--------------------------|
		--------------------------|--------------------------|
		--------------------------|--------------------------|
		--2--2--2--2--2--2--2--2--|--2--2--2--2--2--2--2--2--|
		--0--0--0--0--0--0--0--0--|--0--0--0--0--0--0--0--0--|

		--------------------------|--------------------------|
		--------------------------|--------------------------|
		--------------------------|--------------------------|
		--------------------------|--------------------------|
		--2--2--2--2--2--2--2--2--|--2--2--2--2--2--2--2--2--|
		--0--0--0--0--0--0--0--0--|--0--0--0--0--0--0--0--0--|

		--------------------------|----------------------------|
		--------------------------|----------------------------|
		--------------------------|----------------------------|
		--------6-----------6-----|--------4-------------------|
		-----6-----6-----7-----7--|-----4-----4--6h7h6h4-------|
		--4-----------4-----------|--4-------------------7--6~-|

		--------------------------|----------------------------|
		--------------------------|----------------------------|
		--------------------------|----------------------------|
		--------6-----------6-----|--------4-------------------|
		-----6-----6-----7-----7--|-----4-----4--6h7h6h4-------|
		--4-----------4-----------|--4-------------------7--6~-|

		--------------------------|--------------------------|
		--------------------------|--------------------------|
		--------------------------|--------------------------|
		--------------------------|--------------------------|
		--2--2--2--2--2--2--2--2--|--2--2--2--2--2--2--2--2--|
		--0--0--0--0--0--0--0--0--|--0--0--0--0--0--0--0--0--|

		--------------------------|--------------------------|-------------------|
		--------------------------|--------------------------|-------------------|
		--------------------------|--------------------------|-------------------|
		--------------------------|--------------------------|-------------------|
		--2--2--2--2--2--2--2--2--|--2--2--2--2--2--2--2--2--|--2----------------|
		--0--0--0--0--0--0--0--0--|--0--0--0--0--0--0--0--0--|--0----------------|

		------------------|------------------|------------------|---|---|---|---|
		------------------|------------------|------------------|---|---|---|---|
		------------------|------------------|------------------|---|---|---|---|
		------------------|------------------|------------------|---|---|---|---|
		------------------|------------------|------------------|---|---|---|---|
		------------------|------------------|------------------|---|---|---|---|

		--------------------|----------------------|-------------------|
		--------------------|----------------------|-------------------|
		--------------------|----------------------|-------------------|
		--------------5--4--|--2--------2--4--5----|-------------------|
		--------------3--2--|--0--------0--2--3----|--2----------------|
		--------------------|----------------------|--0----------------|

		------------------|-------------------|------------------------|
		------------------|-------------------|------------------------|
		------------------|-------------------|------------------------|
		------------------|--5----------------|------5--5--5--7--9-----|
		------------------|--7----------------|------7--7--7--9--10----|
		------------------|-------------------|------------------------|

		-------------------|-----------------------|---------------------|
		-------------------|-----------------------|---------------------|
		-------------------|---------------4--7----|--5------------5--4--|
		--7----------------|------7--7--7--4--5----|---------------------|
		--5----------------|------5--5--5----------|--3------------------|
		-------------------|-----------------------|---------------8--7--|

		-----------------------|-------------------|------------------|
		-----------------------|-------------------|------------------|
		-----------------------|-------------------|------------------|
		--7--------7--9--10----|--9----------------|------------------|
		-----------------------|-------------------|------------------|
		--5--------5--7--8-----|--7----------------|------------------|

		-------------------|------------------------|-------------------|
		-------------------|------------------------|-------------------|
		-------------------|------------------------|-------------------|
		--5----------------|------5--5--5--7--9-----|--7----------------|
		--7----------------|------7--7--7--9--10----|--5----------------|
		-------------------|------------------------|-------------------|

		-----------------------|---------------------|-----------------------|
		-----------------------|---------------------|-----------------------|
		---------------4--7----|--5------------5--4--|-----------------------|
		------7--7--7--4--5----|---------------------|--7--------7--9--10----|
		------5--5--5----------|--3------------------|-----------------------|
		-----------------------|---------------8--7--|--5--------5--7--8-----|

		-------------------|------------------|--------------------|
		-------------------|------------------|--------------------|
		-------------------|------------------|--12~---------------|
		--9----------------|------------------|--------------------|
		-------------------|------------------|--------------------|
		--7----------------|------------------|--------------------|

		------------------------------|--15h-14----------------|------------------|
		----------------------12--13--|----------15~-----------|------------------|
		------12--12--12--14----------|------------------------|------------------|
		------------------------------|------------------------|------------------|
		------------------------------|------------------------|------------------|
		------------------------------|------------------------|------------------|

		-------------------------|-------------------------|------------------|
		-------------------------|--8h12h8-----------------|------------------|
		-----7-------------------|----------9--7--9r-------|------------------|
		--9-----10--9------------|-------------------------|------------------|
		---------------10--------|-------------------------|------------------|
		-------------------------|-------------------------|------------------|

		---------------8--10-12-10-8-----------------|------------------|
		-------8-10-12-10-12-13-12-10-12-10-8-7------|------------------|
		--9-11-9-11-12----------------12-11-9-8-11-9-|------------------|
		--9-10----------------------------------10-9~|------------------|
		---------------------------------------------|------------------|
		---------------------------------------------|------------------|

		------------------|------------------|------------------|------------------|
		------------------|------------------|------------------|------------------|
		------------------|------------------|------------------|------------------|
		------------------|------------------|------------------|------------------|
		------------------|------------------|------------------|------------------|
		------------------|------------------|------------------|------------------|

		------------------|------------------|------------------|
		------------------|------------------|------------------|
		------------------|------------------|------------------|
		------------------|------------------|------------------|
		------------------|------------------|------------------|
		------------------|------------------|------------------|

		---------------------------|---------------------------|
		--12-10--------------------|---------------------------|
		--------12-11-9~-----------|------9--9--9--11--11--12--|
		---------------------------|---------------------------|
		---------------------------|---------------------------|
		---------------------------|---------------------------|

		-------------------------|--------------------|
		--13~-----------8h10h8h7-|--------------------|
		-------------------------|--7-9~--------------|
		-------------------------|--------------------|
		-------------------------|--------------------|
		-------------------------|--------------------|

		-------------------------------------------|--------------------------|
		--12h10---------13h12h10-------------------|--------------------------|
		--------12h11h9----------12h11h9-----------|--------------------------|
		---------------------------------13h10h9~--|----------9h10h9----------|
		-------------------------------------------|-----------------10h12~---|
		-------------------------------------------|--------------------------|

		----------------------------------|
		----------------------------------|
		-------------------14h16h17-------|
		----------14h16h17----------16h17h|
		----------------------------------|
		----------------------------------|

		--------------------------------------------------|
		--------------------------------------------------|
		-----16h17h19----------17h19h21h19h17-------------|
		--19----------17h19h21----------------21h19h17/16-|
		--------------------------------------------------|
		--------------------------------------------------|

		------15--14--15--17--15--14--15--|------15--14--15--17--15--14--15--|
		--17------------------------------|--17------------------------------|
		----------------------------------|----------------------------------|
		--17~-----------------------------|----------------------------------|
		----------------------------------|----------------------------------|
		----------------------------------|----------------------------------|

		------15--14--15--17--15--14--15--|------15--14--15--17--15--14--15--|
		--17------------------------------|--17------------------------------|
		----------------------------------|----------------------------------|
		----------------------------------|----------------------------------|
		----------------------------------|----------------------------------|
		----------------------------------|----------------------------------|

		-----15-14-15-17-15-14-15----15-14-15-17-15-14-15-|
		--17----------------------17----------------------|
		--------------------------------------------------|
		--------------------------------------------------|
		--------------------------------------------------|
		--------------------------------------------------|

		-----15-14-15-17-15-14-15----15-14-15-17-15-14-15-|--19~---------------|
		--17----------------------17----------------------|--------------------|
		--------------------------------------------------|--------------------|
		--------------------------------------------------|--------------------|
		--------------------------------------------------|--------------------|
		--------------------------------------------------|--------------------|

		------------------|----------|----------|--12----------------|
		------------------|----------|----------|--------------------|
		------------------|----------|----------|--------------------|
		------------------|----------|----------|--------------------|
		------------------|----------|----------|--------------------|
		------------------|----------|----------|--------------------|

		------12--12--12--14--15----|--------------------|------------------14--15----|
		----------------------------|--15----------------|------15--15--15------------|
		----------------------------|--------------------|----------------------------|
		----------------------------|--------------------|----------------------------|
		----------------------------|--------------------|----------------------------|
		----------------------------|--------------------|----------------------------|

		------------------------|--------------------------|----------------------||
		--13------------13--12--|----------------12--13----|--17--17--------------||
		------------------------|--14--------14------------|----------------------||
		------------------------|--------------------------|----------------------||
		------------------------|--------------------------|----------------------||
		------------------------|--------------------------|----------------------||]

-

Text:		Astral Romance

		A nocturnal concerto
		Candlelight whispers me where to go
		Hymn of gathering stars as my guide
		As I wander on this path of the night

		Embroidery of the stars
		Undress my feelings for this earth
		Send me your salva to heal my scars
		And let this nakedness me my birth

		Macrocosm poured its powers on me
		And the hopes of this world I now must leave
		The nightwish I sent you centuries ago
		Has been heard by those
		Who dwelled in a woe

		The distance of our bridal bed
		Await for me to be dead
		Dust of the galaxies take my hand
		Lead me to my beloved's land

		Departed by the guillotine of death
		I received a letter from the depth
		The dream of my lover it carried inside

		Caressed by the sharpest knife
		I asked you to be my wife
		Rays of the setting sun
		Were my tears wept upon promises undone

		Come to me
		Make me believe
		to you and your love again

		Above the universe
		Beneath the Great Eye
		I shall desire you forevermore

-

Перевод:	"Звёздный романс"

		Под звук ночного оркестра
		Шепчет мне свеча мой путь,
		Гимн собирающихся звёзд меня направляет,
		Пока я гуляю по дорогам ночным.

		Вышивка из звёзд
		Обнажает мои чувства для этого мира,
		Шлёт своё спасение, исцеляющее мои раны,
		Позволяет этой наготе быть моим рождением.

		Макрокосм изливает свою силу на меня,
		И надежды этого мира я должна покинуть,
		Желание ночи я послала тебе столетия назад,
		Оно было услышано теми, кто в печали живёт.

		Наше далёкое свадебное ложе
		Ждёт моё мёртвое тело,
		Прах галактик в моих руках
		Ведёт меня в любимый край.

		Умервщлённая гильотиной смерти,
		Я получаю письмо из глубины,
		Мечта моего возлюбленного хранится в нём.

		Унесённый острейшим ножом
		Я прошу тебя стать моей женой,
		Лучи заходящего солнца
		Были моими слезами над невыполненными обещаниями.

		Приди ко мне,
		Заставь меня поверить
		Снова в тебя и твою любовь.

		Над вселенной,
		Под Великим Оком
		Я хочу тебя навеки.

-

Перевод:	Астральный Романс

		Сияние свечи ведет меня туда,
		Где мне ночной концерт играет,
		Собранье звезд - всегда, всегда,
		Я странствую - в ночи мой дух шагает.

		Полотна звезд мои все чувства обнажают,
		В подарок дивное свое мне присылают серебро,
		И шрамы давние мои как поцелуями излечат и ласкают,
		И в этой обнаженности рожденье новое мне отдано.

		И Макрокосм в меня вливает силы,
		Надежды мира этого оставить нужно позади,
		Желанье Ночи, сквозь столетья, сквозь звездные приливы,
		Услышано уж теми кто рыдает впереди.

		А расстояние до нашей свадебной постели -
		То ждет меня, и то в мгновение, когда умру,
		И прах галактик на руках меня как на метели,
		Возьмет в ту землю, в которой в счастье я горю.

		Разрубленные гильотиной смерти,
		Но я посланья из глубин уж получил,
		Письмо любви моей средь жизни круговерти,
		Внутри меня - мечта, с мечтой все это время жил.

		И словно бы ножом острейшим я ласкаю,
		И мой вопрос, чтоб ты была моей женой,
		Лучи закатного светила я в себя вбираю,
		И в них рыдал, оставленный лишь со своей мечтой.

		Придите ко мне, и сделайте так, чтоб поверил,
		Я снова бы в Вашу святую Любовь,
		Выше вселенной, в Великом Оке, что так светел,
		Быть с Вами всегда, вновь и вновь.

-

!		Guitar

		[E||-------------------|------------------|------------------|------------------|
		B||-------------------|------------------|------------------|------------------|
		G||-------------------|------------------|------------------|------------------|
		D||-------------------|------------------|------------------|------------------|
		A||--2----------------|------------------|------------------|------------------|
		E||--0----------------|------------------|------------------|------------------|

		--------------------|----------------------|-------------------|
		--------------------|----------------------|-------------------|
		--------------------|----------------------|-------------------|
		--------------5--4--|--2--------2--4--5----|-------------------|
		--------------3--2--|--0--------0--2--3----|--2----------------|
		--------------------|----------------------|--0----------------|

		------------------|-------------------|------------------|-------------------|
		------------------|-------------------|------------------|-------------------|
		------------------|-------------------|------------------|-------------------|
		------------------|-------------------|------------------|--7----------------|
		------------------|--2----------------|------------------|--5----------------|
		------------------|--0----------------|------------------|-------------------|

		------------------|---------------------|----------------------|
		------------------|---------------------|----------------------|
		------------------|---------------------|----------------------|
		------------------|--5------------5--4--|--2--------2--4--5----|
		------------------|--3------------3--2--|--0--------0--2--3----|
		------------------|---------------------|----------------------|

		-------------------|------------------|-------------------|------------------|
		-------------------|------------------|-------------------|------------------|
		-------------------|------------------|-------------------|------------------|
		-------------------|------------------|-------------------|------------------|
		--2----------------|------------------|--2----------------|------------------|
		--0----------------|------------------|--0----------------|------------------|

		-------------------|------------------|---------------------|
		-------------------|------------------|---------------------|
		-------------------|------------------|---------------------|
		--7----------------|------------------|--5------------5--4--|
		--5----------------|------------------|--3------------3--2--|
		-------------------|------------------|---------------------|

		----------------------|-------------------|------|------|------|------|------|
		----------------------|-------------------|------|------|------|------|------|
		----------------------|--9----------------|------|------|------|------|------|
		--2--------2--4--5----|-------------------|------|------|------|------|------|
		--0--------0--2--3----|--7~---------------|------|------|------|------|------|
		----------------------|-------------------|------|------|------|------|------|

		------|------|------|------|------|------|------|------|------|------|
		------|------|------|------|------|------|------|------|------|------|
		------|------|------|------|------|------|------|------|------|------|
		------|------|------|------|------|------|------|------|------|------|
		------|------|------|------|------|------|------|------|------|------|
		------|------|------|------|------|------|------|------|------|------|

		-------------------|------------------|------------------|------------------|
		-------------------|------------------|------------------|------------------|
		-------------------|------------------|------------------|------------------|
		--7----------------|------------------|------------------|------------------|
		--7----------------|------------------|------------------|------------------|
		--5----------------|------------------|------------------|------------------|

		-------------------|------------------|------------------|------------------|
		-------------------|------------------|------------------|------------------|
		--7----------------|------------------|------------------|------------------|
		--7----------------|------------------|------------------|------------------|
		--5----------------|------------------|------------------|------------------|
		-------------------|------------------|------------------|------------------|

		------------------|------|------|------|------|------|------|------|------|
		------------------|------|------|------|------|------|------|------|------|
		------------------|------|------|------|------|------|------|------|------|
		------------------|------|------|------|------|------|------|------|------|
		------------------|------|------|------|------|------|------|------|------|
		------------------|------|------|------|------|------|------|------|------|

		-------------------|------------------|------------------|------------------|
		-------------------|------------------|------------------|------------------|
		-------------------|------------------|------------------|------------------|
		--7----------------|------------------|------------------|------------------|
		--7----------------|------------------|------------------|------------------|
		--5----------------|------------------|------------------|------------------|

		-------------------|------------------|------------------|------------------|
		-------------------|------------------|------------------|------------------|
		--7----------------|------------------|------------------|------------------|
		--7----------------|------------------|------------------|------------------|
		--5----------------|------------------|------------------|------------------|
		-------------------|------------------|------------------|------------------|

		------------------|------------------|------------------|------------------|
		------------------|------------------|------------------|------------------|
		------------------|------------------|------------------|------------------|
		------------------|------------------|------------------|------------------|
		------------------|------------------|------------------|------------------|
		------------------|------------------|------------------|------------------|

		------------------|------------------|------------------|------------------|
		------------------|------------------|------------------|------------------|
		------------------|------------------|------------------|------------------|
		------------------|------------------|------------------|------------------|
		------------------|------------------|------------------|------------------|
		------------------|------------------|------------------|------------------|

		------------------|------------------|------------------|------------------|
		------------------|------------------|------------------|------------------|
		------------------|------------------|------------------|------------------|
		------------------|------------------|------------------|------------------|
		------------------|------------------|------------------|------------------|
		------------------|------------------|------------------|------------------|

		------------------|------------------|------------------|------------------|
		------------------|------------------|------------------|------------------|
		------------------|------------------|------------------|------------------|
		------------------|------------------|------------------|------------------|
		------------------|------------------|------------------|------------------|
		------------------|------------------|------------------|------------------|

		------------------|------------------|------------------|------------------|
		------------------|------------------|------------------|------------------|
		------------------|------------------|------------------|------------------|
		------------------|------------------|------------------|------------------|
		------------------|------------------|------------------|------------------|
		------------------|------------------|------------------|------------------|

		------------------|------------------|------------------|------------------|
		------------------|------------------|------------------|------------------|
		------------------|------------------|------------------|------------------|
		------------------|------------------|------------------|------------------|
		------------------|------------------|------------------|------------------|
		------------------|------------------|------------------|------------------|

		------------------|------------------|------------------|------------------|
		------------------|------------------|------------------|------------------|
		------------------|------------------|------------------|------------------|
		------------------|------------------|------------------|------------------|
		------------------|------------------|------------------|------------------|
		------------------|------------------|------------------|------------------|

		------------------|------------------|------------------|------------------|
		------------------|------------------|------------------|------------------|
		------------------|------------------|------------------|------------------|
		------------------|------------------|------------------|------------------|
		------------------|------------------|------------------|------------------|
		------------------|------------------|------------------|------------------|

		------------------|------------------|------------------|------------------|
		------------------|------------------|------------------|------------------|
		------------------|------------------|------------------|------------------|
		------------------|------------------|------------------|------------------|
		------------------|------------------|------------------|------------------|
		------------------|------------------|------------------|------------------|

		------------------|------------------|------------------|------------------|
		------------------|------------------|------------------|------------------|
		------------------|------------------|------------------|------------------|
		------------------|------------------|------------------|------------------|
		------------------|------------------|------------------|------------------|
		------------------|------------------|------------------|------------------|

		------------------|------------------|------------------|------------------|
		------------------|------------------|------------------|------------------|
		------------------|------------------|------------------|------------------|
		------------------|------------------|------------------|------------------|
		------------------|------------------|------------------|------------------|
		------------------|------------------|------------------|------------------|

		------------------|------------------|------------------|------------------|
		------------------|------------------|------------------|------------------|
		------------------|------------------|------------------|------------------|
		------------------|------------------|------------------|------------------|
		------------------|------------------|------------------|------------------|
		------------------|------------------|------------------|------------------|

		------------------|------------------|------------------|------------------|
		------------------|------------------|------------------|------------------|
		------------------|------------------|------------------|------------------|
		------------------|------------------|------------------|------------------|
		------------------|------------------|------------------|------------------|
		------------------|------------------|------------------|------------------|

		------------------|------------------|------------------|------------------|
		------------------|------------------|------------------|------------------|
		------------------|------------------|------------------|------------------|
		------------------|------------------|------------------|------------------|
		------------------|------------------|------------------|------------------|
		------------------|------------------|------------------|------------------|

		------------------|------------------|------------------|------------------|
		------------------|------------------|------------------|------------------|
		------------------|------------------|------------------|------------------|
		------------------|------------------|------------------|------------------|
		------------------|------------------|------------------|------------------|
		------------------|------------------|------------------|------------------|

		------------------|-------------------|------------------|-------------------|
		------------------|-------------------|------------------|-------------------|
		------------------|-------------------|------------------|-------------------|
		------------------|-------------------|------------------|--7----------------|
		------------------|--2----------------|------------------|--5----------------|
		------------------|--0----------------|------------------|-------------------|

		------------------|---------------------|----------------------|
		------------------|---------------------|----------------------|
		------------------|---------------------|----------------------|
		------------------|--5------------5--4--|--2--------2--4--5----|
		------------------|--3------------3--2--|--0--------0--2--3----|
		------------------|---------------------|----------------------|

		-------------------|------------------|-------------------|------------------|
		-------------------|------------------|-------------------|------------------|
		-------------------|------------------|-------------------|------------------|
		-------------------|------------------|-------------------|------------------|
		--2----------------|------------------|--2----------------|------------------|
		--0----------------|------------------|--0----------------|------------------|

		-------------------|------------------|---------------------|
		-------------------|------------------|---------------------|
		-------------------|------------------|---------------------|
		--7----------------|------------------|--5------------5--4--|
		--5----------------|------------------|--3------------3--2--|
		-------------------|------------------|---------------------|

		----------------------|-------------------|------------------|
		----------------------|-------------------|------------------|
		----------------------|-------------------|------------------|
		--2--------2--4--5----|-------------------|------------------|
		--0--------0--2--3----|--2----------------|------------------|
		----------------------|--0----------------|------------------|

		-------------------|------------------|-------------------|------------------|
		-------------------|------------------|-------------------|------------------|
		-------------------|------------------|-------------------|------------------|
		-------------------|------------------|--7----------------|------------------|
		--2----------------|------------------|--5----------------|------------------|
		--0----------------|------------------|-------------------|------------------|

		-------------------|------------------|-------------------|------------------|
		-------------------|------------------|-------------------|------------------|
		-------------------|------------------|-------------------|------------------|
		--5----------------|------------------|--2----------------|------------------|
		--3----------------|------------------|--0----------------|------------------|
		-------------------|------------------|-------------------|------------------|

		-------------------|------------------|-------------------|------------------|
		-------------------|------------------|-------------------|------------------|
		-------------------|------------------|-------------------|------------------|
		-------------------|------------------|--7----------------|------------------|
		--2----------------|------------------|--5----------------|------------------|
		--0----------------|------------------|-------------------|------------------|

		-------------------|------------------|-------------------|------------------|
		-------------------|------------------|-------------------|------------------|
		-------------------|------------------|-------------------|------------------|
		--5----------------|------------------|--2----------------|------------------|
		--3----------------|------------------|--0----------------|------------------|
		-------------------|------------------|-------------------|------------------|

		--------------------------|--------------------------|
		--------------------------|--------------------------|
		--------------------------|--------------------------|
		--9-----------------------|--------------------------|
		--7--7--7--7--7--7--7--7--|--7--7--7--7--7--7--7--7--|
		--------------------------|--------------------------|

		--------------------------|--------------------------|
		--------------------------|--------------------------|
		--------------------------|--------------------------|
		--7-----------------------|--------------------------|
		--5--5--5--5--5--5--5--5--|--5--5--5--5--5--5--5--5--|
		--------------------------|--------------------------|

		--------------------------|--------------------------|
		--------------------------|--------------------------|
		--------------------------|--------------------------|
		--5-----------------------|--------------------------|
		--3--3--3--3--3--3--3--3--|--3--3--3--3--3--3--3--3--|
		--------------------------|--------------------------|

		--------------------------|--------------------------|
		--------------------------|--------------------------|
		--------------------------|--------------------------|
		--2-----------------------|--------------------------|
		--0--0--0--0--0--0--0--0--|--0--0--0--0--0--0--0--0--|
		--------------------------|--------------------------|

		--------------------------|--------------------------|
		--------------------------|--------------------------|
		--------------------------|--------------------------|
		--9-----------------------|--------------------------|
		--7--7--7--7--7--7--7--7--|--7--7--7--7--7--7--7--7--|
		--------------------------|--------------------------|

		--------------------------|--------------------------|
		--------------------------|--------------------------|
		--------------------------|--------------------------|
		--7-----------------------|--------------------------|
		--5--5--5--5--5--5--5--5--|--5--5--5--5--5--5--5--5--|
		--------------------------|--------------------------|

		--------------------------|----------------------|-------------------|
		--------------------------|----------------------|-------------------|
		--------------------------|----------------------|-------------------|
		--5-----------------5--4--|--2--------2--4--5----|-------------------|
		--3--3--3--3--3--3--3--2--|--0--------0--2--3----|--2----------------|
		--------------------------|----------------------|--0----------------|

		------------------|------------------|------------------|------------------|
		------------------|------------------|------------------|------------------|
		------------------|------------------|------------------|------------------|
		------------------|------------------|------------------|------------------|
		------------------|------------------|------------------|------------------|
		------------------|------------------|------------------|------------------|

		------------------|------------------|------------------|--------------------|
		------------------|------------------|------------------|--------------------|
		------------------|------------------|------------------|--------------------|
		------------------|------------------|------------------|--------------5--4--|
		------------------|------------------|------------------|--------------3--2--|
		------------------|------------------|------------------|--------------------|

		----------------------|--------------------||
		----------------------|--------------------||
		----------------------|--------------------||
		--2--------2--4--5----|--------------------||
		--0--------0--2--3----|--2--2--------------||
		----------------------|--0--0--------------||]