Oceanborn (1998)
		Stargazers

!		p.m    . . . .       . . . .       . . . .
		[e:--------------------------------------------------
		B:--------------------------------------------------
		G:--------------------------------------------------
		D:--------------------------------------------8--5--
		A:-----5-5-5-5-3-----5-5-5-5-3-----5-5-5-5-3--6--3--
		E:-----3-3-3-3-1-----3-3-3-3-1-----3-3-3-3-1--------]

!		p.m    . . . .       . . . .       . . . .
		[e:--------------------------------------------------
		B:--------------------------------------------------
		G:--------------------------------------------------
		D:--------------------------------------------8-----
		A:-----5-5-5-5-3-----5-5-5-5-3-----5-5-5-5-3--6--3--
		E:-----3-3-3-3-1-----3-3-3-3-1-----3-3-3-3-1-----1--]

!		guit/keyb. riff:

		[e:-----------------------------------------5-6-5---10-8-6-5-8-6-5-------10-8-6-5-6------------------
		B:-------------------------7-8-7-------7-8-------8------------------6-8--------------8----8---8---8-
		G:-----4-5-7-8-7-5-4-5-7-8-------8-7-8----------------------------8----------------8---10---8---7---
		D:-5-6----------------------------------------------------------------------------------------------
		A:--------------------------------------------------------------------------------------------------
		E:--------------------------------------------------------------------------------------------------

		e:-----------------------------------------5-6-5---10-8-6-5-8-6-5-
		B:-------------------------7-8-7-------7-8-------8----------------
		G:-----4-5-7-8-7-5-4-5-7-8-------8-7-8----------------------------
		D:-5-6------------------------------------------------------------
		A:----------------------------------------------------------------
		E:----------------------------------------------------------------]

1st:		[e:-------10-8-6-5-6-8-6-8-5-5-3-5-1-
		B:---6-8----------------------------
		G:-8--------------------------------
		D:----------------------------------
		A:----------------------------------
		E:----------------------------------]

2nd:		[e:----------13-11-10-11----10-11-10-11-8-8-6-8-5-
		B:----10-11-------------13-----------------------
		G:-12--------------------------------------------
		D:-----------------------------------------------
		A:-----------------------------------------------
		E:-----------------------------------------------]

Rhythm guitar:	p.m all the way..
		[e:-------------------------------------------------------------
		B:-------------------------------------------------------------
		G:-------------------------------------------------------------
		D:-------------------------------------------------------------
		A:-----------5*--------6*---3*-------------5*--------6*--------
		E:-3*---4*--------3*-------------3*---4*--------3*--------1*---]

Intro riff:	p.m    . . . .       . . . .       . . . .
		[e:---------------------------------------------------
		B:---------------------------------------------------
		G:---------------------------------------------------
		D:--------------------------------------------8------
		A:-----5-5-5-5-3-----5-5-5-5-3-----5-5-5-5-3--6--3---
		E:-----3-3-3-3-1-----3-3-3-3-1-----3-3-3-3-1-----1---]

guitar 1:	[e:------------------8---10--8--10h11p10-
		B:-11-10-8----11-10---------------------
		G:---------7----------------------------
		D:--------------------------------------
		A:--------------------------------------
		E:--------------------------------------]

guitar 2:	[e:-----------------------/6--5--6h8p6---
		B:--------------------------------------
		G:--------------------------------------
		D:--------------------------------------
		A:--------------------------------------
		E:--------------------------------------]

guitar 1:	[e:------------------8---10-8--------------
		B:-11-10-8----11-10----------11-10--6-/8--
		G:---------7------------------------------
		D:----------------------------------------
		A:----------------------------------------
		E:----------------------------------------]

guitar 2:	[e:----------------------13-11-10----13-/15--
		B:-------------------------------10---------
		G:------------------------------------------
		D:------------------------------------------
		A:------------------------------------------
		E:------------------------------------------]

guitar 3:	[e:----------------------------------
		B:----------------------------------
		G:----------------------------------
		D:-5---3---3-----5----5---3---3--7--
		A:-5---3---1--3--5----5---3---1--5--
		E:-3---1------1--3----3---1---------]

Verse:		A grand oasis..
!		p.m                 .                    .     ... ... ... . . .     . .
		[e:-----------------------------------------------------------------------
		B:-----------------------------------------------------------------------
		G:----------8---3-------------------8------------------------------------
		D:-5---6-5--8---3-3---3----5---6-5--8--3---3-------------------3-5p3-----
		A:-5---6-5--6---1-3---3----5---6-5--6--3---3---------------3-5-------5-3-
		E:-3---4-3--------1-1-1-2--3---4-3-----1-1-1-2-333-333-333---------------]

Chorus:		Tragedienne of heavens..
!		p.m  .      .    . . .    .      .    . . . .   .      .      .   . . . . . . .   .     .
		[e:-----------------------------------------------------------------------------------------------
		B:-----------------------------------------------------------------------------------------------
		G:----------------------3---3---------------------------------------------------3---3--------5---
		D:-5------3-------------1-1-1--3---3----------5------5------3-----3-------------1-1-1--------5---
		A:-3-3*---1-1*---1-3-1---------1-1-1--3-3-3-3-3-3*---3-3*---1-1*--1-1-1-1-1-3-1-------5---5--3---
		E:------------------------------------------------------------------------------------3-3-3------]

guitar 1:	[e:------------------8---10--8--10h11p10-
		B:-11-10-8----11-10---------------------
		G:---------7----------------------------
		D:--------------------------------------
		A:--------------------------------------
		E:--------------------------------------]

guitar 2:	[e:-----------------------/6--5--6h8p6---
		B:--------------------------------------
		G:--------------------------------------
		D:--------------------------------------
		A:--------------------------------------
		E:--------------------------------------]

guitar 1:	[e:------------------8---10-8--------------
		B:-11-10-8----11-10----------11-10--6-/8--
		G:---------7------------------------------
		D:----------------------------------------
		A:----------------------------------------
		E:----------------------------------------]

guitar 2:	[e:----------------------13-11-10----13-/15--
		B:-------------------------------10---------
		G:------------------------------------------
		D:------------------------------------------
		A:------------------------------------------
		E:------------------------------------------]

guitar 3:	[e:----------------------------------
		B:----------------------------------
		G:----------------------------------
		D:-5---3---3-----5----5---3---3--7--
		A:-5---3---1--3--5----5---3---1--5--
		E:-3---1------1--3----3---1---------]

Verse:		Floating upon the quiet hydrogen lakes..
!		p.m                 .                     .   ... ... ... . . .     . .
		[e:---------------------------------------------------------------------
		B:---------------------------------------------------------------------
		G:----------8---3-------------------8----------------------------------
		D:-5---6-5--8---3-3---3---5------5--8--3---3-----------------3-5p3-----
		A:-5---6-5--6---1-3---3---5------5--6--3---3-------------3-5-------5-3-
		E:-3---4-3--------1-1-1-2-3---4~-3-----1-1-1-333-333-333---------------]

Chorus:		Tragedienne of heavens..
!		p.m  .      .    . . .    .      .    . . . .   .      .      .   . . . . . . .   .     .        . . . .
		[e:-------------------------------------------------------------------------------------------------------
		B:-------------------------------------------------------------------------------------------------------
		G:----------------------3---3---------------------------------------------------3---3--------5-----------
		D:-5------3-------------1-1-1--3---3----------5------5------3-----3-------------1-1-1--------5-----------
		A:-3-3*---1-1*---1-3-1---------1-1-1--3-3-3-3-3-3*---3-3*---1-1*--1-1-1-1-1-3-1-------5---5--3---6-5-3---
		E:------------------------------------------------------------------------------------3-3-3------------6-]

guitar 1:	[e:------------------8---10--13-11-10----
		B:-11-10-8----11-10------------------8--
		G:---------7----------------------------
		D:--------------------------------------
		A:--------------------------------------
		E:--------------------------------------]

guitar 2:	[e:-----------------------/6--5--6h8p6---
		B:--------------------------------------
		G:--------------------------------------
		D:--------------------------------------
		A:--------------------------------------
		E:--------------------------------------]

guitar 1:	[e:------------------8---10-8--------------
		B:-11-10-8----11-10----------11-10--6-/8--
		G:---------7------------------------------
		D:----------------------------------------
		A:----------------------------------------
		E:----------------------------------------]

guitar 2:	[e:----------------------13-11-10----13-/15--
		B:-------------------------------10---------
		G:------------------------------------------
		D:------------------------------------------
		A:------------------------------------------
		E:------------------------------------------]

guitar 3:	[e:----------------------------------
		B:----------------------------------
		G:----------------------------------
		D:-4---3---3-----5----5---3---3--7--
		A:-4---3---1--3--5----5---3---1--5--
		E:-3---1------1--3----3---1---------]

!		      Oracle of the Delfian Dominie..

!		p.m. .    . .      . .   . .  .
		[e:--------------------------------
		B:--------------------------------
		G:--------------------------------
		D:-5-5\\---5-5---6--5-5---5-5----9--
		A:-5-5\\---5-5---4--5-5---5-5----7--
		E:-3-3\\---3-3------3-3---3-3--3----]

!		      Wanderers in cosmic caravan..

!		p.m   . . .  . . .  . . .  . . .  . . .  . . .  . . .
		[e:-----------------------------------------------------------
		B:-----------------------------------------------------------
		G:-----------------------------------------------------------
		D:-5--5-5-5--5-5-5--5-5-5--5-5-5--5-5-5--5-5-5--5-5-5--3-5\\--
		A:-5--5-5-5--5-5-5--5-5-5--5-5-5--5-5-5--5-5-5--5-5-5--3-5\\--
		E:-3--3-3-3--3-3-3--3-3-3--3-3-3--3-3-3--3-3-3--3-3-3--1-3\\--

		e:------
		B:------
		G:------
		D:-5----
		A:-5----
		E:-3----]

!		p.m. . .  .  . . .  . . . . .  . . .  .  . . .
		[e:-------------------------------------------------
		B:-------------------------------------------------
		G:-----------------------------------------------2-
		D:---------------------------------------------2-0-
		A:-2-2-2--2--2-2-2--2-2-2-2-2--2-2-2--2--2-2-2-0---
		E:-0-0-0--0--0-0-0--0-0-0-0-0--0-0-0--0--0-0-0-----]

		   . . .  .  . . .  . . . . .  . . .  .  . . . . .
		[e:-------------------------------------------------
		B:-------------------------------------------------
		G:-------------------------------------------------
		D:-------------------------------------------------
		A:-2-2-2--2--2-2-2--2-2-2-2-2--2-2-2--2--2-2-2-----
		E:-0-0-0--0--0-0-0--0-0-0-0-0--0-0-0--0--0-0-0-3-3-]

Keyboard solo:	[e:---------------------
		B:---------------------
		G:---------------------
		D:-7----3----7----3----
		A:-7----3----7----3----
		E:-5----1----5----1----]

!		     A son in search for the truth

!		p.m   . . .  . . .  . . .  . . .  . . .  . . .  . . .       . . .  . . .  . . .  . .     . . . . .
		[e:-------------------------------------------------------------------------------------------------
		B:-------------------------------------------------------------------------------------------------
		G:-------------------------------------------------------------------------------------------------
		D:-5--5-5-5--5-5-5--5-5-5--5-5-5--5-5-5--5-5-5--5-5-5--3-5--5-5-5--5-5-5--5-5-5--5-5-5---3-3-3-5-5-
		A:-5--5-5-5--5-5-5--5-5-5--5-5-5--5-5-5--5-5-5--5-5-5--3-5--5-5-5--5-5-5--5-5-5--5-5-5---1-1-1-3-3-
		E:-3--3-3-3--3-3-3--3-3-3--3-3-3--3-3-3--3-3-3--3-3-3--1-3--3-3-3--3-3-3--3-3-3--3-3-3-------------]

!		Discovering the origin of dreams

!		p.m   . . .  . . .  . . .  . . .  . . .  . . .  . . .
		[e:-----------------------------------------------------------
		B:-----------------------------------------------------------
		G:-----------------------------------------------------------
		D:-5--5-5-5--5-5-5--5-5-5--5-5-5--5-5-5--5-5-5--5-5-5--3-5\\--
		A:-5--5-5-5--5-5-5--5-5-5--5-5-5--5-5-5--5-5-5--5-5-5--3-5\\--
		E:-3--3-3-3--3-3-3--3-3-3--3-3-3--3-3-3--3-3-3--3-3-3--1-3\\--]

!		Stargazers ride through the ancient realms

		[e:-----
		B:-----
		G:-----
		D:-5---
		A:-5---
		E:-3---]

!		p.m. . .  .  . . .  . . . . .  . . .  .  . . .
		[e:-------------------------------------------------
		B:-------------------------------------------------
		G:-----------------------------------------------2-
		D:---------------------------------------------2-0-
		A:-2-2-2--2--2-2-2--2-2-2-2-2--2-2-2--2--2-2-2-0---
		E:-0-0-0--0--0-0-0--0-0-0-0-0--0-0-0--0--0-0-0-----]

		   . . .  .  . . .  . . . . .  . . .  .  . . . . .
		[e:-------------------------------------------------
		B:-------------------------------------------------
		G:-------------------------------------------------
		D:-------------------------------------------------
		A:-2-2-2--2--2-2-2--2-2-2-2-2--2-2-2--2--2-2-2-----
		E:-0-0-0--0--0-0-0--0-0-0-0-0--0-0-0--0--0-0-0-3-3-]

Guitar solo:	
guitar 1:	[e:-------------------------------------------------------------------
		B:------------------10-12-13--12--10h12p10----10---------------------
		G:----------9-10-12------------------------9------12--10--9h10p9-----
		D:-9-10-12-------------------------------------------------------10--
		A:-------------------------------------------------------------------
		E:-------------------------------------------------------------------

		e:----------------------------------------10-12-15--13-12h13p12-------
		B:-------------------------------10-12-13-----------------------13--\\-
		G:-----------------------9-10-12--------------------------------------
		D:-9-10----------9-10-12----------------------------------------------
		A:------12-10-12------------------------------------------------------
		E:--------------------------------------------------------------------]

guitar 2:	[e:---------------------
		B:---------------------
		G:---------------------
		D:-7----3----7----3----
		A:-7----3----7----3----
		E:-5----1----5----1----]

!		p.m.    . .    . .    . .    . .    . .    .
		[e:---------------------------------------------------
		B:---------------------------------------------------
		G:---------------5-5-------------------------3--5----
		D:--------3-3----3-3--3-5-5-----------3-3----1--3----
		A:-5-5----1-1--1--------3-3--3-5-5----1-1--1------5--
		E:-3-3--3----------------------3-3--3-------------3--

		e:-------------------------
		B:-------------------------
		G:-----3-----5-----3--3--5-
		D:--5--3--3--5--5--3--1--3-
		A:--5--1--3--3--5--1-------
		E:--3-----1-----3----------]

guitar 1:	[e:-------------------
		B:-------------------
		G:-------------------
		D:-5---3--0----------
		A:------------1------
		E:---------------3---]

guitar 2:	[e:-------------------
		B:-------------------
		G:-------------------
		D:-8---7--5------5---
		A:------------5------
		E:-------------------]

!		Flute...

		[e:----------
		B:----------
		G:-8-----5--
		D:-8--5--5--
		A:-6--5--3--
		E:----3-----]

Chorus:		Tragedienne of heavens..
guitar 1:	[e:------------------8---10--8--10h11p10-
		B:-11-10-8----11-10---------------------
		G:---------7----------------------------
		D:--------------------------------------
		A:--------------------------------------
		E:--------------------------------------]

guitar 1:	[e:------------------8---10-8--------------
		B:-11-10-8----11-10----------11-10--6-/8--
		G:---------7------------------------------
		D:----------------------------------------
		A:----------------------------------------
		E:----------------------------------------]

guitar 2:	[e:--------------------------------------
		B:--------------------------------------
		G:--------------------------------------
		D:-5---3---3-----5----5---3---3--7--5---
		A:-5---3---1--3--5----5---3---1--5--5---
		E:-3---1------1--3----3---1---------3---]

!		Guit/keyb. riff:

		[e:-----------------------------------------5-6-5---10-8-6-5-8-6-5-
		B:-------------------------7-8-7-------7-8-------8----------------
		G:-----4-5-7-8-7-5-4-5-7-8-------8-7-8----------------------------
		D:-5-6------------------------------------------------------------
		A:----------------------------------------------------------------
		E:----------------------------------------------------------------]

1st:		[e:-------10-8-6-5-6-8-6-8-5-5-3-5-1-
		B:---6-8----------------------------
		G:-8--------------------------------
		D:----------------------------------
		A:----------------------------------
		E:----------------------------------]

2nd:		[e:----------13-11-10-11----10-11-10-11-8-8-6-8-5-
		B:----10-11-------------13-----------------------
		G:-12--------------------------------------------
		D:-----------------------------------------------
		A:-----------------------------------------------
		E:-----------------------------------------------]

Rhythm guitar:	p.m all the way..
		[e:-------------------------------
		B:-------------------------------
		G:-------------------------------
		D:-------------------------------
		A:-----------5*--------6*---8*---
		E:-3*---4*--------3*-------------]

end:		p.m. . . .  . . .
		[e:--------------------
		B:--------------------
		G:--------------------
		D:----------------5---
		A:----------5-5-5-5---
		E:-3-3-3-3--3-3-3-3---]

!		Tablature explanation:
!		p.m = palm muted
!		* = continue picking
!		h = hammer on
!		p = pull off
!		/ = slide up
!		\\ = slide down
!		~ = vibrator

-

Text:		Stargazers

		A grand oasis in the vastness of gloom
		Child of dew-spangled cobweb Mother to the moon
		Constellations beholders of the 3rd vagrant
		Theater for the play of life

		Tragedienne of heavens
		Watching the eyes of the night
		Sailing the virgin oceans
		A planetride for the Mother and Child

		Floating upon the quiet hydrogen lakes
		In this ambrosial merry-go-round they will gaze
		Ephemereal life touched by a billion-year show
		Separating the poet from the woe

		Tragedienne of heavens...

		Oracle of the Delphian Domine
		Witness of Adam's frailty
		Seer of the master prophecy
		The stellar world her betrothed

		Wanderers in cosmic caravan
		Universal bond - The Starborn

		A son in the search for the truth
		Following the pages of Almagest
		Discovering the origin of dreams
		Stargazers ride through the ancient realms

		Tragedienne of heavens...

-

Перевод:	Звездочеты

		Оазис великий в просторах бескрайних,
		Ребенок украсил росинками слез,
		А матерь-Луна, средь созвездий дальних,
		Вздыхает - в театре он жизни, грядет ему рост.

		Актриса трагедии, неба актриса,
		Глядит, вопрошая в дыханье ночи,
		Океаны вечные, девствены росы -
		Для Матери и для Ребенка то пенье звучит.

		Для них же движенье светил и планет тех,
		Там, в водородных озерах плавают они,
		И в свадьбе той неземной видят нас всех,
		Поэтов из боли выделяют они.

		Дельфийский оракул, изрек о роде Адама,
		Свидетелем был хрупкости его,
		Провидец Владыки желанья, и вечного Храма,
		О том, что со звездами помолвлена судьба его.

		Странники средь светил и караванов дальних,
		Оковы космоса - рождение Звезды,
		А сын все ищет истину среди пределов крайних,
		Источник снов своих - в эпохах даже темных звездочеты нам видны.

-

Перевод:	"Смотрящие на звёзды"

		Грандиозный оазис в великолепии мрака,
		Дитя блестящей росой паутины, Мать Луна.
		Трое бродяг наблюдают созвездия
		В театре для пьесы жизни.

		Трагедия небес,
		Смотрящих глазами ночи,
		Плывя по девственному океану
		Путём планет от Матери к Сыну.

		Плывя по тихим озёрам,
		Они будут всматриваться в эту божественную карусель,
		Древнейшее представление коснулось иллюзорной жизни,
		Отделив поэта от горя.

		Дельфийский оракул -
		Свидетель слабости Адама,
		Пророк предсказаний повелителя.
		Звёздный мир её обручил.

		Бродяги космического каравана,
		Рабы вселенной, рождённые звёздами.

		Сын в поисках правды,
		Следуя страницам Алмагеста,
		Обнаруживает происхождение снов.
		Смотрящие на звёзды пересекают древние королевства.

-

!		Bass

		[E||-----------------------|-----------------------|-----------------------|
		B||-----------------------|-----------------------|-----------------------|
		G||-----------------------|-----------------------|-----------------------|
		D||-----------------------|-----------------------|-----------------------|
		A||-----------------------|-----------------------|-----------------------|
		E||----------3-3-3-3--1---|----------3-3-3-3--1---|----------3-3-3-3--1---|

		------------------|-----------------------|-----------------------|
		------------------|-----------------------|-----------------------|
		------------------|-----------------------|-----------------------|
		------------------|-----------------------|-----------------------|
		------------------|-----------------------|-----------------------|
		------------------|----------3-3-3-3--1---|----------3-3-3-3--1---|

		-----------------------|------------------|------------------|
		-----------------------|------------------|------------------|
		-----------------------|------------------|------------------|
		-----------------------|------------------|------------------|
		-----------------------|------------------|------------------|
		----------3-3-3-3--1---|------------------|------------------|

		------------------|------------------|------------------|------------------|
		------------------|------------------|------------------|------------------|
		------------------|------------------|------------------|------------------|
		------------------|------------------|------------------|------------------|
		------------------|------------------|------------------|------------------|
		------------------|------------------|------------------|------------------|

		------------------|-----------------------|-----------------------|
		------------------|-----------------------|-----------------------|
		------------------|-----------------------|-----------------------|
		------------------|-----------------------|-----------------------|
		------------------|-----------------------|-----------------------|
		------------------|----------3-3-3-3--1---|----------3-3-3-3--1---|

		-----------------------|------------------|-----------------------|
		-----------------------|------------------|-----------------------|
		-----------------------|------------------|-----------------------|
		-----------------------|------------------|-----------------------|
		-----------------------|------------------|-----------------------|
		----------3-3-3-3--1---|------------------|----------3-3-3-3--1---|

		-----------------------|-----------------------|------------------|
		-----------------------|-----------------------|------------------|
		-----------------------|-----------------------|------------------|
		-----------------------|-----------------------|------------------|
		-----------------------|-----------------------|------------------|
		----------3-3-3-3--1---|----------3-3-3-3--1---|------------------|

		----------------------------------|----------------------------------|
		----------------------------------|----------------------------------|
		----------------------------------|----------------------------------|
		----------------------------------|----------------------------------|
		----------------------------------|----------------------------------|
		--3-3-3-3-3-3-3-3-3-3-3-3-3-3-3-3-|--1-1-1-1-1-1-1-1-1-1-1-1-1-1-1-1-|

		----------------------------------|----------------------------------|
		----------------------------------|----------------------------------|
		----------------------------------|----------------------------------|
		----------------------------------|----------------------------------|
		--1-1-1-1-1-1-1-1-----------------|----------------------------------|
		------------------1-1-1-1-1-1-1-1-|--3-3-3-3-3-3-3-3-3-3-3-3-3-3-3-3-|

		----------------------------------|----------------------------------|
		----------------------------------|----------------------------------|
		----------------------------------|----------------------------------|
		----------------------------------|----------------------------------|
		----------------------------------|----------------------------------|
		--3-3-3-3-3-3-3-3-3-3-3-3-3-3-3-3-|--1-1-1-1-1-1-1-1-1-1-1-1-1-1-1-1-|

		----------------------------------|----------------------------------|
		----------------------------------|----------------------------------|
		----------------------------------|----------------------------------|
		----------------------------------|----------------------------------|
		--1-1-1-1-1-1-1-1-----------------|----------------------------------|
		------------------1-1-1-1-1-1-1-1-|--3-3-3-3-3-3-3-3-3-3-3-3-3-3-3-3-|

		----------------------------------|------------------|
		----------------------------------|------------------|
		----------------------------------|------------------|
		----------------------------------|------------------|
		----------------------------------|------------------|
		--4-4-4-4-4-4-4-4-3-3-3-3-3-3-3-3-|------------------|

		----------------------------------|----------------------------------|
		----------------------------------|----------------------------------|
		----------------------------------|----------------------------------|
		----------------------------------|----------------------------------|
		--1-1-1-1-1-1-1-1-----------------|----------------------------------|
		------------------1-1-1-1-1-1-1-1-|--3-3-3-3-3-3-3-3-3-3-3-3-3-3-3-3-|

		----------------------------------|--------------------------|
		----------------------------------|--------------------------|
		----------------------------------|--------------------------|
		----------------------------------|--------------------------|
		----------------------------------|--------------------------|
		--4-4-4-4-4-4-4-4-3-3-3-3-3-3-3-3-|----------1-1-1-1-1-1-1-1-|

		----------------------------------|------------------|------------------|
		----------------------------------|------------------|------------------|
		----------------------------------|------------------|------------------|
		----------------------------------|------------------|------------------|
		----------------------------------|------------------|------------------|
		--3-3-3-3-3-3-3-3-3-3-3-3-3-3-3-3-|------------------|------------------|

		------------------|------------------|------------------|------------------|
		------------------|------------------|------------------|------------------|
		------------------|------------------|------------------|------------------|
		------------------|------------------|------------------|------------------|
		------------------|------------------|------------------|------------------|
		------------------|------------------|------------------|------------------|

		------------------|------------------|----------------------------------|
		------------------|------------------|----------------------------------|
		------------------|------------------|----------------------------------|
		------------------|------------------|----------------------------------|
		------------------|------------------|----------------------------------|
		------------------|------------------|--3-3-3-3-3-3-3-3-3-3-3-3-3-3-3-3-|

		----------------------------------|----------------------------------|
		----------------------------------|----------------------------------|
		----------------------------------|----------------------------------|
		----------------------------------|----------------------------------|
		----------------------------------|--1-1-1-1-1-1-1-1-----------------|
		--1-1-1-1-1-1-1-1-1-1-1-1-1-1-1-1-|------------------1-1-1-1-1-1-1-1-|

		----------------------------------|----------------------------------|
		----------------------------------|----------------------------------|
		----------------------------------|----------------------------------|
		----------------------------------|----------------------------------|
		----------------------------------|----------------------------------|
		--3-3-3-3-3-3-3-3-3-3-3-3-3-3-3-3-|--3-3-3-3-3-3-3-3-3-3-3-3-3-3-3-3-|

		----------------------------------|----------------------------------|
		----------------------------------|----------------------------------|
		----------------------------------|----------------------------------|
		----------------------------------|----------------------------------|
		----------------------------------|--1-1-1-1-1-1-1-1-----------------|
		--1-1-1-1-1-1-1-1-1-1-1-1-1-1-1-1-|------------------1-1-1-1-1-1-1-1-|

		----------------------------------|----------------------------------|
		----------------------------------|----------------------------------|
		----------------------------------|----------------------------------|
		----------------------------------|----------------------------------|
		----------------------------------|----------------------------------|
		--3-3-3-3-3-3-3-3-3-3-3-3-3-3-3-3-|--4-4-4-4-4-4-4-4-3-3-3-3-3-3-3-3-|

		------------------|----------------------------------|
		------------------|----------------------------------|
		------------------|----------------------------------|
		------------------|----------------------------------|
		------------------|--1-1-1-1-1-1-1-1-----------------|
		------------------|------------------1-1-1-1-1-1-1-1-|

		----------------------------------|----------------------------------|
		----------------------------------|----------------------------------|
		----------------------------------|----------------------------------|
		----------------------------------|----------------------------------|
		----------------------------------|----------------------------------|
		--3-3-3-3-3-3-3-3-3-3-3-3-3-3-3-3-|--4-4-4-4-4-4-4-4-3-3-3-3-3-3-3-3-|

		--------------------------|----------------------------------|
		--------------------------|----------------------------------|
		--------------------------|----------------------------------|
		--------------------------|----------------------------------|
		--------------------------|----------------------------------|
		----------1-1-1-1-1-1-1-1-|--3-3-3-3-3-3-3-3-3-3-3-3-3-3-3-3-|

		------------------|------------------|------------------|------------------|
		------------------|------------------|------------------|------------------|
		------------------|------------------|------------------|------------------|
		------------------|------------------|------------------|------------------|
		------------------|------------------|------------------|------------------|
		------------------|------------------|------------------|------------------|

		------------------|------------------|------------------|------------------|
		------------------|------------------|------------------|------------------|
		------------------|------------------|------------------|------------------|
		------------------|------------------|------------------|------------------|
		------------------|------------------|------------------|------------------|
		------------------|------------------|------------------|------------------|

		----------------------------------|----------------------------------|
		----------------------------------|----------------------------------|
		----------------------------------|----------------------------------|
		----------------------------------|----------------------------------|
		----------------------------------|----------------------------------|
		--3-3-3-3-3-3-3-3-3-3-3-3-3-3-3-3-|--1-1-1-1-1-1-1-1-1-1-1-1-1-1-1-1-|

		----------------------------------|----------------------------------|
		----------------------------------|----------------------------------|
		----------------------------------|----------------------------------|
		----------------------------------|----------------------------------|
		--1-1-1-1-1-1-1-1-----------------|----------------------------------|
		------------------1-1-1-1-1-1-1-1-|--3-3-3-3-3-3-3-3-3-3-3-3-3-3-3-3-|

		----------------------------------|----------------------------------|
		----------------------------------|----------------------------------|
		----------------------------------|----------------------------------|
		----------------------------------|----------------------------------|
		----------------------------------|----------------------------------|
		--3-3-3-3-3-3-3-3-3-3-3-3-3-3-3-3-|--1-1-1-1-1-1-1-1-1-1-1-1-1-1-1-1-|

		----------------------------------|-----|--------------------|
		----------------------------------|-----|--------------------|
		----------------------------------|-----|--------------------|
		----------------------------------|-----|--------------------|
		--1-1-1-1-1-1-1-1-----------------|-----|--------------------|
		------------------1-1-1-1-1-1-1-1-|--3--|--3-3---------------|

		---------------------|--------------------|---------------------|
		---------------------|--------------------|---------------------|
		---------------------|--------------------|---------------------|
		---------------------|--------------------|---------------------|
		--------------4------|--------------------|--------------4------|
		--3-3----------------|--3-3---------------|--3-3----------------|

		--------------------------------|--------------------------------|
		--------------------------------|--------------------------------|
		--------------------------------|--------------------------------|
		--------------------------------|--------------------------------|
		--------------------------------|--------------------------------|
		--3--3-3-3-3-3-3-3--3-3-3-3-3-3-|--3--3-3-3-3-3-3-3--3-3-3-3-3-3-|

		-------------------|------------------|---------------------------|
		-------------------|------------------|---------------------------|
		-------------------|------------------|---------------------------|
		-------------------|------------------|---------------------------|
		-------------------|------------------|---------------------------|
		--3----------------|------------------|--0----0--0--0--0-0-0-0-0--|

		---------------------------|---------------------------|
		---------------------------|---------------------------|
		---------------------------|---------------------------|
		---------------------------|---------------------------|
		---------------------------|---------------------------|
		--0----0--0--0--0-0-0-0-0--|--0----0--0--0--0-0-0-0-0--|

		---------------------------|--------------------------|
		---------------------------|--------------------------|
		---------------------------|--------------------------|
		---------------------------|--------------------------|
		---------------------------|--0--0--0--0--0--0--0--0--|
		--0----0--0--0--0-0-0-0-0--|--------------------------|

		--------------------------|--------------------------|
		--------------------------|--------------------------|
		--------------------------|--------------------------|
		--------------------------|--------------------------|
		--------------------------|--0--0--0--0--0--0--0--0--|
		--1--1--1--1--1--1--1--1--|--------------------------|

		--------------------------|--------------------------------|
		--------------------------|--------------------------------|
		--------------------------|--------------------------------|
		--------------------------|--------------------------------|
		--------------------------|--------------------------------|
		--1--1--1--1--1--1--1--1--|--3--3-3-3-3-3-3-3--3-3-3-3-3-3-|

		--------------------------------|--------------------------------|
		--------------------------------|--------------------------------|
		--------------------------------|--------------------------------|
		--------------------------------|--------------------------------|
		--------------------------------|--------------------------------|
		--3--3-3-3-3-3-3-3--3-3-3-3-3-3-|--3--3-3-3-3-3-3-3--3-3-3-3-3-3-|

		---------------------------|--------------------------------|
		---------------------------|--------------------------------|
		---------------------------|--------------------------------|
		---------------------------|--------------------------------|
		---------------------------|--------------------------------|
		--3--3-3-3-3-3-3-3----1----|--3--3-3-3-3-3-3-3--3-3-3-3-3-3-|

		--------------------------------|-------------------|------------------|
		--------------------------------|-------------------|------------------|
		--------------------------------|-------------------|------------------|
		--------------------------------|-------------------|------------------|
		--------------------------------|-------------------|------------------|
		--3--3-3-3-3-3-3-3--3-3-3-3-3-3-|--3----------------|------------------|

		---------------------------|---------------------------|
		---------------------------|---------------------------|
		---------------------------|---------------------------|
		---------------------------|---------------------------|
		---------------------------|---------------------------|
		--0----0--0--0--0-0-0-0-0--|--0----0--0--0--0-0-0-0-0--|

		---------------------------|---------------------------|
		---------------------------|---------------------------|
		---------------------------|---------------------------|
		---------------------------|---------------------------|
		---------------------------|---------------------------|
		--0----0--0--0--0-0-0-0-0--|--0----0--0--0--0-0-0-0-0--|

		--------------------------|--------------------------|
		--------------------------|--------------------------|
		--------------------------|--------------------------|
		--------------------------|--------------------------|
		--0--0--0--0--0--0--0--0--|--------------------------|
		--------------------------|--1--1--1--1--1--1--1--1--|

		--------------------------|--------------------------|--------------------|
		--------------------------|--------------------------|--------------------|
		--------------------------|--------------------------|--------------------|
		--------------------------|--------------------------|--------------------|
		--0--0--0--0--0--0--0--0--|--------------------------|-----------1--------|
		--------------------------|--1--1--1--1--1--1--1--1--|--3-----------------|

		--------------------|--------------------|--------------------|
		--------------------|--------------------|--------------------|
		--------------------|--------------------|--------------------|
		--------------------|--------------------|--------------------|
		-----------3--------|-----------1--------|--------------------|
		--1-----------------|--3-----------------|------1----3--------|

		--------------------|--------------------|--------------------|
		--------------------|--------------------|--------------------|
		--------------------|--------------------|--------------------|
		--------------------|--------------------|--------------------|
		-----------1--------|-----------3--------|-----------1--------|
		--3-----------------|--1-----------------|--3-----------------|

		--------------------|------------------|------------------|-------------------|
		--------------------|------------------|------------------|-------------------|
		--------------------|------------------|------------------|-------------------|
		--------------------|------------------|------------------|-------------------|
		--------------------|------------------|------------------|-------------------|
		------1----3--------|------------------|------------------|--3----------------|

		------------------|------------------|------------------|------------------|
		------------------|------------------|------------------|------------------|
		------------------|------------------|------------------|------------------|
		------------------|------------------|------------------|------------------|
		------------------|------------------|------------------|------------------|
		------------------|------------------|------------------|------------------|

		------------------|------------------|------------------|------------------|
		------------------|------------------|------------------|------------------|
		------------------|------------------|------------------|------------------|
		------------------|------------------|------------------|------------------|
		------------------|------------------|------------------|------------------|
		------------------|------------------|------------------|------------------|

		------------------|------------------|------------------|------------------|
		------------------|------------------|------------------|------------------|
		------------------|------------------|------------------|------------------|
		------------------|------------------|------------------|------------------|
		------------------|------------------|------------------|------------------|
		------------------|------------------|------------------|------------------|

		------------------|------------------|------------------|
		------------------|------------------|------------------|
		------------------|------------------|------------------|
		------------------|------------------|------------------|
		------------------|------------------|------------------|
		------------------|------------------|------------------|

		-------------------------|------------------|------------------|
		-------------------------|------------------|------------------|
		-------------------------|------------------|------------------|
		-------------------------|------------------|------------------|
		-------------------------|------------------|------------------|
		--1--1-1-1-1-1-1---------|------------------|------------------|

		------------------|-------------------------|------------------|
		------------------|-------------------------|------------------|
		------------------|-------------------------|------------------|
		------------------|-------------------------|------------------|
		------------------|-------------------------|------------------|
		------------------|--1--1-1-1-1-1-1---------|------------------|

		------------------|------------------|------------------|
		------------------|------------------|------------------|
		------------------|------------------|------------------|
		------------------|------------------|------------------|
		------------------|------------------|------------------|
		------------------|------------------|------------------|

		-----------3-----------||
		-----------------------||
		-----------0-----------||
		-----------0-----------||
		-----------------------||
		--3-3-3-3--3-----------||]

-

!		Guitar Solo

		[E||------------------|------------------|------------------|------------------|
		B||------------------|------------------|------------------|------------------|
		G||------------------|------------------|------------------|------------------|
		D||------------------|------------------|------------------|------------------|
		A||------------------|------------------|------------------|------------------|
		E||------------------|------------------|------------------|------------------|

		------------------|------------------|------------------|------------------|
		------------------|------------------|------------------|------------------|
		------------------|------------------|------------------|------------------|
		------------------|------------------|------------------|------------------|
		------------------|------------------|------------------|------------------|
		------------------|------------------|------------------|------------------|

		--------------------------2-3-2---|----0-2-3-5-6-5-3-10-8-6-5-8-6-5-3-|
		------0-1-3-4-3-1-0-1-3-4-------4-|--3--------------------------------|
		--0-2-----------------------------|-----------------------------------|
		----------------------------------|-----------------------------------|
		----------------------------------|-----------------------------------|
		----------------------------------|-----------------------------------|

		----1-3-5-8-6-5-3---3---3---3---3-|--------------------------2-3-2---|
		--4---------------3---1-----------|------0-1-3-4-3-1-0-1-3-4-------4-|
		--------------------------3---2---|--0-2-----------------------------|
		----------------------------------|----------------------------------|
		----------------------------------|----------------------------------|
		----------------------------------|----------------------------------|

		----0-2-3-5-6-5-3-10-8-6-5-8-6-5-3-|--3-5-8-10-13-11-10-8---6---6---6---6-|
		--3--------------------------------|--4-6-8-10-13-11-10-8-6-8-6-8---8---8-|
		-----------------------------------|----------------------7---5---7---5---|
		-----------------------------------|------------------------------8---7---|
		-----------------------------------|--------------------------------------|
		-----------------------------------|--------------------------------------|

		------------------|------------------|------------------|------------------|
		------------------|------------------|------------------|------------------|
		------------------|------------------|------------------|------------------|
		------------------|------------------|------------------|------------------|
		------------------|------------------|------------------|------------------|
		------------------|------------------|------------------|------------------|

		------------------|------------------|------------------|------------------|
		------------------|------------------|------------------|------------------|
		------------------|------------------|------------------|------------------|
		------------------|------------------|------------------|------------------|
		------------------|------------------|------------------|------------------|
		------------------|------------------|------------------|------------------|

		--18---17---15--------18----|--17----20------------|
		----------------15----------|----------------------|
		----------------------------|----------------------|
		----------------------------|----------------------|
		----------------------------|----------------------|
		----------------------------|----------------------|

		--22---22---22--20---22---23--|--22----------------|
		------------------------------|--------------------|
		------------------------------|--------------------|
		------------------------------|--------------------|
		------------------------------|--------------------|
		------------------------------|--------------------|

		----------------------------|--------20------------|
		--23---22-------------23----|--22------------------|
		------------24--------------|----------------------|
		----------------24----------|----------------------|
		----------------------------|----------------------|
		----------------------------|----------------------|

		--22---20---18--17----------|--15----------------|------------------|
		----------------------18----|--------------------|------------------|
		----------------------------|--------------------|------------------|
		----------------------------|--------------------|------------------|
		----------------------------|--------------------|------------------|
		----------------------------|--------------------|------------------|

		------------------|------------------|------------------|------------------|
		------------------|------------------|------------------|------------------|
		------------------|------------------|------------------|------------------|
		------------------|------------------|------------------|------------------|
		------------------|------------------|------------------|------------------|
		------------------|------------------|------------------|------------------|

		------------------|------------------|------------------|------------------|
		------------------|------------------|------------------|------------------|
		------------------|------------------|------------------|------------------|
		------------------|------------------|------------------|------------------|
		------------------|------------------|------------------|------------------|
		------------------|------------------|------------------|------------------|

		------------------|------------------|------------------|------------------|
		------------------|------------------|------------------|------------------|
		------------------|------------------|------------------|------------------|
		------------------|------------------|------------------|------------------|
		------------------|------------------|------------------|------------------|
		------------------|------------------|------------------|------------------|

		------------------|------------------|--18---17---15--------18----|
		------------------|------------------|----------------15----------|
		------------------|------------------|----------------------------|
		------------------|------------------|----------------------------|
		------------------|------------------|----------------------------|
		------------------|------------------|----------------------------|

		--17----20------------|--22---22---22--20---22---23--|--22----------------|
		----------------------|------------------------------|--------------------|
		----------------------|------------------------------|--------------------|
		----------------------|------------------------------|--------------------|
		----------------------|------------------------------|--------------------|
		----------------------|------------------------------|--------------------|

		----------------------------|--------20------------|
		--23---22-------------23----|--22------------------|
		------------24--------------|----------------------|
		----------------24----------|----------------------|
		----------------------------|----------------------|
		----------------------------|----------------------|

		--22---20---18--17----------|--15----------------|------------------|
		----------------------18----|--------------------|------------------|
		----------------------------|--------------------|------------------|
		----------------------------|--------------------|------------------|
		----------------------------|--------------------|------------------|
		----------------------------|--------------------|------------------|

		------------------|------------------|------------------|------------------|
		------------------|------------------|------------------|------------------|
		------------------|------------------|------------------|------------------|
		------------------|------------------|------------------|------------------|
		------------------|------------------|------------------|------------------|
		------------------|------------------|------------------|------------------|

		------------------|------------------|------------------|------------------|
		------------------|------------------|------------------|------------------|
		------------------|------------------|------------------|------------------|
		------------------|------------------|------------------|------------------|
		------------------|------------------|------------------|------------------|
		------------------|------------------|------------------|------------------|

		------------------|------------------|------------------|------------------|
		------------------|------------------|------------------|------------------|
		------------------|------------------|------------------|------------------|
		------------------|------------------|------------------|------------------|
		------------------|------------------|------------------|------------------|
		------------------|------------------|------------------|------------------|

		------------------|------------------|--18---17---15--------18----|
		------------------|------------------|----------------15----------|
		------------------|------------------|----------------------------|
		------------------|------------------|----------------------------|
		------------------|------------------|----------------------------|
		------------------|------------------|----------------------------|

		--17----20------------|--22---22---22--23----22----|--------------------|
		----------------------|----------------------------|--23----------------|
		----------------------|----------------------------|--------------------|
		----------------------|----------------------------|--------------------|
		----------------------|----------------------------|--------------------|
		----------------------|----------------------------|--------------------|

		----------------------------|--------20------------|
		--23---22-------------23----|--22------------------|
		------------24--------------|----------------------|
		----------------24----------|----------------------|
		----------------------------|----------------------|
		----------------------------|----------------------|

		--22---20---18--17----------|----|------------------|------------------|
		----------------------18----|----|------------------|------------------|
		----------------------------|----|------------------|------------------|
		----------------------------|----|------------------|------------------|
		----------------------------|----|------------------|------------------|
		----------------------------|----|------------------|------------------|

		------------------|------------------|------------------|------------------|
		------------------|------------------|------------------|------------------|
		------------------|------------------|------------------|------------------|
		------------------|------------------|------------------|------------------|
		------------------|------------------|------------------|------------------|
		------------------|------------------|------------------|------------------|

		------------------|------------------|------------------|------------------|
		------------------|------------------|------------------|------------------|
		------------------|------------------|------------------|------------------|
		------------------|------------------|------------------|------------------|
		------------------|------------------|------------------|------------------|
		------------------|------------------|------------------|------------------|

		------------------|------------------|------------------|------------------|
		------------------|------------------|------------------|------------------|
		------------------|------------------|------------------|------------------|
		------------------|------------------|------------------|------------------|
		------------------|------------------|------------------|------------------|
		------------------|------------------|------------------|------------------|

		------------------|------------------|------------------|------------------|
		------------------|------------------|------------------|------------------|
		------------------|------------------|------------------|------------------|
		------------------|------------------|------------------|------------------|
		------------------|------------------|------------------|------------------|
		------------------|------------------|------------------|------------------|

		------------------|------------------|------------------|------------------|
		------------------|------------------|------------------|------------------|
		------------------|------------------|------------------|------------------|
		------------------|------------------|------------------|------------------|
		------------------|------------------|------------------|------------------|
		------------------|------------------|------------------|------------------|

		------------------|------------------|------------------|------------------|
		------------------|------------------|------------------|------------------|
		------------------|------------------|------------------|------------------|
		------------------|------------------|------------------|------------------|
		------------------|------------------|------------------|------------------|
		------------------|------------------|------------------|------------------|

		------------------|---------------------------5-7-8-10-12-13-|
		------------------|-----------------------6-8----------------|
		------------------|-------------------7-9--------------------|
		------------------|--------------9-10------------------------|
		------------------|--------10-12-----------------------------|
		------------------|--12-13-----------------------------------|

		--20---19---17--------17----|--15---13-----------------|
		----------------17----------|------------13------------|
		----------------------------|----------------10--------|
		----------------------------|--------------------------|
		----------------------------|--------------------------|
		----------------------------|--------------------------|

		---------7-5-7-8-10-8-10-12-13-12-13-15-17-|--17---15---13------------|
		-------8-----------------------------------|----------------13--------|
		--9-10-------------------------------------|--------------------------|
		-------------------------------------------|--------------------------|
		-------------------------------------------|--------------------------|
		-------------------------------------------|--------------------------|

		------------------|------------------|------------------|------------------|
		------------------|------------------|------------------|------------------|
		------------------|------------------|------------------|------------------|
		------------------|------------------|------------------|------------------|
		------------------|------------------|------------------|------------------|
		------------------|------------------|------------------|------------------|

		------------------|------------------|------------------|-------------------|
		------------------|------------------|------------------|-------------------|
		------------------|------------------|------------------|-------------------|
		------------------|------------------|------------------|-------------------|
		------------------|------------------|------------------|-------------------|
		------------------|------------------|------------------|----------3--------|

		------------------|------------------|------------------|------------------|
		------------------|------------------|------------------|------------------|
		------------------|------------------|------------------|------------------|
		------------------|------------------|------------------|------------------|
		------------------|------------------|------------------|------------------|
		------------------|------------------|------------------|------------------|

		------------------|------------------|------------------|------------------|
		------------------|------------------|------------------|------------------|
		------------------|------------------|------------------|------------------|
		------------------|------------------|------------------|------------------|
		------------------|------------------|------------------|------------------|
		------------------|------------------|------------------|------------------|

		------------------|------------------|------------------|------------------|
		------------------|------------------|------------------|------------------|
		------------------|------------------|------------------|------------------|
		------------------|------------------|------------------|------------------|
		------------------|------------------|------------------|------------------|
		------------------|------------------|------------------|------------------|

		------------------|------------------|------------------|------------------|
		------------------|------------------|------------------|------------------|
		------------------|------------------|------------------|------------------|
		------------------|------------------|------------------|------------------|
		------------------|------------------|------------------|------------------|
		------------------|------------------|------------------|------------------|

		------------------|------------------|------------------|------------------|
		------------------|------------------|------------------|------------------|
		------------------|------------------|------------------|------------------|
		------------------|------------------|------------------|------------------|
		------------------|------------------|------------------|------------------|
		------------------|------------------|------------------|------------------|

		------------------|------------------|------------------|------------------|
		------------------|------------------|------------------|------------------|
		------------------|------------------|------------------|------------------|
		------------------|------------------|------------------|------------------|
		------------------|------------------|------------------|------------------|
		------------------|------------------|------------------|------------------|

		--------------------------2-3-2---|----0-2-3-5-6-5-3-10-8-6-5-8-6-5-3-|
		------0-1-3-4-3-1-0-1-3-4-------4-|--3--------------------------------|
		--0-2-----------------------------|-----------------------------------|
		----------------------------------|-----------------------------------|
		----------------------------------|-----------------------------------|
		----------------------------------|-----------------------------------|

		----1-3-5-8-6-5-3---3---3---3---3-|------------------||
		--4---------------3---1-----------|------------------||
		--------------------------3---2---|------------------||
		----------------------------------|------------------||
		----------------------------------|------------------||
		----------------------------------|------------------||]

-

!		Overdrive Guitar 1

		[E||-----------------------|-----------------------|-----------------------|
		B||-----------------------|-----------------------|-----------------------|
		G||----------7-7-7-7--5---|----------7-7-7-7--5---|----------7-7-7-7--5---|
		D||----------5-5-5-5--3---|----------5-5-5-5--3---|----------5-5-5-5--3---|
		A||-----------------------|-----------------------|-----------------------|
		E||-----------------------|-----------------------|-----------------------|

		--------------------|-----------------------|-----------------------|
		--------------------|-----------------------|-----------------------|
		--3-----------------|----------7-7-7-7--5---|----------7-7-7-7--5---|
		--1--------5--------|----------5-5-5-5--3---|----------5-5-5-5--3---|
		-----------3--------|-----------------------|-----------------------|
		--------------------|-----------------------|-----------------------|

		-----------------------|--------------------|-----------------------------|
		-----------------------|--------------------|-----------------------------|
		----------7-7-7-7--5---|--3-----------------|-----------------------------|
		----------5-5-5-5--3---|--1--------5--------|-----------------------------|
		-----------------------|-----------3--------|---------------3---3-3-3-3-3-|
		-----------------------|--------------------|--3----3-3-3-3---------------|

		--------------------------------|--------------------------------|
		--------------------------------|--------------------------------|
		--------------------------------|--------------------------------|
		--------------------------------|--------------------------------|
		--5--5-5-5-5-5-5----------------|--6--6-6-6-6-6-6-3--3-3-3-3-3-3-|
		-----------------3--3-3-3-3-3-3-|--------------------------------|

		--------------------------------|--------------------------------|
		--------------------------------|--------------------------------|
		--------------------------------|--------------------------------|
		--------------------------------|--------------------------------|
		-----------------3--3-3-3-3-3-3-|--5--5-5-5-5-5-5----------------|
		--3--3-3-3-3-3-3----------------|-----------------3--3-3-3-3-3-3-|

		--------------------------------|-----------------------|
		--------------------------------|-----------------------|
		--------------------------------|----------7-7-7-7--5---|
		--------------------------------|----------5-5-5-5--3---|
		--6--6-6-6-6-6-6-3--3-3-3-3-3-3-|-----------------------|
		--------------------------------|-----------------------|

		-----------------------|-----------------------|--------------------|
		-----------------------|-----------------------|--------------------|
		----------7-7-7-7--5---|----------7-7-7-7--5---|--3-----------------|
		----------5-5-5-5--3---|----------5-5-5-5--3---|--1--------5--------|
		-----------------------|-----------------------|-----------3--------|
		-----------------------|-----------------------|--------------------|

		-----------------------|-----------------------|-----------------------|
		-----------------------|-----------------------|-----------------------|
		----------7-7-7-7--5---|----------7-7-7-7--5---|----------7-7-7-7--5---|
		----------5-5-5-5--3---|----------5-5-5-5--3---|----------5-5-5-5--3---|
		-----------------------|-----------------------|-----------------------|
		-----------------------|-----------------------|-----------------------|

		--------------------|-------------------|-------------------|
		--------------------|-------------------|-------------------|
		--3-----------------|-------------------|-------------------|
		--1--------5--------|-------------------|-------------------|
		-----------3--------|--5----------------|--3----------------|
		--------------------|--3----------------|--1----------------|

		--------------------|-------------------|-------------------|
		--------------------|-------------------|-------------------|
		--------------------|-------------------|-------------------|
		--3-----------------|-------------------|-------------------|
		--1--------3--------|--5----------------|--5----------------|
		-----------1--------|--3----------------|--3----------------|

		-------------------|--------------------|-------------------|
		-------------------|--------------------|-------------------|
		-------------------|--------------------|-------------------|
		-------------------|--3-----------------|-------------------|
		--3----------------|--1--------3--------|--5----------------|
		--1----------------|-----------1--------|--3----------------|

		--------------------|-------------------|--------------------|
		--------------------|-------------------|--------------------|
		--------------------|--3----------------|--------------------|
		--------------------|--1----------------|--3-----------------|
		--6--------5--------|-------------------|--1--------3--------|
		--4--------3--------|-------------------|-----------1--------|

		-------------------|--------------------|--------------------|
		-------------------|--------------------|--------------------|
		-------------------|--------------------|--3-----------------|
		-------------------|--------------------|--1-----------------|
		--5----------------|--6--------5--------|-----------3--------|
		--3----------------|--4--------3--------|-----------1--------|

		-------------------|---------------------------------|
		-------------------|---------------------------------|
		-------------------|---------------------------------|
		-------------------|--5------------------------------|
		--5----------------|--3--3-3-3-3-3-3-3-3-3-3-3-3-3-3-|
		--3----------------|---------------------------------|

		---------------------------------|--------------------------------|
		---------------------------------|--------------------------------|
		---------------------------------|--3-----------------------------|
		--3------------------------------|--1--1-1-1-1-1-1-3--------------|
		--1--1-1-1-1-1-1-1-1-1-1-1-1-1-1-|-----------------1--1-1-1-1-1-1-|
		---------------------------------|--------------------------------|

		---------------------------------|---------------------------------|
		---------------------------------|---------------------------------|
		---------------------------------|---------------------------------|
		--5------------------------------|--5------------------------------|
		--3--3-3-3-3-3-3-3-3-3-3-3-3-3-3-|--3--3-3-3-3-3-3-3-3-3-3-3-3-3-3-|
		---------------------------------|---------------------------------|

		---------------------------------|--------------------------------|
		---------------------------------|--------------------------------|
		---------------------------------|--3-----------------------------|
		--3------------------------------|--1--1-1-1-1-1-1----------------|
		--1--1-1-1-1-1-1-1-1-1-1-1-1-1-1-|-----------------5--------------|
		---------------------------------|-----------------3--3-3-3-3-3-3-|

		---------------------------------|-------------------|-------------------|
		---------------------------------|-------------------|-------------------|
		---------------------------------|-------------------|-------------------|
		--5------------------------------|-------------------|-------------------|
		--3--3-3-3-3-3-3-3-3-3-3-3-3-3-3-|--5----------------|--3----------------|
		---------------------------------|--3----------------|--1----------------|

		--------------------|-------------------|-------------------|
		--------------------|-------------------|-------------------|
		--------------------|-------------------|-------------------|
		--3-----------------|-------------------|-------------------|
		--1--------3--------|--5----------------|--5----------------|
		-----------1--------|--3----------------|--3----------------|

		-------------------|--------------------|-------------------|
		-------------------|--------------------|-------------------|
		-------------------|--------------------|-------------------|
		-------------------|--3-----------------|-------------------|
		--3----------------|--1--------3--------|--5----------------|
		--1----------------|-----------1--------|--3----------------|

		--------------------|-------------------|--------------------|
		--------------------|-------------------|--------------------|
		--------------------|--3----------------|--------------------|
		--------------------|--1----------------|--3-----------------|
		--6--------5--------|-------------------|--1--------3--------|
		--4--------3--------|-------------------|-----------1--------|

		-------------------|--------------------|--------------------|
		-------------------|--------------------|--------------------|
		-------------------|--------------------|--3-----------------|
		-------------------|--------------------|--1-----------------|
		--5----------------|--6--------5--------|-----------3--------|
		--3----------------|--4--------3--------|-----------1--------|

		-------------------|---------------------------------|
		-------------------|---------------------------------|
		-------------------|---------------------------------|
		-------------------|--5------------------------------|
		--5----------------|--3--3-3-3-3-3-3-3-3-3-3-3-3-3-3-|
		--3----------------|---------------------------------|

		---------------------------------|--------------------------------|
		---------------------------------|--------------------------------|
		---------------------------------|--3-----------------------------|
		--3------------------------------|--1--1-1-1-1-1-1-3--------------|
		--1--1-1-1-1-1-1-1-1-1-1-1-1-1-1-|-----------------1--1-1-1-1-1-1-|
		---------------------------------|--------------------------------|

		---------------------------------|---------------------------------|
		---------------------------------|---------------------------------|
		---------------------------------|---------------------------------|
		--5------------------------------|--5------------------------------|
		--3--3-3-3-3-3-3-3-3-3-3-3-3-3-3-|--3--3-3-3-3-3-3-3-3-3-3-3-3-3-3-|
		---------------------------------|---------------------------------|

		---------------------------------|--------------------------------|
		---------------------------------|--------------------------------|
		---------------------------------|--3-----------------------------|
		--3------------------------------|--1--1-1-1-1-1-1----------------|
		--1--1-1-1-1-1-1-1-1-1-1-1-1-1-1-|-----------------5--------------|
		---------------------------------|-----------------3--3-3-3-3-3-3-|

		---------------------------------|-------------------|-------------------|
		---------------------------------|-------------------|-------------------|
		---------------------------------|-------------------|-------------------|
		--5------------------------------|-------------------|-------------------|
		--3--3-3-3-3-3-3-3-3-3-3-3-3-3-3-|--5----------------|--3----------------|
		---------------------------------|--3----------------|--1----------------|

		--------------------|-------------------|-------------------|
		--------------------|-------------------|-------------------|
		--------------------|-------------------|-------------------|
		--3-----------------|-------------------|-------------------|
		--1--------3--------|--5----------------|--5----------------|
		-----------1--------|--3----------------|--3----------------|

		-------------------|--------------------|-----|--------------------|
		-------------------|--------------------|-----|--------------------|
		-------------------|--------------------|-----|--------------------|
		-------------------|--3-----------------|-----|--------------------|
		--3----------------|--1--------3--------|-----|--------------------|
		--1----------------|-----------1--------|--3--|--3-3---------------|

		-------------------|------------------|-------------------|
		-------------------|------------------|-------------------|
		-------------------|------------------|-------------------|
		------------6------|------------------|------------6------|
		------------4------|------------------|------------4------|
		-------------------|------------------|-------------------|

		--------------------------------|--------------------------------|
		--------------------------------|--------------------------------|
		--------------------------------|--------------------------------|
		--------------------------------|--------------------------------|
		--------------------------------|--------------------------------|
		--3--3-3-3-3-3-3-3--3-3-3-3-3-3-|--3--3-3-3-3-3-3-3--3-3-3-3-3-3-|

		-------------------|----------------------------|---------------------------|
		-------------------|----------------------------|---------------------------|
		-------------------|-------0--------------------|---------------------------|
		-------------------|---------3-2-0--------------|---------------------------|
		-------------------|---------------3-2-0--------|---------------------------|
		--3----------------|---------------------3-1-0--|--0----0--0--0--0-0-0-0-0--|

		---------------------------|---------------------------|
		---------------------------|---------------------------|
		---------------------------|---------------------------|
		---------------------------|---------------------------|
		---------------------------|---------------------------|
		--0----0--0--0--0-0-0-0-0--|--0----0--0--0--0-0-0-0-0--|

		---------------------------|-------------------|-------------------|
		---------------------------|-------------------|-------------------|
		---------------------------|-------------------|-------------------|
		---------------------------|--2----------------|-------------------|
		---------------------------|--0----------------|--3----------------|
		--0----0--0--0--0-0-0-0-0--|-------------------|--1----------------|

		-------------------|-------------------|--------------------------------|
		-------------------|-------------------|--------------------------------|
		-------------------|-------------------|--------------------------------|
		--2----------------|-------------------|--------------------------------|
		--0----------------|--3----------------|--------------------------------|
		-------------------|--1----------------|--3--3-3-3-3-3-3-3--3-3-3-3-3-3-|

		--------------------------------|--------------------------------|
		--------------------------------|--------------------------------|
		--------------------------------|--------------------------------|
		--------------------------------|--------------------------------|
		--------------------------------|--------------------------------|
		--3--3-3-3-3-3-3-3--3-3-3-3-3-3-|--3--3-3-3-3-3-3-3--3-3-3-3-3-3-|

		---------------------------|--------------------------------|
		---------------------------|--------------------------------|
		---------------------------|--------------------------------|
		---------------------------|--------------------------------|
		-----------------5----3----|--------------------------------|
		--3--3-3-3-3-3-3-3----1----|--3--3-3-3-3-3-3-3--3-3-3-3-3-3-|

		--------------------------------|-------------------|
		--------------------------------|-------------------|
		--------------------------------|-------------------|
		--------------------------------|-------------------|
		--------------------------------|-------------------|
		--3--3-3-3-3-3-3-3--3-3-3-3-3-3-|--3----------------|

		----------------------------|---------------------------|
		----------------------------|---------------------------|
		-------0--------------------|---------------------------|
		---------3-2-0--------------|---------------------------|
		---------------3-2-0--------|---------------------------|
		---------------------3-1-0--|--0----0--0--0--0-0-0-0-0--|

		---------------------------|---------------------------|
		---------------------------|---------------------------|
		---------------------------|---------------------------|
		---------------------------|---------------------------|
		---------------------------|---------------------------|
		--0----0--0--0--0-0-0-0-0--|--0----0--0--0--0-0-0-0-0--|

		---------------------------|-------------------|-------------------|
		---------------------------|-------------------|-------------------|
		---------------------------|-------------------|-------------------|
		---------------------------|--2----------------|-------------------|
		---------------------------|--0----------------|--3----------------|
		--0----0--0--0--0-0-0-0-0--|-------------------|--1----------------|

		-------------------|-------------------|--------------------------|
		-------------------|-------------------|--------------------------|
		-------------------|-------------------|--------------------------|
		--2----------------|-------------------|---------------------0----|
		--0----------------|--3----------------|-------0-1----1--1-3------|
		-------------------|--1----------------|--3--3--------------------|

		--------------------------|--------------------------|---------------------|
		--------------------------|--------------------------|---------------------|
		---------------------0----|--------------------------|-------2----3--------|
		-------0-1----1--1-3------|---------------------0----|--1----3----5--------|
		--3--3--------------------|-------0-1----1--1-3------|---------------------|
		--------------------------|--3--3--------------------|---------------------|

		--------------------------|--------------------------|
		--------------------------|--------------------------|
		--------------------------|---------------------0----|
		---------------------0----|-------0-1----1--1-3------|
		-------0-1----1--1-3------|--3--3--------------------|
		--3--3--------------------|--------------------------|

		--------------------------|---------------------|--------------------|
		--------------------------|---------------------|--------------------|
		--------------------------|-------2----3--------|--------------------|
		---------------------0----|--1----3----5--------|--3--------0--------|
		-------0-1----1--1-3------|---------------------|--------------------|
		--3--3--------------------|---------------------|--------------------|

		--------------------|-------------------|------------------|------------------|
		--------------------|-------------------|------------------|------------------|
		--------------------|-------------------|------------------|------------------|
		--------------------|-------------------|------------------|------------------|
		--3--------1--------|--5----------------|------------------|------------------|
		--------------------|--3----------------|------------------|------------------|

		------------------|------------------|------------------|
		------------------|------------------|------------------|
		------------------|------------------|------------------|
		------------------|------------------|------------------|
		------------------|------------------|------------------|
		------------------|------------------|------------------|

		---------------------------------|---------------------------------|
		---------------------------------|---------------------------------|
		---------------------------------|---------------------------------|
		--5------------------------------|--3------------------------------|
		--3--3-3-3-3-3-3-3-3-3-3-3-3-3-3-|--1--1-1-1-1-1-1-1-1-1-1-1-1-1-1-|
		---------------------------------|---------------------------------|

		--------------------------------|---------------------------------|
		--------------------------------|---------------------------------|
		--3-----------------------------|---------------------------------|
		--1--1-1-1-1-1-1-3--------------|--5------------------------------|
		-----------------1--1-1-1-1-1-1-|--3--3-3-3-3-3-3-3-3-3-3-3-3-3-3-|
		--------------------------------|---------------------------------|

		---------------------------------|---------------------------------|
		---------------------------------|---------------------------------|
		---------------------------------|---------------------------------|
		--5------------------------------|--3------------------------------|
		--3--3-3-3-3-3-3-3-3-3-3-3-3-3-3-|--1--1-1-1-1-1-1-1-1-1-1-1-1-1-1-|
		---------------------------------|---------------------------------|

		--------------------------------|---------------------------------|
		--------------------------------|---------------------------------|
		--3-----------------------------|---------------------------------|
		--1--1-1-1-1-1-1-0--------------|--5------------------------------|
		--------------------------------|--3--3-3-3-3-3-3-4-4-4-4-4-4-4-4-|
		-----------------3--3-3-3-3-3-3-|---------------------------------|

		---------------------------------|---------------------------------|
		---------------------------------|---------------------------------|
		--2------------------------------|---------------------------------|
		--0--0-0-0-0-0-0-0-0-0-0-0-0-0-0-|--5------------------------------|
		---------------------------------|--3--3-3-3-3-3-3-3-3-3-3-3-3-3-3-|
		---------------------------------|---------------------------------|

		--------------------------------|--------------------------------|
		--------------------------------|--------------------------------|
		--5-----------------------------|--2--------------2--------------|
		--3--3-3-3-3-3-3-5--------------|--0--0-0-0-0-0-0-0--0-0-0-0-0-0-|
		-----------------3--3-3-3-3-3-3-|--------------------------------|
		--------------------------------|--------------------------------|

		---------------------------------|---------------------------------|
		---------------------------------|---------------------------------|
		--2------------------------------|---------------------------------|
		--0--0-0-0-0-0-0-0-0-0-0-0-0-0-0-|--5------------------------------|
		---------------------------------|--3--3-3-3-3-3-3-3-3-3-3-3-3-3-3-|
		---------------------------------|---------------------------------|

		--------------------------------|---------------------------------|
		--------------------------------|---------------------------------|
		--5-----------------------------|--2------------------------------|
		--3--3-3-3-3-3-3-2--------------|--0--0-0-0-0-0-0-0-0-0-0-0-0-0-0-|
		-----------------0--0-0-0-0-0-0-|---------------------------------|
		--------------------------------|---------------------------------|

		--------------------------------|--------------------------------|
		--------------------------------|--------------------------------|
		--------------------------------|--------------------------------|
		--------------------------------|--0--0-0-0-0-0-0----------------|
		-----------------3--3-3-3-3-3-3-|--------------------------------|
		--3--3-3-3-3-3-3----------------|-----------------3--3-3-3-3-3-3-|

		--------------------------------|-----------------------||
		--------------------------------|-----------------------||
		--------------------------------|-----------------------||
		--------------------------------|-----------------------||
		--6--6-6-6-6-6-6-3--3-3-3-3-3-3-|-----------5-----------||
		--------------------------------|--3-3-3-3--3-----------||]