
		Феллини
!		Би-2 и Сплин

!		Rhythm Melody/Intro:
>		   D5   F5   D5   F5   D5   F5   A5   C5
		[G|-7-7-/10-7-7-7-/10-7-7-7-/10-------------|
		D|-7-7-/10-7-7-7-/10-7-7-7-/10-7-7-7-/10---| - основная мелодия песни.
		A|-5-5-/8- 5-5-5-/8- 5-5-5-/8--7-7-7-/10---|
		E|-----------------------------5-5-5-/8- 0-|]

>		     D5        D5    D5        A5        D5    D5 D5 D5 A5
(1)		В одном из неснятых фильмов Федерико Феллини,
>		    D5          D5    D5       A5         D5    D5 D5 D5 A5
		На тоненькой льдине,        в бокале "Мартини".
>		  D5     D5  D5 A5     D5       D5  D5 A5
		Герой на героине,     героиня на героине,
>		   D5       D5   D5  A5            D5  D5 D5 D5 A5
		И двойная сплошная пролегла между ними.

(2)		Между ними секунду назад было жарко,
		А теперь между ними лежат снега Килиманджаро.
		Патроны в магазине, глазами на резине,
		И отравленный воздух глотают так жадно.
		Зря...

>		 D5                A5
Припев:		Зря ты думаешь о смерти.
>		 D5                              A5
		Я хочу найти письмо в пустом конверте
>		   D5 E5 F5  G5
		[G|-7-/9-/10-/12-|]
		[D|-7-/9-/10-/12-|]       или       [G|-7-/9-/10-/12-|]
		[A|-5-/7-/8--/10-|]   то же самое
		[E|--------------|] на одной струне
		           И прочесть            тебе.

!		Rhythm Melody/Solo: <D5 D5 A5 A5>

		[E|-5-5-6-5----------|
		B|---------3-/5-/6--|]

(3)		В одном из неснятых фильмов Федерико Феллини
		Лежат снега Килиманджаро.
		Герой на героине, героиня на героине,
		И отравленный воздух глотают так жадно.

!		Припев } 2 раза

!		Rhythm Melody/Solo: <D5 D5 A5 A5>

-

!		Основной рифф, играется все куплеты:
		[A|-5-5-5/12-5-5-5-5/12-5-5-5-5/12------------|
		E|--------------------------------5-5-5-5/11-|]

		В одном из неснятых фильмов Фредерика Феллини
		На тоненькой льдине в стакане мартини
		Герой на героине, героиня на героине
		И двойная сплошная пролегла между ними

		Между ними секунду назад было жарко
		А теперь между ними лежат снега Килиманжаро
		Патроны в магазине, глазами на Visin'е
		И отравленный воздух глотают так жадно.

>		  D5               A5
		Зря ты думаешь о смерти,
>		     D5                          A5
		Я хочу найти письмо в пустом конверте
>		      D5  E5  F5  G5
		И прочесть      тебе

Примечание:	Аккорды <D5 E5 F5 G5> в припеве желательно играть
		в одной октаве.