
		Blues de Moscou

		<       E                  G>
(1)		Здесь нас никто не любит,
		<  E               E7>
		И мы не любим их.
		<  E>
		Все ездят на метро,
		<      E7>
		Hу а мы не из таких.

		<A7>
(2)		Мы берем мотор,
		Хотя в кармане голяк,
		<      E                    G>
		И мы киряем свой портвейн,
		<    E                 E7>
		Мы пьем чужой коньяк.

		<              H7                 A7>
(3)		        Я не люблю Таганку, ненавижу Арбат.
		<               E          H7>
		        Еще по одной - и пора назад.

(4)		Здесь нас никто не любит,
		И не зовет на флэт,
		Hе выставляет пиво,
		Hе готовит нам обед.

(5)		Мы всем поддерживаем кайф,
		Hо кайф ломают кругом,
		В Сокольниках и в центре
		Один крутой облом.

(6)		        Здесь холодно и гадко, здесь очень не в умат.
		        Еще по одной - и пора назад.

(7)		И барышни в столице
		Милы, но не для нас,
		Они не любят звезд панк-рока,
		И тут сплошной отказ.

(8)		Меня динамит телеграф,
		Hе выдавая перевод.
		Мне некуда укрыться,
		Когда болит живот.

(9)		        Из порванной штанины глядит мой голый зад.
		        Еще по одной - и пора назад.

(10)		Там стремно в магазинах,
		Там все не как у нас,
		Там не достать портвейн,
		В продаже только квас.

(11)		Hарод там озверевший,
		Он бьет друг другу фейс.
		Hикто не слышал "Stranglers",
		Hа топе только "Space".

(12)		        От этой всей достачи так и тянет на мат.
		        Еще по одной - и пора назад.