
		Столыпинский вагон

>		Am
		Нас в смысле прописки - нема
>		----Dm--------------------------E-C-G-F
		Живем, где застанет ночлег.
>		---C---------------G-------------C
		И дом мой не дом, а тюрьма,
>		---Dm
		И бег мой - не бег,
>		---F
		И бег мой - не бег,
>		---Dm------------E----------Am-E
		И бег мой не бег, а побег.

ПРИПЕВ:		<--------------Am-----------------------Dm>
		Вагон столыпинский, кругом решеточки.
>		---------------E----------------------Am--E
		Конвой из Вологды - не до чечеточки!
>		--------------Am-----------G-----------C------A7
		Вагон столыпинский - не до бутылочки,
>		-----------Dm------E----------Am
		А из Бутырочки до Пресылочки.

		И Вы не завидуйте, эй,
		Что легкую нОшу ношУ,
		На совести черной моей,
		Я как на распятье,
		Я как на распятье,
		Я как на распятье, вешу.

!		ПРИПЕВ

		Я Феню забросил сейчас,
		А раньше я все колыхал,
		Но ласковых слов и облас,
		Я с малых годов,
		Я с малых годов,
		Я с малых годов не слыхал.

!		ПРИПЕВ