
		Офицеры

Вступление:	<Dm Gm A7 Dm>

>		            Dm
(1)		Господа офицеры
>		              D7
		По натянутым нервам
>		             Gm
		Я аккордами веры
>		           A7+  A7/C#
		Эту песню пою
>		                    Dm  B
		Тем, кто бросив карьеру
>		             F  Gm
		Живота не жалея
>		                   Dm
		Свою грудь подставляет
>		       A7    Dm
		За Россию свою

(2)		Тем, кто выжил в Афгане
		Свою честь не изгадив
		Кто карьеры не делал
		От солдатских кровей
		Я пою офицерам
		Матерей пожалевших
		Возвратив им обратно
		Живых сыновей

>		    Gm       A7
Припев:		Офицеры, офицеры
>		      Dm     Dm/C   B  B/A
		Ваше сердце под прицелом
>		       Gm       A7         Dm Dm/E Dm/F Dm
		За Россию и свободу до конца
>		    Gm        A7
		Офицеры, россияне
>		          Dm     Dm/C B  B/A
		Пусть свобода в вас сияет
>		       Gm       A7             Dm
		Заставляя в унисон звучать сердца

(3)		Господа офицеры
		Как сберечь вашу веру
		Hа разрытых могилах
		Ваши души хрипят
		Что ж мы братцы наделали
		Hе смогли уберечь их
		И теперь они вечно
		В глаза нам глядят

(4)		Вновь уходят ребята
		Растворяясь в закатах
		Позвала их Россия
		Как бывало не раз
		И опять вы уходите
		Может прямо на небо
		И откуда-то сверху
		Прощаете нас

>		                Gm     A7
Концовка:	Так куда ж вы уходите?
>		                Dm Dm/C B  B/A
		Может прямо на небо
>		              Dm       A7    Dm
		И откуда-то сверху прощаете нас

!		Пpипев.
!		Соло.
!		Припев.

Заключение:	<Dm Gm A7 Dm>

!		Аккорды, используемые в песне:
!		       <Dm>         3    <Gm>
		X||-X-|---|---| X||-X-|---|---|
		X||---|---|-X-| X||-X-|---|---|
		X||---|-X-|---| X||-X-|---|---|
		X||---|---|---| X||---|---|-X-|
		0||---|---|---| X||---|---|-X-|
		0||---|---|---| X||-X-|---|---|

>		       A7              D7
		X||---|---|---| X||---|-X-|---|
		X||---|-X-|---| X||-X-|---|---|
		X||---|---|---| X||---|-X-|---|
		X||---|-X-|---| X||---|---|---|
		X||---|---|---| 0||---|---|---|
		0||---|---|---| 0||---|---|---|

!		       <A7+>        2   <A7/C#>
		X||---|---|---| X||---|---|---|
		X||---|-X-|---| X||-X-|---|---|
		X||---|---|-X-| X||---|---|---|
		X||---|-X-|---| X||-X-|---|---|
		0||---|---|---| X||---|---|-X-|
		0||---|---|---| 0||---|---|---|

>		        B               F
		X||-X-|---|---| X||-X-|---|---|
		X||---|---|-X-| X||-X-|---|---|
		X||---|---|-X-| X||---|-X-|---|
		X||---|---|-X-| X||---|---|-X-|
		X||-X-|---|---| X||---|---|-X-|
		X||-X-|---|---| X||-X-|---|---|

>		       Dm/C            B/A
		X||-X-|---|---| X||-X-|---|---|
		X||---|---|-X-| X||---|---|-X-|
		X||---|-X-|---| X||---|---|-X-|
		X||---|---|---| X||---|---|-X-|
		X||---|---|-X-| X||---|---|---|
		0||---|---|---| 0||---|---|---|

>		       Dm/E           Dm/F
		X||-X-|---|---| X||-X-|---|---|
		X||---|---|-X-| X||---|---|-X-|
		X||---|-X-|---| X||---|-X-|---|
		X||---|-X-|---| X||---|---|-X-|
		0||---|---|---| 0||---|---|---|
		0||---|---|---| 0||---|---|---|

!		Примечания:

!		Струны на аппликатурах расположены сверху вниз (тонкая – вверху):
!		<E H G D A E>. Буква <X> слева от аккорда обозначает, что эта струна
!		играется. Цифра 0 показывает, что эту струну не играть. Т. к. песня
!		играется перебором, то бас – это самая верхняя играемая струна в
!		данных нарисованных аккордах. Цифра 2 в аккорде <A7/C#> обозначает
!		2-ой лад, а в аккорде <Gm>, соответственно, 3-ий.

!		Песня играется таким перебором:
		|-------X------|
		|-----X---X----|
		|---X-------X--|
		|-X------------|

!		Припев, по желанию, играется боем.

!		Вступление и заключение:

>		   Dm Gm
		E||----! 10-------8----6-5-----0---------! 6-----5---3-3-----3--------|
		H||---! 10--10-------------6-----6------! 3--3-----3-------3---3------|
		G||--! 10------10---10-------7-----7---! 3-----3---------3-------3----|
		D||-! 0-------------------------------! 5-----------------------------|
		A-------------------------------------------|
		E-------------------------------------------|

>		  A7    Dm
		E||----! 6-----5---1-1-----0------------1--------! 1------------------|
		H||---! 5--5-----5-----2-----2--3-3---3---3-----! 3-------------------|
		G||--! 6-----6-----------0----------2-------2--! 2--------------------|
		D||-! 7---------------------------0-----------! 0---------------------|
		A-------------------------------------------|
		E-------------------------------------------|

!		Цифры – лады. Струны сверху вниз (вверху - тонкая).
!		Цифры со знаком! означают, что эти струны играть быстро,
!		все одним пальцем. Одна цифра под другой – играть вместе.

-

!		Эту песню играть сдержанно:

>		Am                                   A7
(1)		Господа офицеры! По натянутым нервам
>		            Dm                  Ddim
		я аккордами веры эту песню пою.
>		                       Am     F            C
		Тем, кто, бросил карьеру, живота не жалея,
>		Dm                 Am          E7    Am
		свою грудь подставляет за Россию свою.

>		 Dm7           E7
Припев:		Офицеры, офицеры
>		         Am         F
		ваше сердце под прицелом,
>		       Dm       E7   Am
		за  Россию и свободу до конца.
>		Dm            E7              Am
		Офиляя  в унисон звучать сердца.

(2)		Тем, кто выжил в Афгане, свою честь не изгадив,
		Кто карьеры не делал от солдатских кровей,
		Я пою офицерам, матерей пожалевшим,
		Возвратив им обратно живых сыновей.

!		Припев

(3)		Господа офицеры, как сберечь вашу веру?
		На разрытых могилах ваши души хрипят.
		Что ж вы, братцы, наделали, не смогли уберечь их?
		И теперь они вечно в глаза нам глядят.

(4)		Вновь уходят ребята, растворяясь в закатах,
		Позвала их Россия, как бывало не раз.
		И опять вы уходите. Может, прямо на небо?
		И откуда - то сверху прощаете нас.

!		Припев