
		Белая невеста

>		Em
(1)		Белая невеста
>		C                    D
		Принесла в день свадьбы
>		Em
		На могилу воина
>		C         D
		Белые цветы.
>		C                D
		Он до службы срочной \
>		G          C          \
		Обещал девчонке        \
>		Am          C           } 2 раза
		Что моей женою         /
>		D             Em      /
		Будешь только ты.    /

(2)		Он служил далеко,
		Доблестно и честно.
		Был красивым парнем,
		Верил он в мечту.
		Но подвел девчонку,
		Не закончил службу.
		И домой вернулся
		В цинковом гробу.

(3)		И девченка эта
		У плиты могильной
		В белоснежном платье
		На колени встав.
		Ты прости парнишка
		Я тебя любила
		Но я вышла за муж
		От любви устав.

(4)		Не могу любить я
		Мертвого солдата.
		Ты лежишь в могиле
		С красною звездой.
		Я еще красивей
		За два года стала
		Жаль не получилась
		Жизнь у нас с тобой.

(5)		И девчонка встала,
		Отрехнув колени.
		И эскорт почетный
		Их домой повез,
		А по обелиску
		С карточки солдатской
		Потекли слезинки-
		Капли горьких слез.