
		Кукушка

		<Dm               Gm         Dm>
(1)		Снится часто мне мой дом родной.
		<Cm           D7         Gm>
		Лес о чем-то о своем мечтает.
		<      C7      F Bb>
		Серая кукушка за рекoй
		<E7           A7              D    Cm D7>
		Сколько жить осталось мне, считает.
		<Gm      C7         F Bb>
		Серая кукушка за рекой
		<E7           A7               Dm    E7 Eb7>
		Сколько жить осталось мне, считает.
		
(2)		Ты прижался ласково к цветку,
		Стебелек багульника примятый.
		И звучит ленивое "ку-ку",
		Отмеряя жизни моей даты.

(3)		Снится мне опушка из цветов.
		Вся в рябине тихая опушка.
		Восемьдесят...  Девяносто... Сто...
		Что ты так расщедрилась, кукушка?

(4)		Я тоскую по родной стране,
		По ее рассветам и закатам.
		Hа афганской выжженой земле
		Спят тревожно русские солдаты.

(5)		Они тратят силы, не скупясь,
		Им знакомы холод и усталость.
		Дни свои не копят про запас.
		Кто им скажет сколько их осталось...
		Дни свои не прячут про запас.
		Кто им скажет сколько их осталось...

(6)		Так что ты, кукушка, погоди
		Мне дарить чужую долю чью-то.
		У солдата вечность впереди,
		Ты ее со старостью не путай.
