
		All day and all of the night

!		main pattern goes like this:
!		(with some lyrics to help with the rhythm)- the timing
!		isn't correct, but that can easily be figured out from
!		listening to the record

		[E--------------------------------------------------------
		B--------------------------------------------------------
		G--------------------------3---3--3----------------------
		D--3----5----5----3----3---3---3--3----5-----------------
		A--3----5----5----3----3---1---1--1----5-----------------
		E--1----3----3----1----1---------------3-----------------]
!		   I'm not  con-tent  to   b - e with you
!		            All  day  and all of the night

!		that patter keeps on repeating

-

		I'm not content to be with you in the daytime
		Girl I want to be with you all of the time
		The only time I feel all right is by your side
		Girl I want to be with you all of the time
		All day and all of the night
		All day and all of the night
		All day and all of the night

		I believe that you and me last forever
		Oh yeah all day the nighttime you leave me never
		The only time I feel all right is by your side
		Girl I want to be with you all of the time
		All day and all of the night
		All day and all of the night
		All day and all of the night

!		Solo:

		I believe that you and me last forever
		Oh yeah all day the nighttime you leave me never
		The only time I feel all right  is by your side
		Girl I want to be with you all of the time
		All day and all of the night
		All day and all of the night
		All day and all of the night