
		Baby It's You
!		(David/Williams/Bacharach)

>		 G                 Em
		Sha la la la la la la  } 3x's
>		C
		I's not the way you smile
>		                  G
		that touched my heart.
>		C
		It's not the way you kiss
>		             G
		that tears apart.
>		         Em
		But how many many many nights go by
>		Am                                  G             Em
		I sit alone at home and i cry over you.What can I do?
>		C             D                    G   Em         G
		Can't help myself cause baby it's you. Baby it's you.

>		C                                    G
		You should hear what they say about you    cheat  cheat
>		C                                            G
		They say they say you never never ever been true
>		      Em
		Wo ho it doesn't matter what they say
>		Am
		I know I'm gonna love you any old way
>		           G             Em
		What can I do then it's true.
>		C                   D
		Don't want nobody nobody
>		                 G    Em         G
		Cause baby it's you.  Baby it's you.

Solo Chords:	<Em C D G G D G>

-

		Sha la la la la la la la
		Sha la la la la la la la
		Sha la la la la la la la
		Sha la la la la

		It's not the way you smile that touched my heart. (sha la la la la)
		It's not the way you kiss that tears me apart.

		Uh, oh, many, many, many nights go by,
		I sit alone at home and I cry over you.
		What can I do.
		Can't help myself, 'cause baby, it's you.
		Baby, it's you.

		You should hear what they say about you, "cheat," "cheat."
		They say, they say you never never never ever been true. (cheat cheat)

		Uh oh,
		It doesn't matter what they say,
		I know I'm gonna love you any old way.
		What can I do, and it's true.
		Don't want nobody, nobody, 'cause baby, it's you. (sha la la la la la la)
		Baby, it's you. (sha la la la la la la)

		Uh oh,
		It doesn't matter what they say,
		I know I'm gonna love you any old way.
		What can I do, when it's true.
		Don't want nobody, nobody, 'cause baby, it's you. (sha la la la la la la)
		Baby, it's you. (sha la la la la la la)
		Don't leave me all alone...