
		Glass Onion
!		(Lennon/McCartney)

>		Am                  F7
		I told you 'bout Strawberry fields,
>		Am                          F7
		you know the place where nothing is real
>		Am                     Gm7
		Well here's another place you can go   -  wo
>		C7         Gm7
		Where everything flow   - ows
>		C7      F7                             D7
		Looking through the bent backed tulips      To
>		F7                           D7          F7                       G7
		see how the other half lives         Looking through a glass onion

		I told you 'bout the Walrus and me man
		You know that we're as close as can be man
		Well here's another clue for you all
		The Walrus was Paul
		Standing on a cast iron whore yeah
		Lady Madonna tryin' to make ends meet yeah   Looking through a glass onion

BRIDGE:		<Am        F        Am         Am7>
		oh yeah          oh yeah    oh yeah
>		F7                            G7
		Looking through a glass onion

		I told you 'bout the Fool on the Hill
		I tell you that he's living there still
		Well here's another place you can be
		Listen to me
		Fixing a hole in the ocean         Try-                        <G  Adim7>
		ing to make a dove tail joint     Looking through a glass onion

!		Coda, repeat and fade (each "-" represents a beat)

!		|<Adim7> -  <Abdim7 Gdim7> |<F#dim7> - - - |- - <Gdim7 G#dim7> |<Adim7> - - - |

		<Adim7> = [xx1212], <Abdim7> = [xx3434], <Gdim7> = [xx2323], <F#dim7> = [xx1212]
		<Gm7> = [xx3333], <F7> = [xx1211]

-

		I told you about strawberry fields
		You know the place where nothing is real
		Well here's another place you can go
		Where everything flows.
		Looking through the bent backed tulips
		To see how the other half live
		Looking through a glass onion.
		I told you about the walrus and me-man
		You know that we're as close as can be-man
		Well here's another clue for you all
		The walrus was Paul.
		Standing on the cast iron shore-yeah
		Lady Madonna trying to make ends meet-yeah
		Looking through a glass onion.

		I told you about the fool on the hill
		I tell you man he living there still
		Well here's another place you can be
		Listen to me.
		Fixing a hole in the ocean
		Trying to make a dove-tail joint-yeah
		Looking through a glass onion.