
		Sun King
!		(Lennon/McCartney)
!		(Italian lyrics broken down phoenetically)

!		(each line represents 4 bars)
>		E
>		A   E
>		A   E
>		A6   A6   A6  A6       A6   A7   Amaj7  E

		<Dm>          ahhh    (2 bars)

>		C            Em                Gm7       A
		Here      come    the    sun         king
>		C            Em                Gm7        A
		Here      come    the    sun         king
>		F                              D           F                          D
		Everybody's     laughing           Everybody's     happy
!		<C            Em                Gm7        F>         (notice the change)
		Here      come    the    sun         king


!		<A   E>      here they sing in Italian. 
!		<A   E>      understand me for not writing the words.

-

Text:		Here comes the sun king
		Here comes the sun king
		Everybody's laughing
		Everybody's happy
		Here comes the sun king

		Quando paramucho mi amore de felice carathon
		Mundo paparazzi mi amore cicce verdi parasol
		Questo abrigado tantamucho que canite carousel