
		Ticket to Ride
!		(Lennon/McCartney)

!		During the intro and the verse he plays this:

		[e------0-----------0---
		B---------2-----0------
		G-2----------2---------
		D----------------------
		A----------------------
		E----------------------]

!		When he says "Away" from the line "Goin' away, yea" you strum this

		[e---2----2-2---2--2---0----0-0---0--0-----
		B---3----3-3---3--3---0----0-0---0--0-----
		G---4----4-4---4--4---1----1-1---1--1-----
		D---4----4-4---4--4---2----2-2---2--2-----
		A---2----2-2---2--2---2----2-2---2--2-----
		E---------------------0----0-0---0--0-----]

CHORUS:		   "She's got a ticket to ride,       She's got a ticket to ri-i-i-de
		[e---2---------------------2-----------2---------------------2--------
		B---2---------------------3-----------2---------------------2--------
		G---2---------------------2-----------2---------------------2--------
		D---4---------------------0-----------4---------------------0--------
		A---4---------------------------------4------------------------------
		E---2---------------------------------2------------------------------]

		    "She's got a ticket to ride, and she don't care
		[e----2---------------------0--------
		B----2---------------------0--------]           On "Care" go back to the main
		[G----2---------------------1--------]           riff
		[D----4---------------------2--------
		A----4---------------------2--------
		E----2---------------------0--------]

!		On the bridge it's just <D7> and <E>

		  "Don't know why......High................"
		[e--2-------------------0----------
		B--1-------------------0----------
		G--2-------------------1----------
		D--0-------------------2----------
		A----------------------2----------
		E----------------------0----------]

!		riff at the end of the bridge:

		[e-------------------10------12b---10--12-----
		B--10b-------10s12------12-------------------
		G------12--9---------------------------------]

key:		b = full bend and then release to the original note
		s = slide up to note indicated

-

Text:		I think I'm gonna be sad,
		I think it's today, yeah.
		The girl that's driving me mad
		Is going away.
		She's got a ticket to ride,
		She's got a ticket to ride,
		She's got a ticket to ride,
		But she don't care.
		She said that living with me
		Is bringing her down yeah.
		For she would never be free
		When I was around.
		She's got a ticket to ride,
		She's got a ticket to ride,
		She's got a ticket to ride,
		But she don't care.
		I don't know why she's ridin' so high,
		She ought to think twice,
		She ought to do right by me.
		Before she gets to saying goodbye,
		She ought to think twice,
		She ought to do right by me.
		I think I'm gonna be sad,
		I think it's today yeah.
		The girl that's driving me mad
		Is going away, yeah.
		She's got a ticket to ride,
		She's got a ticket to ride,
		She's got a ticket to ride,
		But she don't care.
		I don't know why she's ridin' so high,
		She ought to think twice,
		She ought to do right by me.
		Before she gets to saying goodbye,
		She ought to think twice,
		She ought to do right by me.
		She said that living with me,
		Is bringing her down, yeah.
		For she would never be free
		When I was around.
		Ah, she's got a ticket to ride,
		She's got a ticket to ride,
		She's got a ticket to ride,
		But she don't care.
		My baby don't care, my baby don't care.
		My baby don't care, my baby don't care.
		My baby don't care, my baby don't care.